Canopy,PlotNumber,DGCI,pixel_DGCI,Location_x,date,alt,Plot_Loc,PLOT,Variety,IDC1,YLD3,Location_y
3628,101,0.2964,1075.34,Hunter,625,100Ft,"Hunter, 101",101,Channel 1318R2X,1.5,49.4399879323,Hunter
4881,102,0.2888,1409.63,Hunter,625,100Ft,"Hunter, 102",102,W1050NRX,1.5,45.4367383561,Hunter
4314,103,0.2857,1232.51,Hunter,625,100Ft,"Hunter, 103",103,REA RX0228,2.0,43.4036447404,Hunter
3296,104,0.2602,857.62,Hunter,625,100Ft,"Hunter, 104",104,Dahlman 6806XN,2.0,35.303633567999995,Hunter
3620,105,0.2629,951.7,Hunter,625,100Ft,"Hunter, 105",105,Dahlman 6703XN,2.0,35.3153428992,Hunter
4081,106,0.2757,1125.13,Hunter,625,100Ft,"Hunter, 106",106,Dyna-Gro S11XT78,2.5,46.017021097599994,Hunter
2730,107,0.2466,673.22,Hunter,625,100Ft,"Hunter, 107",107,Integra 30808N,3.5,32.10405881759999,Hunter
4377,108,0.2667,1167.35,Hunter,625,100Ft,"Hunter, 108",108,Thunder SB8807NR2X,3.0,39.091358266799986,Hunter
6730,109,0.2906,1955.74,Hunter,625,100Ft,"Hunter, 109",109,PB-1257R2,2.5,41.33938722759999,Hunter
2450,110,0.251,614.95,Hunter,625,100Ft,"Hunter, 110",110,PFS 18X07N,3.0,30.308871977999992,Hunter
2133,111,0.2517,536.88,Hunter,625,100Ft,"Hunter, 111",111,Integra 20915N,2.5,39.25748440319999,Hunter
3046,112,0.2351,716.11,Hunter,625,100Ft,"Hunter, 112",112,GH1253X,2.5,39.82546828119999,Hunter
2116,113,0.2607,551.64,Hunter,625,100Ft,"Hunter, 113",113,Thunder 3503R2Y,2.0,34.75201429349999,Hunter
3597,114,0.2646,951.77,Hunter,625,100Ft,"Hunter, 114",114,Dyna-Gro S07RY45,2.0,39.91369483919999,Hunter
5785,115,0.3047,1762.69,Hunter,625,100Ft,"Hunter, 115",115,PB-0777R2,1.0,38.59200407999999,Hunter
4525,116,0.2768,1252.52,Hunter,625,100Ft,"Hunter, 116",116,Integra 20775N,1.0,39.54145601349999,Hunter
3471,117,0.2639,916.0,Hunter,625,100Ft,"Hunter, 117",117,REA RX0516,1.0,38.42097872689999,Hunter
2105,118,0.253,532.57,Hunter,625,100Ft,"Hunter, 118",118,Dyna-Gro S05XT88,1.0,37.87785684899999,Hunter
4779,119,0.2853,1363.45,Hunter,625,100Ft,"Hunter, 119",119,Channel 0218R2X,1.0,40.263755053199986,Hunter
3773,120,0.2784,1050.4,Hunter,625,100Ft,"Hunter, 120",120,Legend 04X765,1.5,38.61334921499999,Hunter
3995,121,0.2817,1125.39,Hunter,625,100Ft,"Hunter, 121",121,REA RX0628,1.0,41.37144558749999,Hunter
3527,122,0.2715,957.58,Hunter,625,100Ft,"Hunter, 122",122,Dahlman 68008XN,1.5,27.817020589399995,Hunter
2443,123,0.259,632.74,Hunter,625,100Ft,"Hunter, 123",123,PFS 18X11N,1.5,29.216427968699996,Hunter
4951,124,0.2868,1419.95,Hunter,625,100Ft,"Hunter, 124",124,REA RX0327,1.0,38.82295844069999,Hunter
4330,125,0.2807,1215.43,Hunter,625,100Ft,"Hunter, 125",125,Thunder SB8703R2X,1.0,36.06701691039999,Hunter
4587,126,0.2764,1267.85,Hunter,625,100Ft,"Hunter, 126",126,PFS 15R07N,2.0,36.987093872399996,Hunter
4765,127,0.2955,1408.06,Hunter,625,100Ft,"Hunter, 127",127,W1074NRX,1.5,31.629668274399997,Hunter
4144,128,0.3003,1244.44,Hunter,625,100Ft,"Hunter, 128",128,PFS 17X04N,1.0,35.534587928699985,Hunter
3496,129,0.2694,941.82,Hunter,625,100Ft,"Hunter, 129",129,Legend 007X756N,1.0,34.035325975,Hunter
3188,130,0.2741,873.83,Hunter,625,100Ft,"Hunter, 130",130,NKS08-M2,1.0,33.86257268239999,Hunter
4703,131,0.2795,1314.49,Hunter,625,100Ft,"Hunter, 131",131,W1039NRX,1.5,37.48522833719999,Hunter
4286,132,0.2836,1215.51,Hunter,625,100Ft,"Hunter, 132",132,Channel 0317R2X,1.0,40.11978719979999,Hunter
4195,133,0.2765,1159.92,Hunter,625,100Ft,"Hunter, 133",133,Channel 0518R2X,1.0,34.3614593091,Hunter
5853,134,0.3159,1848.96,Hunter,625,100Ft,"Hunter, 134",134,PB-0578R2,1.0,38.90783076319999,Hunter
2884,135,0.2725,785.89,Hunter,625,100Ft,"Hunter, 135",135,Stine 07BA00,1.5,31.07455246349999,Hunter
3866,136,0.2696,1042.27,Hunter,625,100Ft,"Hunter, 136",136,GH0391,2.0,43.14807232399999,Hunter
4548,137,0.2762,1256.16,Hunter,625,100Ft,"Hunter, 137",137,NKS12-R3,1.5,44.42841450739999,Hunter
3122,138,0.2691,840.13,Hunter,625,100Ft,"Hunter, 138",138,Legend 02R21,1.5,35.50712385499999,Hunter
5729,139,0.3054,1749.64,Hunter,625,100Ft,"Hunter, 139",139,PB-0863R2,1.5,40.8739819698,Hunter
2932,140,0.2668,782.26,Hunter,625,100Ft,"Hunter, 140",140,W1048NRX,1.0,36.27105607229999,Hunter
2318,201,0.2304,534.07,Hunter,625,100Ft,"Hunter, 201",201,Integra 30808N,3.0,34.2664226366,Hunter
2842,202,0.2295,652.24,Hunter,625,100Ft,"Hunter, 202",202,Thunder SB8807NR2X,3.5,38.01544149059998,Hunter
3082,203,0.2376,732.28,Hunter,625,100Ft,"Hunter, 203",203,GH0391,3.0,39.47152528549999,Hunter
4168,204,0.2725,1135.78,Hunter,625,100Ft,"Hunter, 204",204,REA RX0327,3.0,40.30382292089999,Hunter
3934,205,0.2619,1030.31,Hunter,625,100Ft,"Hunter, 205",205,Dahlman 6703XN,2.0,32.4117540208,Hunter
4665,206,0.2902,1353.78,Hunter,625,100Ft,"Hunter, 206",206,PB-0578R2,2.0,37.994401286099986,Hunter
3864,207,0.268,1035.55,Hunter,625,100Ft,"Hunter, 207",207,REA RX0228,2.0,38.84011586349999,Hunter
3850,208,0.2329,896.66,Hunter,625,100Ft,"Hunter, 208",208,PB-0863R2,3.0,30.05516980199999,Hunter
3266,209,0.2327,760.0,Hunter,625,100Ft,"Hunter, 209",209,Thunder SB8703R2X,3.0,36.61501767629999,Hunter
3512,210,0.2522,885.73,Hunter,625,100Ft,"Hunter, 210",210,Channel 0518R2X,3.0,40.582041509099994,Hunter
3887,211,0.2543,988.46,Hunter,625,100Ft,"Hunter, 211",211,Integra 20775N,3.0,40.469969386,Hunter
3078,212,0.2619,806.13,Hunter,625,100Ft,"Hunter, 212",212,Legend 04X765,2.5,41.05356570559999,Hunter
2956,213,0.2608,770.92,Hunter,625,100Ft,"Hunter, 213",213,Legend 007X756N,1.5,34.3728637098,Hunter
2621,214,0.2323,608.86,Hunter,625,100Ft,"Hunter, 214",214,Stine 07BA00,3.0,31.355393453999998,Hunter
2249,215,0.24600000000000002,553.25,Hunter,625,100Ft,"Hunter, 215",215,PFS 18X07N,2.5,31.254969675999995,Hunter
3296,216,0.268,883.33,Hunter,625,100Ft,"Hunter, 216",216,NKS08-M2,2.0,34.020282737,Hunter
2780,217,0.2341,650.8,Hunter,625,100Ft,"Hunter, 217",217,GH1253X,2.0,33.825167874399995,Hunter
2952,218,0.2601,767.82,Hunter,625,100Ft,"Hunter, 218",218,PFS 17X04N,2.0,23.58259303679999,Hunter
3132,219,0.2478,776.11,Hunter,625,100Ft,"Hunter, 219",219,Channel 0317R2X,2.0,35.330955340799996,Hunter
2845,220,0.2506,712.96,Hunter,625,100Ft,"Hunter, 220",220,W1048NRX,2.5,31.064245812599992,Hunter
2142,221,0.2278,487.95,Hunter,625,100Ft,"Hunter, 221",221,PFS 15R07N,3.5,21.925722672,Hunter
3312,222,0.2421,801.84,Hunter,625,100Ft,"Hunter, 222",222,W1050NRX,3.0,31.002405907199993,Hunter
2457,223,0.2463,605.16,Hunter,625,100Ft,"Hunter, 223",223,Channel 0218R2X,2.0,36.6028814424,Hunter
3625,224,0.2555,926.19,Hunter,625,100Ft,"Hunter, 224",224,PB-1257R2,2.5,45.78787599119999,Hunter
4032,225,0.2818,1136.22,Hunter,625,100Ft,"Hunter, 225",225,Thunder 3503R2Y,1.5,38.41248133029999,Hunter
2798,226,0.2737,765.81,Hunter,625,100Ft,"Hunter, 226",226,Channel 1318R2X,1.5,44.860074123199986,Hunter
2697,227,0.2938,792.38,Hunter,625,100Ft,"Hunter, 227",227,Dahlman 68008XN,1.5,29.646115700599992,Hunter
4122,228,0.3033,1250.2,Hunter,625,100Ft,"Hunter, 228",228,W1074NRX,2.0,44.67622136039999,Hunter
4133,229,0.3261,1347.77,Hunter,625,100Ft,"Hunter, 229",229,W1039NRX,1.5,35.245086912,Hunter
3205,230,0.3148,1008.93,Hunter,625,100Ft,"Hunter, 230",230,Dyna-Gro S11XT78,2.0,36.11887542409999,Hunter
3126,231,0.2933,916.86,Hunter,625,100Ft,"Hunter, 231",231,Legend 02R21,2.0,35.647717144199994,Hunter
2892,232,0.2817,814.68,Hunter,625,100Ft,"Hunter, 232",232,Dahlman 6806XN,2.0,35.62405453739999,Hunter
2131,233,0.2566,546.81,Hunter,625,100Ft,"Hunter, 233",233,Dyna-Gro S05XT88,2.5,41.155697094400004,Hunter
3274,234,0.2531,828.65,Hunter,625,100Ft,"Hunter, 234",234,Dyna-Gro S07RY45,3.0,49.286872163899986,Hunter
1796,235,0.2343,420.8,Hunter,625,100Ft,"Hunter, 235",235,PFS 18X11N,3.5,28.662247277999995,Hunter
4188,236,0.3002,1257.24,Hunter,625,100Ft,"Hunter, 236",236,REA RX0628,1.5,42.4934678553,Hunter
5876,237,0.3333,1958.47,Hunter,625,100Ft,"Hunter, 237",237,PB-0777R2,2.5,51.72035985479999,Hunter
3278,238,0.2876,942.75,Hunter,625,100Ft,"Hunter, 238",238,Integra 20915N,3.0,45.3946376184,Hunter
5312,239,0.3581,1902.23,Hunter,625,100Ft,"Hunter, 239",239,NKS12-R3,2.0,52.59654715349999,Hunter
2975,240,0.3116,927.01,Hunter,625,100Ft,"Hunter, 240",240,REA RX0516,2.0,42.4418126286,Hunter
3272,301,0.2654,868.39,Hunter,625,100Ft,"Hunter, 301",301,Dahlman 6806XN,3.0,38.152578900799995,Hunter
1232,302,0.2403,296.05,Hunter,625,100Ft,"Hunter, 302",302,PFS 18X11N,4.0,18.975703042799996,Hunter
3841,303,0.266,1021.71,Hunter,625,100Ft,"Hunter, 303",303,Dahlman 6703XN,2.5,30.328997390999994,Hunter
3542,304,0.2549,902.86,Hunter,625,100Ft,"Hunter, 304",304,Dyna-Gro S11XT78,3.5,32.6417122752,Hunter
4298,305,0.252,1083.1,Hunter,625,100Ft,"Hunter, 305",305,Channel 1318R2X,3.5,46.722487973699984,Hunter
2237,306,0.2362,528.38,Hunter,625,100Ft,"Hunter, 306",306,PFS 17X04N,3.5,26.489434507199995,Hunter
4154,307,0.2737,1136.95,Hunter,625,100Ft,"Hunter, 307",307,Channel 0317R2X,3.0,43.597194293099996,Hunter
3323,308,0.2545,845.7,Hunter,625,100Ft,"Hunter, 308",308,Dahlman 68008XN,3.0,20.621108020799998,Hunter
4810,309,0.2565,1233.77,Hunter,625,100Ft,"Hunter, 309",309,W1039NRX,3.0,38.66854163549999,Hunter
4273,310,0.2608,1114.4,Hunter,625,100Ft,"Hunter, 310",310,Thunder 3503R2Y,2.5,37.109513303799986,Hunter
3327,311,0.2539,844.73,Hunter,625,100Ft,"Hunter, 311",311,Legend 04X765,3.0,40.22368718549998,Hunter
4579,312,0.2656,1216.18,Hunter,625,100Ft,"Hunter, 312",312,PB-1257R2,3.0,42.946777536599996,Hunter
2183,313,0.2407,525.45,Hunter,625,100Ft,"Hunter, 313",313,Integra 20915N,3.0,36.189517656599996,Hunter
2626,314,0.239,627.61,Hunter,625,100Ft,"Hunter, 314",314,Integra 30808N,3.5,29.961820411599994,Hunter
3467,315,0.2705,937.82,Hunter,625,100Ft,"Hunter, 315",315,PFS 18X07N,1.5,41.178465238399994,Hunter
5840,316,0.3037,1773.61,Hunter,625,100Ft,"Hunter, 316",316,PB-0578R2,2.0,46.18233408599998,Hunter
4917,317,0.2614,1285.3,Hunter,625,100Ft,"Hunter, 317",317,PB-0777R2,3.0,42.902623600199995,Hunter
4153,318,0.2555,1061.09,Hunter,625,100Ft,"Hunter, 318",318,NKS12-R3,2.0,48.866149388699995,Hunter
3464,319,0.2765,957.8,Hunter,625,100Ft,"Hunter, 319",319,Channel 0218R2X,1.5,38.61334921499999,Hunter
4055,320,0.2575,1044.16,Hunter,625,100Ft,"Hunter, 320",320,W1074NRX,3.0,44.582363752499994,Hunter
2382,321,0.2424,577.4,Hunter,625,100Ft,"Hunter, 321",321,REA RX0516,2.0,41.69766023639999,Hunter
2589,322,0.2574,666.41,Hunter,625,100Ft,"Hunter, 322",322,Dyna-Gro S05XT88,2.0,41.57829011,Hunter
3334,323,0.2636,878.84,Hunter,625,100Ft,"Hunter, 323",323,NKS08-M2,2.0,37.514257720799996,Hunter
3521,324,0.273,961.23,Hunter,625,100Ft,"Hunter, 324",324,W1050NRX,2.0,42.314189049999996,Hunter
3270,325,0.2413,789.05,Hunter,625,100Ft,"Hunter, 325",325,GH1253X,2.5,41.68381639169999,Hunter
3024,326,0.2491,753.28,Hunter,625,100Ft,"Hunter, 326",326,Channel 0518R2X,2.5,42.55479954319999,Hunter
3664,327,0.2449,897.31,Hunter,625,100Ft,"Hunter, 327",327,GH0391,2.5,42.352589964299995,Hunter
3276,328,0.2753,901.88,Hunter,625,100Ft,"Hunter, 328",328,Legend 02R21,1.5,36.03514150879999,Hunter
3455,329,0.2773,958.07,Hunter,625,100Ft,"Hunter, 329",329,Legend 007X756N,1.0,34.556675815199995,Hunter
3801,330,0.2714,1031.59,Hunter,625,100Ft,"Hunter, 330",330,Integra 20775N,1.5,44.14417862399999,Hunter
2830,331,0.2565,725.9,Hunter,625,100Ft,"Hunter, 331",331,W1048NRX,1.5,40.11092388659999,Hunter
3289,332,0.254,835.41,Hunter,625,100Ft,"Hunter, 332",332,Thunder SB8703R2X,1.5,38.26251651039999,Hunter
3771,333,0.2637,994.41,Hunter,625,100Ft,"Hunter, 333",333,Thunder SB8807NR2X,2.0,43.35566900839999,Hunter
3902,334,0.2514,980.96,Hunter,625,100Ft,"Hunter, 334",334,PFS 15R07N,3.0,34.5948937712,Hunter
2836,335,0.2565,727.43,Hunter,625,100Ft,"Hunter, 335",335,REA RX0628,2.0,40.492330955999996,Hunter
4336,336,0.2601,1127.79,Hunter,625,100Ft,"Hunter, 336",336,PB-0863R2,2.0,37.73982497599999,Hunter
4648,337,0.2816,1308.88,Hunter,625,100Ft,"Hunter, 337",337,REA RX0228,2.0,41.02183260489999,Hunter
2057,338,0.2299,472.9,Hunter,625,100Ft,"Hunter, 338",338,Stine 07BA00,3.5,30.181411028999996,Hunter
3106,339,0.2576,800.11,Hunter,625,100Ft,"Hunter, 339",339,Dyna-Gro S07RY45,2.0,43.61646590069999,Hunter
4309,340,0.2809,1210.4,Hunter,625,100Ft,"Hunter, 340",340,REA RX0327,2.0,44.3281127016,Hunter
2917,401,0.2595,756.96,Hunter,625,100Ft,"Hunter, 401",401,Channel 0218R2X,2.0,36.61906308759999,Hunter
2670,402,0.2471,659.76,Hunter,625,100Ft,"Hunter, 402",402,Channel 0518R2X,2.0,42.22067703,Hunter
4119,403,0.2778,1144.26,Hunter,625,100Ft,"Hunter, 403",403,W1048NRX,3.0,40.30382292089999,Hunter
5201,404,0.3032,1576.94,Hunter,625,100Ft,"Hunter, 404",404,PB-0578R2,2.0,43.88736615689999,Hunter
3741,405,0.2503,936.37,Hunter,625,100Ft,"Hunter, 405",405,Integra 20775N,3.0,41.15114346559999,Hunter
3106,406,0.257,798.24,Hunter,625,100Ft,"Hunter, 406",406,Dyna-Gro S11XT78,3.0,44.1566401171,Hunter
3636,407,0.261,949.0,Hunter,625,100Ft,"Hunter, 407",407,Thunder 3503R2Y,2.5,38.60054213399999,Hunter
3424,408,0.2435,833.74,Hunter,625,100Ft,"Hunter, 408",408,PB-1257R2,3.0,36.61934768939999,Hunter
4045,409,0.2434,984.55,Hunter,625,100Ft,"Hunter, 409",409,Thunder SB8703R2X,3.0,31.993917920999994,Hunter
3446,410,0.2381,820.49,Hunter,625,100Ft,"Hunter, 410",410,Dahlman 6806XN,3.0,16.834033840399997,Hunter
3637,411,0.2289,832.51,Hunter,625,100Ft,"Hunter, 411",411,PFS 15R07N,3.5,24.295601860599994,Hunter
1857,412,0.2269,421.35,Hunter,625,100Ft,"Hunter, 412",412,Dyna-Gro S05XT88,3.0,27.12596676159999,Hunter
1399,413,0.2211,309.32,Hunter,625,100Ft,"Hunter, 413",413,REA RX0516,3.0,27.345598036399995,Hunter
2203,414,0.2207,486.2,Hunter,625,100Ft,"Hunter, 414",414,Dyna-Gro S07RY45,3.5,40.005539905799985,Hunter
2675,415,0.2511,671.69,Hunter,625,100Ft,"Hunter, 415",415,Channel 0317R2X,2.5,28.519234873499997,Hunter
1661,416,0.2326,386.35,Hunter,625,100Ft,"Hunter, 416",416,Integra 20915N,3.0,26.595733279499992,Hunter
3609,417,0.2577,930.04,Hunter,625,100Ft,"Hunter, 417",417,PB-0863R2,3.0,20.415706835999995,Hunter
2277,418,0.2292,521.89,Hunter,625,100Ft,"Hunter, 418",418,Integra 30808N,3.0,29.73604986939999,Hunter
3438,419,0.2609,896.97,Hunter,625,100Ft,"Hunter, 419",419,NKS12-R3,3.0,36.95635687799999,Hunter
2652,420,0.2483,658.49,Hunter,625,100Ft,"Hunter, 420",420,Legend 04X765,3.0,22.805304863599996,Hunter
3026,421,0.2442,738.95,Hunter,625,100Ft,"Hunter, 421",421,GH1253X,3.0,26.379496897599996,Hunter
1937,422,0.2485,481.34,Hunter,625,100Ft,"Hunter, 422",422,Legend 007X756N,3.0,19.620041517999997,Hunter
1581,423,0.2333,368.85,Hunter,625,100Ft,"Hunter, 423",423,Dahlman 6703XN,3.5,8.124405612399999,Hunter
3065,424,0.2336,715.98,Hunter,625,100Ft,"Hunter, 424",424,PB-0777R2,3.5,27.538883315999996,Hunter
2265,425,0.2282,516.87,Hunter,625,100Ft,"Hunter, 425",425,Thunder SB8807NR2X,3.5,20.560528494799996,Hunter
739,426,0.2063,152.46,Hunter,625,100Ft,"Hunter, 426",426,Stine 07BA00,4.0,0.8095701487999998,Hunter
2433,427,0.2237,544.26,Hunter,625,100Ft,"Hunter, 427",427,Channel 1318R2X,3.0,33.8649308116,Hunter
2671,428,0.2444,652.79,Hunter,625,100Ft,"Hunter, 428",428,REA RX0327,3.5,28.994133634199997,Hunter
4613,429,0.2831,1305.94,Hunter,625,100Ft,"Hunter, 429",429,W1074NRX,1.5,43.71825170159999,Hunter
1986,430,0.2351,466.91,Hunter,625,100Ft,"Hunter, 430",430,PFS 18X07N,2.5,22.466364448499995,Hunter
2996,431,0.2464,738.21,Hunter,625,100Ft,"Hunter, 431",431,W1050NRX,3.0,30.98179260539999,Hunter
2874,432,0.2557,734.88,Hunter,625,100Ft,"Hunter, 432",432,Dahlman 68008XN,3.0,17.66157456,Hunter
2688,433,0.2473,664.74,Hunter,625,100Ft,"Hunter, 433",433,PFS 17X04N,3.5,18.928459143999998,Hunter
1218,434,0.2443,297.56,Hunter,625,100Ft,"Hunter, 434",434,PFS 18X11N,4.0,10.788949307499998,Hunter
2733,435,0.255,696.92,Hunter,625,100Ft,"Hunter, 435",435,NKS08-M2,3.0,29.895142275599994,Hunter
2165,436,0.2691,582.6,Hunter,625,100Ft,"Hunter, 436",436,Legend 02R21,2.0,34.549032223999994,Hunter
2749,437,0.2662,731.78,Hunter,625,100Ft,"Hunter, 437",437,REA RX0628,2.5,45.23778136919999,Hunter
2285,438,0.2579,589.3,Hunter,625,100Ft,"Hunter, 438",438,GH0391,3.0,42.94067892659999,Hunter
4100,439,0.2929,1200.89,Hunter,625,100Ft,"Hunter, 439",439,REA RX0228,2.5,41.0082327046,Hunter
4603,440,0.2991,1376.76,Hunter,625,100Ft,"Hunter, 440",440,W1039NRX,2.5,45.05274954179999,Hunter
582,101,0.2084,121.29,Leonard,625,100Ft,"Leonard, 101",101,Dyna-Gro S11XT78,3.0,0.4041752133999999,Leonard
2,102,0.2137,0.43,Leonard,625,100Ft,"Leonard, 102",102,Integra 30808N,5.0,,Leonard
618,103,0.2148,132.75,Leonard,625,100Ft,"Leonard, 103",103,Thunder SB8807NR2X,3.0,9.196703879999998,Leonard
888,104,0.2173,192.96,Leonard,625,100Ft,"Leonard, 104",104,W1050NRX,3.0,5.853445877999999,Leonard
146,105,0.2131,31.11,Leonard,625,100Ft,"Leonard, 105",105,REA RX0516,4.0,0.6072385976999999,Leonard
991,106,0.2271,225.06,Leonard,625,100Ft,"Leonard, 106",106,Channel 0218R2X,3.0,14.752131016,Leonard
483,107,0.2216,107.03,Leonard,625,100Ft,"Leonard, 107",107,Channel 0518R2X,4.0,12.666203108999998,Leonard
1580,108,0.2195,346.81,Leonard,625,100Ft,"Leonard, 108",108,Legend 04X765,3.0,15.145938592399995,Leonard
1435,109,0.2096,300.78,Leonard,625,100Ft,"Leonard, 109",109,PFS 18X07N,3.0,2.2220692108999995,Leonard
1613,110,0.2164,349.05,Leonard,625,100Ft,"Leonard, 110",110,Integra 20775N,3.5,3.0974433615999994,Leonard
2937,111,0.2241,658.18,Leonard,625,100Ft,"Leonard, 111",111,PB-1257R2,3.0,21.112676315499996,Leonard
3067,112,0.2149,659.1,Leonard,625,100Ft,"Leonard, 112",112,Dahlman 68008XN,3.0,2.6200035133999995,Leonard
2529,113,0.2212,559.41,Leonard,625,100Ft,"Leonard, 113",113,REA RX0228,2.5,18.645097394699995,Leonard
293,114,0.2103,61.62,Leonard,625,100Ft,"Leonard, 114",114,PFS 18X11N,4.0,1.9454565899999996,Leonard
1529,115,0.2176,332.71,Leonard,625,100Ft,"Leonard, 115",115,W1048NRX,3.5,6.899723409599998,Leonard
620,116,0.2029,125.8,Leonard,625,100Ft,"Leonard, 116",116,REA RX0327,3.5,1.0112511814999998,Leonard
2436,117,0.2037,496.21,Leonard,625,100Ft,"Leonard, 117",117,Dyna-Gro S07RY45,3.5,2.0107117169999995,Leonard
1513,118,0.2116,320.15,Leonard,625,100Ft,"Leonard, 118",118,Thunder SB8703R2X,3.0,4.9905332204,Leonard
768,119,0.214,164.35,Leonard,625,100Ft,"Leonard, 119",119,Dyna-Gro S05XT88,3.5,0.7986739655999998,Leonard
2684,120,0.2254,604.97,Leonard,625,100Ft,"Leonard, 120",120,PFS 17X04N,3.5,10.3232187905,Leonard
1041,121,0.2049,213.3,Leonard,625,100Ft,"Leonard, 121",121,GH1253X,3.5,2.0212826409999995,Leonard
1828,122,0.2057,376.02,Leonard,625,100Ft,"Leonard, 122",122,PB-0777R2,3.5,1.6165382239999995,Leonard
3296,123,0.2141,705.67,Leonard,625,100Ft,"Leonard, 123",123,W1039NRX,3.0,15.431678799599995,Leonard
1575,124,0.2222,349.96,Leonard,625,100Ft,"Leonard, 124",124,Legend 007X756N,3.5,8.437467592399999,Leonard
1944,125,0.2252,437.79,Leonard,625,100Ft,"Leonard, 125",125,Legend 02R21,2.5,15.872526987799995,Leonard
2909,126,0.2025,589.07,Leonard,625,100Ft,"Leonard, 126",126,PB-0863R2,3.0,0.8059109827999997,Leonard
529,127,0.2047,108.29,Leonard,625,100Ft,"Leonard, 127",127,Dahlman 6806XN,3.5,0.8842984499999998,Leonard
1571,128,0.2059,323.47,Leonard,625,100Ft,"Leonard, 128",128,Integra 20915N,3.5,6.203302804999999,Leonard
1297,129,0.2132,276.52,Leonard,625,100Ft,"Leonard, 129",129,Channel 0317R2X,3.5,1.6176766311999997,Leonard
1802,130,0.21899999999999997,394.64,Leonard,625,100Ft,"Leonard, 130",130,Dahlman 6703XN,3.0,0.4046631021999999,Leonard
2563,131,0.2224,570.01,Leonard,625,100Ft,"Leonard, 131",131,NKS08-M2,3.5,11.446968997799997,Leonard
1385,132,0.2102,291.13,Leonard,625,100Ft,"Leonard, 132",132,Stine 07BA00,3.5,,Leonard
1109,133,0.2186,242.43,Leonard,625,100Ft,"Leonard, 133",133,NKS12-R3,3.5,14.415487743999998,Leonard
1966,134,0.2176,427.8,Leonard,625,100Ft,"Leonard, 134",134,Channel 1318R2X,3.5,11.182777212599996,Leonard
1212,135,0.2087,252.94,Leonard,625,100Ft,"Leonard, 135",135,PFS 15R07N,3.5,2.1869615459999996,Leonard
1350,136,0.2166,292.41,Leonard,625,100Ft,"Leonard, 136",136,GH0391,3.5,17.139899460599995,Leonard
2146,137,0.2224,477.27,Leonard,625,100Ft,"Leonard, 137",137,REA RX0628,3.0,12.1873809092,Leonard
3341,138,0.2255,753.4,Leonard,625,100Ft,"Leonard, 138",138,PB-0578R2,3.0,20.239457007,Leonard
2185,139,0.2231,487.47,Leonard,625,100Ft,"Leonard, 139",139,Thunder 3503R2Y,3.0,14.399184126599998,Leonard
2624,140,0.2041,535.56,Leonard,625,100Ft,"Leonard, 140",140,W1074NRX,3.0,1.4123364325,Leonard
820,201,0.1986,162.85,Leonard,625,100Ft,"Leonard, 201",201,GH1253X,4.0,,Leonard
1349,202,0.2109,284.5,Leonard,625,100Ft,"Leonard, 202",202,REA RX0327,3.5,5.800997831999999,Leonard
3972,203,0.2307,916.34,Leonard,625,100Ft,"Leonard, 203",203,REA RX0228,3.0,26.407225244399992,Leonard
242,204,0.217,52.51,Leonard,625,100Ft,"Leonard, 204",204,Integra 30808N,4.0,,Leonard
1247,205,0.2173,270.97,Leonard,625,100Ft,"Leonard, 205",205,Dyna-Gro S05XT88,3.5,8.989839028799999,Leonard
2742,206,0.2171,595.29,Leonard,625,100Ft,"Leonard, 206",206,Legend 007X756N,3.0,11.519867715999998,Leonard
1505,207,0.2041,307.17,Leonard,625,100Ft,"Leonard, 207",207,Dyna-Gro S11XT78,3.0,7.9998516675,Leonard
1121,208,0.2128,238.55,Leonard,625,100Ft,"Leonard, 208",208,W1050NRX,3.5,5.811365468999999,Leonard
2608,209,0.21899999999999997,571.15,Leonard,625,100Ft,"Leonard, 209",209,REA RX0628,3.0,17.8475211789,Leonard
2132,210,0.2148,457.95,Leonard,625,100Ft,"Leonard, 210",210,PFS 15R07N,3.0,7.719254621399998,Leonard
1389,211,0.2089,290.16,Leonard,625,100Ft,"Leonard, 211",211,REA RX0516,3.5,0.40445981519999996,Leonard
3056,212,0.2117,646.96,Leonard,625,100Ft,"Leonard, 212",212,PB-1257R2,3.0,6.100033008999999,Leonard
749,213,0.2037,152.57,Leonard,625,100Ft,"Leonard, 213",213,PFS 18X07N,3.5,7.781826359999998,Leonard
2473,214,0.21100000000000002,521.8,Leonard,625,100Ft,"Leonard, 214",214,Legend 02R21,3.0,8.220113132,Leonard
1027,215,0.196,201.29,Leonard,625,100Ft,"Leonard, 215",215,Stine 07BA00,4.0,,Leonard
1325,216,0.2152,285.14,Leonard,625,100Ft,"Leonard, 216",216,Channel 0218R2X,3.0,11.099470199999997,Leonard
2554,217,0.2104,537.36,Leonard,625,100Ft,"Leonard, 217",217,PB-0777R2,3.5,0.4046631021999999,Leonard
2451,218,0.2154,527.95,Leonard,625,100Ft,"Leonard, 218",218,GH0391,3.0,19.5422639118,Leonard
1451,219,0.2185,317.04,Leonard,625,100Ft,"Leonard, 219",219,Legend 04X765,3.5,12.029711512,Leonard
1857,220,0.2121,393.87,Leonard,625,100Ft,"Leonard, 220",220,Thunder SB8703R2X,3.0,5.496067331999998,Leonard
1199,221,0.2092,250.83,Leonard,625,100Ft,"Leonard, 221",221,Integra 20915N,3.5,4.301227660799999,Leonard
1698,222,0.2152,365.41,Leonard,625,100Ft,"Leonard, 222",222,Channel 1318R2X,3.0,10.423988156399998,Leonard
3040,223,0.225,684.0,Leonard,625,100Ft,"Leonard, 223",223,Dahlman 6703XN,3.0,7.6801828599999995,Leonard
2834,224,0.2095,593.72,Leonard,625,100Ft,"Leonard, 224",224,Dahlman 68008XN,3.0,10.5120520848,Leonard
2912,225,0.217,631.9,Leonard,625,100Ft,"Leonard, 225",225,W1039NRX,2.5,20.255110105999997,Leonard
1697,226,0.2124,360.44,Leonard,625,100Ft,"Leonard, 226",226,NKS08-M2,3.5,5.2474270022999985,Leonard
1622,227,0.2065,334.94,Leonard,625,100Ft,"Leonard, 227",227,W1074NRX,3.5,2.0131511609999997,Leonard
1514,228,0.2059,311.73,Leonard,625,100Ft,"Leonard, 228",228,NKS12-R3,3.5,9.004597664999999,Leonard
1534,229,0.2074,318.15,Leonard,625,100Ft,"Leonard, 229",229,Integra 20775N,3.5,2.3418662399999994,Leonard
823,230,0.2185,179.83,Leonard,625,100Ft,"Leonard, 230",230,W1048NRX,3.5,2.1686250585999995,Leonard
2549,231,0.2133,543.7,Leonard,625,100Ft,"Leonard, 231",231,PB-0578R2,3.5,9.921970909899999,Leonard
1799,232,0.2185,393.08,Leonard,625,100Ft,"Leonard, 232",232,Dyna-Gro S07RY45,3.5,6.8709989564999985,Leonard
1985,233,0.2178,432.33,Leonard,625,100Ft,"Leonard, 233",233,Channel 0317R2X,3.0,14.0114345028,Leonard
1853,234,0.215,398.4,Leonard,625,100Ft,"Leonard, 234",234,PFS 17X04N,3.0,6.283824785699999,Leonard
1586,235,0.2239,355.11,Leonard,625,100Ft,"Leonard, 235",235,Thunder 3503R2Y,3.0,12.358995794599998,Leonard
936,236,0.2121,198.53,Leonard,625,100Ft,"Leonard, 236",236,Thunder SB8807NR2X,3.5,1.2141112788,Leonard
1954,237,0.2245,438.67,Leonard,625,100Ft,"Leonard, 237",237,Dahlman 6806XN,3.5,2.8283726884,Leonard
2329,238,0.2146,499.8,Leonard,625,100Ft,"Leonard, 238",238,PB-0863R2,3.0,7.288936699799998,Leonard
2887,239,0.22699999999999998,655.35,Leonard,625,100Ft,"Leonard, 239",239,Channel 0518R2X,2.5,16.841514801999995,Leonard
104,240,0.2085,21.68,Leonard,625,100Ft,"Leonard, 240",240,PFS 18X11N,3.5,0.4047444169999999,Leonard
886,301,0.2205,195.36,Leonard,625,100Ft,"Leonard, 301",301,Channel 0317R2X,4.0,7.279951414399998,Leonard
676,302,0.2128,143.85,Leonard,625,100Ft,"Leonard, 302",302,PB-0863R2,4.0,2.983135081499999,Leonard
505,303,0.2206,111.4,Leonard,625,100Ft,"Leonard, 303",303,REA RX0516,4.0,0.20245352329999994,Leonard
263,304,0.2209,58.1,Leonard,625,100Ft,"Leonard, 304",304,Dahlman 68008XN,4.0,0.6072995837999998,Leonard
1825,305,0.2263,413.0,Leonard,625,100Ft,"Leonard, 305",305,PB-0578R2,4.0,13.309118575199998,Leonard
146,306,0.2197,32.08,Leonard,625,100Ft,"Leonard, 306",306,W1050NRX,4.0,1.0123692599999998,Leonard
907,307,0.2261,205.07,Leonard,625,100Ft,"Leonard, 307",307,PB-1257R2,4.0,13.779687322799997,Leonard
2138,308,0.2289,489.39,Leonard,625,100Ft,"Leonard, 308",308,W1074NRX,3.5,13.572009323599998,Leonard
2318,309,0.2272,526.65,Leonard,625,100Ft,"Leonard, 309",309,REA RX0327,3.5,16.616272805999998,Leonard
2719,310,0.2315,629.45,Leonard,625,100Ft,"Leonard, 310",310,Dahlman 6703XN,3.0,13.687842256199998,Leonard
1436,311,0.2311,331.86,Leonard,625,100Ft,"Leonard, 311",311,Thunder 3503R2Y,2.5,11.245836839999997,Leonard
724,312,0.2111,152.84,Leonard,625,100Ft,"Leonard, 312",312,Stine 07BA00,3.5,0.8096514635999998,Leonard
2902,313,0.2211,641.63,Leonard,625,100Ft,"Leonard, 313",313,PFS 15R07N,3.0,14.175446454399998,Leonard
807,314,0.2174,175.44,Leonard,625,100Ft,"Leonard, 314",314,W1048NRX,3.5,9.536152512599998,Leonard
1146,315,0.214,245.24,Leonard,625,100Ft,"Leonard, 315",315,Integra 20775N,3.5,5.1700762988,Leonard
2193,316,0.2267,497.15,Leonard,625,100Ft,"Leonard, 316",316,REA RX0628,3.0,18.081321557599995,Leonard
1407,317,0.2168,305.04,Leonard,625,100Ft,"Leonard, 317",317,Dahlman 6806XN,3.5,1.0116577555,Leonard
41,318,0.2217,9.09,Leonard,625,100Ft,"Leonard, 318",318,Integra 30808N,4.5,,Leonard
1359,319,0.2181,296.4,Leonard,625,100Ft,"Leonard, 319",319,Dyna-Gro S05XT88,3.5,13.300336576799996,Leonard
1542,320,0.2235,344.64,Leonard,625,100Ft,"Leonard, 320",320,Dyna-Gro S11XT78,3.5,12.295895509799998,Leonard
2233,321,0.2285,510.24,Leonard,625,100Ft,"Leonard, 321",321,Legend 007X756N,3.0,10.207975390199998,Leonard
2283,322,0.2361,539.02,Leonard,625,100Ft,"Leonard, 322",322,NKS08-M2,3.0,21.795375047599997,Leonard
1345,323,0.2213,297.65,Leonard,625,100Ft,"Leonard, 323",323,NKS12-R3,3.5,17.007559623599995,Leonard
2381,324,0.2379,566.44,Leonard,625,100Ft,"Leonard, 324",324,Legend 02R21,2.5,23.216676436799997,Leonard
3037,325,0.2347,712.78,Leonard,625,100Ft,"Leonard, 325",325,Channel 0218R2X,2.5,23.43449845729999,Leonard
1861,326,0.2167,403.28,Leonard,625,100Ft,"Leonard, 326",326,Legend 04X765,3.0,13.128599719199997,Leonard
1059,327,0.2134,225.99,Leonard,625,100Ft,"Leonard, 327",327,GH1253X,3.5,10.646953337999998,Leonard
1081,328,0.212,229.17,Leonard,625,100Ft,"Leonard, 328",328,PFS 17X04N,3.5,5.989953098499999,Leonard
1336,329,0.2137,285.5,Leonard,625,100Ft,"Leonard, 329",329,Thunder SB8703R2X,3.5,5.9151638111999985,Leonard
1618,330,0.2132,344.96,Leonard,625,100Ft,"Leonard, 330",330,GH0391,3.0,14.757009903999997,Leonard
2749,331,0.2172,597.08,Leonard,625,100Ft,"Leonard, 331",331,W1039NRX,3.0,16.0394052861,Leonard
2010,332,0.2168,435.77,Leonard,625,100Ft,"Leonard, 332",332,Dyna-Gro S07RY45,3.0,13.676132925,Leonard
1306,333,0.2271,296.59,Leonard,625,100Ft,"Leonard, 333",333,PFS 18X11N,3.0,6.266220131499999,Leonard
2334,334,0.2128,496.68,Leonard,625,100Ft,"Leonard, 334",334,PB-0777R2,3.5,4.067122351599999,Leonard
3717,335,0.2514,934.45,Leonard,625,100Ft,"Leonard, 335",335,REA RX0228,2.5,26.797190696499992,Leonard
1910,336,0.2325,444.08,Leonard,625,100Ft,"Leonard, 336",336,PFS 18X07N,3.5,13.212516592799998,Leonard
2646,337,0.2279,603.02,Leonard,625,100Ft,"Leonard, 337",337,Channel 1318R2X,3.0,23.737985619599993,Leonard
2510,338,0.2327,584.08,Leonard,625,100Ft,"Leonard, 338",338,Thunder SB8807NR2X,3.0,19.323750715499997,Leonard
809,339,0.2109,170.62,Leonard,625,100Ft,"Leonard, 339",339,Integra 20915N,3.5,10.340559171599997,Leonard
2506,340,0.2235,560.09,Leonard,625,100Ft,"Leonard, 340",340,Channel 0518R2X,2.5,25.620524883099996,Leonard
1897,401,0.2051,389.07,Leonard,625,100Ft,"Leonard, 401",401,PB-0777R2,3.5,3.412904128199999,Leonard
3042,402,0.2189,665.89,Leonard,625,100Ft,"Leonard, 402",402,Channel 0518R2X,2.5,20.808579292199997,Leonard
1125,403,0.2074,233.32,Leonard,625,100Ft,"Leonard, 403",403,REA RX0516,3.5,1.6180018903999998,Leonard
1656,404,0.2018,334.18,Leonard,625,100Ft,"Leonard, 404",404,Dahlman 68008XN,3.0,2.8252420685999997,Leonard
2383,405,0.2238,533.32,Leonard,625,100Ft,"Leonard, 405",405,W1050NRX,3.0,13.840795394999997,Leonard
715,406,0.2217,158.52,Leonard,625,100Ft,"Leonard, 406",406,Integra 20915N,3.5,12.824157107999996,Leonard
2929,407,0.2297,672.79,Leonard,625,100Ft,"Leonard, 407",407,Channel 0317R2X,2.5,21.764190821799996,Leonard
1751,408,0.228,399.23,Leonard,625,100Ft,"Leonard, 408",408,Integra 20775N,3.0,5.4068649963999995,Leonard
1008,409,0.2131,214.8,Leonard,625,100Ft,"Leonard, 409",409,Legend 007X756N,3.0,10.4663328385,Leonard
1836,410,0.2151,394.92,Leonard,625,100Ft,"Leonard, 410",410,Dyna-Gro S05XT88,3.0,9.577623060599999,Leonard
1456,411,0.2079,302.7,Leonard,625,100Ft,"Leonard, 411",411,NKS08-M2,3.5,9.285255697199997,Leonard
1767,412,0.214,378.14,Leonard,625,100Ft,"Leonard, 412",412,REA RX0327,3.0,14.747252128,Leonard
3010,413,0.2308,694.71,Leonard,625,100Ft,"Leonard, 413",413,PB-0578R2,3.0,16.2201884152,Leonard
1477,414,0.2205,325.68,Leonard,625,100Ft,"Leonard, 414",414,PFS 17X04N,3.5,5.651846160099999,Leonard
1862,415,0.2127,396.05,Leonard,625,100Ft,"Leonard, 415",415,PFS 15R07N,3.0,2.4184647815999996,Leonard
1673,416,0.2222,371.74,Leonard,625,100Ft,"Leonard, 416",416,Thunder 3503R2Y,3.0,9.525784875599998,Leonard
1781,417,0.2181,388.44,Leonard,625,100Ft,"Leonard, 417",417,GH0391,3.0,13.477643498199996,Leonard
1799,418,0.2148,386.43,Leonard,625,100Ft,"Leonard, 418",418,Dyna-Gro S11XT78,3.0,7.000309817199999,Leonard
1969,419,0.2235,440.07,Leonard,625,100Ft,"Leonard, 419",419,REA RX0628,3.0,17.865268133999997,Leonard
1248,420,0.2191,273.44,Leonard,625,100Ft,"Leonard, 420",420,Dahlman 6703XN,3.0,8.855588293999999,Leonard
1266,421,0.2118,268.14,Leonard,625,100Ft,"Leonard, 421",421,Thunder SB8807NR2X,3.5,9.196703879999998,Leonard
1848,422,0.2219,410.07,Leonard,625,100Ft,"Leonard, 422",422,Legend 02R21,3.0,10.671957638999999,Leonard
638,423,0.2198,140.23,Leonard,625,100Ft,"Leonard, 423",423,NKS12-R3,3.5,12.385667048999997,Leonard
1366,424,0.2218,302.98,Leonard,625,100Ft,"Leonard, 424",424,Dyna-Gro S07RY45,3.5,8.762482848,Leonard
822,425,0.2129,175.0,Leonard,625,100Ft,"Leonard, 425",425,Legend 04X765,3.0,3.987271217999999,Leonard
2349,426,0.2083,489.3,Leonard,625,100Ft,"Leonard, 426",426,PB-0863R2,3.5,3.3487467509999993,Leonard
969,427,0.2106,204.07,Leonard,625,100Ft,"Leonard, 427",427,Stine 07BA00,3.5,,Leonard
2208,428,0.2071,457.28,Leonard,625,100Ft,"Leonard, 428",428,W1039NRX,3.0,6.889071170799999,Leonard
385,429,0.213,82.0,Leonard,625,100Ft,"Leonard, 429",429,PFS 18X11N,4.0,1.2137453621999998,Leonard
1419,430,0.21600000000000003,306.5,Leonard,625,100Ft,"Leonard, 430",430,Channel 1318R2X,3.5,3.8498085485999987,Leonard
2529,431,0.2221,561.69,Leonard,625,100Ft,"Leonard, 431",431,REA RX0228,2.5,21.984919846399997,Leonard
971,432,0.2137,207.5,Leonard,625,100Ft,"Leonard, 432",432,PFS 18X07N,3.5,9.4025929536,Leonard
919,433,0.2251,206.87,Leonard,625,100Ft,"Leonard, 433",433,Integra 30808N,4.0,,Leonard
1644,434,0.2146,352.8,Leonard,625,100Ft,"Leonard, 434",434,W1074NRX,3.5,9.232279104999998,Leonard
2637,435,0.2172,572.76,Leonard,625,100Ft,"Leonard, 435",435,GH1253X,3.5,9.118438384999997,Leonard
3880,436,0.2535,983.58,Leonard,625,100Ft,"Leonard, 436",436,Channel 0218R2X,2.5,17.698654108799996,Leonard
1237,437,0.2187,270.53,Leonard,625,100Ft,"Leonard, 437",437,Thunder SB8703R2X,3.5,8.267885577,Leonard
3396,438,0.2377,807.23,Leonard,625,100Ft,"Leonard, 438",438,PB-1257R2,2.5,20.752390765399998,Leonard
1204,439,0.2071,249.35,Leonard,625,100Ft,"Leonard, 439",439,Dahlman 6806XN,3.5,0.8097327783999998,Leonard
1417,440,0.2174,308.06,Leonard,625,100Ft,"Leonard, 440",440,W1048NRX,3.5,5.489968722,Leonard
