canopy_size,DGCI,loc,plot,variety,IDC,yield
5026.0,0.294312720457918,Hunter,101,Channel 1318R2X,1.5,49.4399879323
6490.0,0.266081762350579,Hunter,102,W1050NRX,1.5,45.4367383561
6361.0,0.291543760257141,Hunter,103,REA RX0228,2.0,43.4036447404
4771.0,0.236859956319366,Hunter,104,Dahlman 6806XN,2.0,35.303633567999995
5518.0,0.24589543608424,Hunter,105,Dahlman 6703XN,2.0,35.3153428992
4748.0,0.218866152648062,Hunter,106,Dyna-Gro S11XT78,2.5,46.017021097599994
3676.0,0.228897570343577,Hunter,107,Integra 30808N,3.5,32.10405881759999
6472.0,0.261755623429903,Hunter,108,Thunder SB8807NR2X,3.0,39.091358266799986
9762.0,0.304921451591976,Hunter,109,PB-1257R2,2.5,41.33938722759999
3872.0,0.204833094425084,Hunter,110,PFS 18X07N,3.0,30.308871977999992
3311.0,0.241437637929252,Hunter,111,Integra 20915N,2.5,39.25748440319999
4274.0,0.206345715824555,Hunter,112,GH1253X,2.5,39.82546828119999
3627.0,0.241816015382558,Hunter,113,Thunder 3503R2Y,2.0,34.75201429349999
4565.0,0.246879288870821,Hunter,114,Dyna-Gro S07RY45,2.0,39.91369483919999
8905.0,0.318602689265669,Hunter,115,PB-0777R2,1.0,38.59200407999999
6487.0,0.294155137400074,Hunter,116,Integra 20775N,1.0,39.54145601349999
5394.0,0.279510285422167,Hunter,117,REA RX0516,1.0,38.42097872689999
3415.0,0.255331445438446,Hunter,118,Dyna-Gro S05XT88,1.0,37.87785684899999
7074.0,0.315335925736938,Hunter,119,Channel 0218R2X,1.0,40.263755053199986
5358.0,0.283196840500622,Hunter,120,Legend 04X765,1.5,38.61334921499999
5615.0,0.288711268750027,Hunter,121,REA RX0628,1.0,41.37144558749999
5779.0,0.291794844014275,Hunter,122,Dahlman 68008XN,1.5,27.817020589399995
4011.0,0.262359890458041,Hunter,123,PFS 18X11N,1.5,29.216427968699996
7002.0,0.299732298486763,Hunter,124,REA RX0327,1.0,38.82295844069999
5017.0,0.286599687648314,Hunter,125,Thunder SB8703R2X,1.0,36.06701691039999
5833.0,0.243716118204876,Hunter,126,PFS 15R07N,2.0,36.987093872399996
7219.0,0.293865054994429,Hunter,127,W1074NRX,1.5,31.629668274399997
6461.0,0.308505643264665,Hunter,128,PFS 17X04N,1.0,35.534587928699985
5350.0,0.311223025575419,Hunter,129,Legend 007X756N,1.0,34.035325975
5265.0,0.285673435166804,Hunter,130,NKS08-M2,1.0,33.86257268239999
7401.0,0.298752430110159,Hunter,131,W1039NRX,1.5,37.48522833719999
5747.0,0.310192198497286,Hunter,132,Channel 0317R2X,1.0,40.11978719979999
6708.0,0.29371076703547,Hunter,133,Channel 0518R2X,1.0,34.3614593091
7275.0,0.348357666835342,Hunter,134,PB-0578R2,1.0,38.90783076319999
5210.0,0.265363749916059,Hunter,135,Stine 07BA00,1.5,31.07455246349999
5304.0,0.252058386617252,Hunter,136,GH0391,2.0,43.14807232399999
5829.0,0.28774317240077,Hunter,137,NKS12-R3,1.5,44.42841450739999
5571.0,0.281400538666675,Hunter,138,Legend 02R21,1.5,35.50712385499999
6096.0,0.305278301537232,Hunter,139,PB-0863R2,1.5,40.8739819698
4378.0,0.281623814362214,Hunter,140,W1048NRX,1.0,36.27105607229999
3096.0,0.203005780174712,Hunter,201,Integra 30808N,3.0,34.2664226366
4390.0,0.205625088400884,Hunter,202,Thunder SB8807NR2X,3.5,38.01544149059998
4135.0,0.201465257915793,Hunter,203,GH0391,3.0,39.47152528549999
4458.0,0.237831971389582,Hunter,204,REA RX0327,3.0,40.30382292089999
4770.0,0.236219022118445,Hunter,205,Dahlman 6703XN,2.0,32.4117540208
5333.0,0.277142329333246,Hunter,206,PB-0578R2,2.0,37.994401286099986
5884.0,0.285050861105667,Hunter,207,REA RX0228,2.0,38.84011586349999
5141.0,0.209320690740096,Hunter,208,PB-0863R2,3.0,30.05516980199999
4153.0,0.200923503672333,Hunter,209,Thunder SB8703R2X,3.0,36.61501767629999
5230.0,0.213360331455392,Hunter,210,Channel 0518R2X,3.0,40.582041509099994
4829.0,0.219303315041363,Hunter,211,Integra 20775N,3.0,40.469969386
4203.0,0.252351968145685,Hunter,212,Legend 04X765,2.5,41.05356570559999
5004.0,0.267800669134449,Hunter,213,Legend 007X756N,1.5,34.3728637098
3653.0,0.207441644987324,Hunter,214,Stine 07BA00,3.0,31.355393453999998
3293.0,0.224413049963608,Hunter,215,PFS 18X07N,2.5,31.254969675999995
4379.0,0.239234498915307,Hunter,216,NKS08-M2,2.0,34.020282737
4005.0,0.216502905526337,Hunter,217,GH1253X,2.0,33.825167874399995
3266.0,0.22728168357572,Hunter,218,PFS 17X04N,2.0,23.58259303679999
3993.0,0.211205889622714,Hunter,219,Channel 0317R2X,2.0,35.330955340799996
3453.0,0.220858252349709,Hunter,220,W1048NRX,2.5,31.064245812599992
2670.0,0.207969453718778,Hunter,221,PFS 15R07N,3.5,21.925722672
4388.0,0.221483730504743,Hunter,222,W1050NRX,3.0,31.002405907199993
3822.0,0.2323678243108,Hunter,223,Channel 0218R2X,2.0,36.6028814424
4520.0,0.234786575088129,Hunter,224,PB-1257R2,2.5,45.78787599119999
4986.0,0.278824638953373,Hunter,225,Thunder 3503R2Y,1.5,38.41248133029999
4392.0,0.273199050960374,Hunter,226,Channel 1318R2X,1.5,44.860074123199986
4642.0,0.256611846647402,Hunter,227,Dahlman 68008XN,1.5,29.646115700599992
5824.0,0.272332210152584,Hunter,228,W1074NRX,2.0,44.67622136039999
6576.0,0.259279741126129,Hunter,229,W1039NRX,1.5,35.245086912
4649.0,0.210696802116974,Hunter,230,Dyna-Gro S11XT78,2.0,36.11887542409999
4198.0,0.239309107654929,Hunter,231,Legend 02R21,2.0,35.647717144199994
3964.0,0.218455318699842,Hunter,232,Dahlman 6806XN,2.0,35.62405453739999
3405.0,0.202450840518688,Hunter,233,Dyna-Gro S05XT88,2.5,41.155697094400004
4347.0,0.209751151217615,Hunter,234,Dyna-Gro S07RY45,3.0,49.286872163899986
2883.0,0.196222620677336,Hunter,235,PFS 18X11N,3.5,28.662247277999995
5600.0,0.28718138188922,Hunter,236,REA RX0628,1.5,42.4934678553
7087.0,0.238749774439144,Hunter,237,PB-0777R2,2.5,51.72035985479999
4722.0,0.22711048566029,Hunter,238,Integra 20915N,3.0,45.3946376184
6319.0,0.299202848740499,Hunter,239,NKS12-R3,2.0,52.59654715349999
4175.0,0.243109082012119,Hunter,240,REA RX0516,2.0,42.4418126286
4580.0,0.22075691918749,Hunter,301,Dahlman 6806XN,3.0,38.152578900799995
2326.0,0.205061288167717,Hunter,302,PFS 18X11N,4.0,18.975703042799996
3847.0,0.229941339898503,Hunter,303,Dahlman 6703XN,2.5,30.328997390999994
4574.0,0.217809962042761,Hunter,304,Dyna-Gro S11XT78,3.5,32.6417122752
4094.0,0.213743694208501,Hunter,305,Channel 1318R2X,3.5,46.722487973699984
2967.0,0.202848329424436,Hunter,306,PFS 17X04N,3.5,26.489434507199995
4227.0,0.216370953450974,Hunter,307,Channel 0317R2X,3.0,43.597194293099996
3825.0,0.209847498912048,Hunter,308,Dahlman 68008XN,3.0,20.621108020799998
5631.0,0.197328518809497,Hunter,309,W1039NRX,3.0,38.66854163549999
4406.0,0.238046164251948,Hunter,310,Thunder 3503R2Y,2.5,37.109513303799986
4649.0,0.219770649505331,Hunter,311,Legend 04X765,3.0,40.22368718549998
5144.0,0.238810117424554,Hunter,312,PB-1257R2,3.0,42.946777536599996
3698.0,0.223450942405209,Hunter,313,Integra 20915N,3.0,36.189517656599996
3600.0,0.210920484266761,Hunter,314,Integra 30808N,3.5,29.961820411599994
4715.0,0.265770909623149,Hunter,315,PFS 18X07N,1.5,41.178465238399994
7410.0,0.253217969488921,Hunter,316,PB-0578R2,2.0,46.18233408599998
5693.0,0.21636272058082,Hunter,317,PB-0777R2,3.0,42.902623600199995
4892.0,0.209160218091464,Hunter,318,NKS12-R3,2.0,48.866149388699995
5384.0,0.272329786897569,Hunter,319,Channel 0218R2X,1.5,38.61334921499999
4963.0,0.200843106161892,Hunter,320,W1074NRX,3.0,44.582363752499994
3401.0,0.222980558175579,Hunter,321,REA RX0516,2.0,41.69766023639999
3948.0,0.239327935613277,Hunter,322,Dyna-Gro S05XT88,2.0,41.57829011
4531.0,0.25012355643941,Hunter,323,NKS08-M2,2.0,37.514257720799996
4737.0,0.25899821494057,Hunter,324,W1050NRX,2.0,42.314189049999996
4706.0,0.213771327136301,Hunter,325,GH1253X,2.5,41.68381639169999
4902.0,0.238741296089301,Hunter,326,Channel 0518R2X,2.5,42.55479954319999
5760.0,0.215578026935044,Hunter,327,GH0391,2.5,42.352589964299995
4581.0,0.288650916318034,Hunter,328,Legend 02R21,1.5,36.03514150879999
5145.0,0.310633978204199,Hunter,329,Legend 007X756N,1.0,34.556675815199995
6247.0,0.269748940028647,Hunter,330,Integra 20775N,1.5,44.14417862399999
3699.0,0.252956555876805,Hunter,331,W1048NRX,1.5,40.11092388659999
5523.0,0.280915112714394,Hunter,332,Thunder SB8703R2X,1.5,38.26251651039999
4858.0,0.248456161349595,Hunter,333,Thunder SB8807NR2X,2.0,43.35566900839999
4496.0,0.221880020006987,Hunter,334,PFS 15R07N,3.0,34.5948937712
4058.0,0.247829034586679,Hunter,335,REA RX0628,2.0,40.492330955999996
5201.0,0.240943112691201,Hunter,336,PB-0863R2,2.0,37.73982497599999
5964.0,0.282779035458902,Hunter,337,REA RX0228,2.0,41.02183260489999
2965.0,0.207893400916965,Hunter,338,Stine 07BA00,3.5,30.181411028999996
4633.0,0.24699703979487,Hunter,339,Dyna-Gro S07RY45,2.0,43.61646590069999
4948.0,0.284996125220698,Hunter,340,REA RX0327,2.0,44.3281127016
4087.0,0.258788033634431,Hunter,401,Channel 0218R2X,2.0,36.61906308759999
4287.0,0.229182623312875,Hunter,402,Channel 0518R2X,2.0,42.22067703
3573.0,0.274935663447072,Hunter,403,W1048NRX,3.0,40.30382292089999
5925.0,0.31999736206944,Hunter,404,PB-0578R2,2.0,43.88736615689999
4339.0,0.220316423128541,Hunter,405,Integra 20775N,3.0,41.15114346559999
4175.0,0.235236826455165,Hunter,406,Dyna-Gro S11XT78,3.0,44.1566401171
4694.0,0.239484705029331,Hunter,407,Thunder 3503R2Y,2.5,38.60054213399999
4141.0,0.209455899372463,Hunter,408,PB-1257R2,3.0,36.61934768939999
6128.0,0.240802750254035,Hunter,409,Thunder SB8703R2X,3.0,31.993917920999994
4974.0,0.23352886549005,Hunter,410,Dahlman 6806XN,3.0,16.834033840399997
4743.0,0.215933495953808,Hunter,411,PFS 15R07N,3.5,24.295601860599994
2688.0,0.224342033549744,Hunter,412,Dyna-Gro S05XT88,3.0,27.12596676159999
2928.0,0.219856963274095,Hunter,413,REA RX0516,3.0,27.345598036399995
3320.0,0.193112453710602,Hunter,414,Dyna-Gro S07RY45,3.5,40.005539905799985
3436.0,0.22431920857816,Hunter,415,Channel 0317R2X,2.5,28.519234873499997
2422.0,0.216322602656486,Hunter,416,Integra 20915N,3.0,26.595733279499992
4425.0,0.246459738522936,Hunter,417,PB-0863R2,3.0,20.415706835999995
3638.0,0.226299738981456,Hunter,418,Integra 30808N,3.0,29.73604986939999
3680.0,0.234564157065166,Hunter,419,NKS12-R3,3.0,36.95635687799999
3706.0,0.218850199794583,Hunter,420,Legend 04X765,3.0,22.805304863599996
3791.0,0.20217543473677,Hunter,421,GH1253X,3.0,26.379496897599996
2762.0,0.210858858598478,Hunter,422,Legend 007X756N,3.0,19.620041517999997
1965.0,0.198281698145029,Hunter,423,Dahlman 6703XN,3.5,8.124405612399999
3701.0,0.211372659316951,Hunter,424,PB-0777R2,3.5,27.538883315999996
3300.0,0.212926920286634,Hunter,425,Thunder SB8807NR2X,3.5,20.560528494799996
1022.0,0.233766936217735,Hunter,426,Stine 07BA00,4.0,0.8095701487999998
3692.0,0.202461074712814,Hunter,427,Channel 1318R2X,3.0,33.8649308116
3447.0,0.217350698570895,Hunter,428,REA RX0327,3.5,28.994133634199997
6024.0,0.240796948992122,Hunter,429,W1074NRX,1.5,43.71825170159999
3147.0,0.210675592915119,Hunter,430,PFS 18X07N,2.5,22.466364448499995
3770.0,0.211396477322047,Hunter,431,W1050NRX,3.0,30.98179260539999
4206.0,0.24336662537432,Hunter,432,Dahlman 68008XN,3.0,17.66157456
2831.0,0.205722363626881,Hunter,433,PFS 17X04N,3.5,18.928459143999998
1347.0,0.211863695325104,Hunter,434,PFS 18X11N,4.0,10.788949307499998
3026.0,0.206188202780836,Hunter,435,NKS08-M2,3.0,29.895142275599994
3212.0,0.230191932065623,Hunter,436,Legend 02R21,2.0,34.549032223999994
3263.0,0.221601682359771,Hunter,437,REA RX0628,2.5,45.23778136919999
4239.0,0.198325543502474,Hunter,438,GH0391,3.0,42.94067892659999
4897.0,0.261624771897005,Hunter,439,REA RX0228,2.5,41.0082327046
6039.0,0.234091483162647,Hunter,440,W1039NRX,2.5,45.05274954179999
1501.0,0.189233325292753,Leonard,101,Dyna-Gro S11XT78,3.0,0.4041752133999999
534.0,0.199346408303757,Leonard,103,Thunder SB8807NR2X,3.0,9.196703879999998
1473.0,0.201738485190145,Leonard,104,W1050NRX,3.0,5.853445877999999
740.0,0.202294650553046,Leonard,105,REA RX0516,4.0,0.6072385976999999
2063.0,0.208555980036112,Leonard,106,Channel 0218R2X,3.0,14.752131016
1736.0,0.18501400948,Leonard,107,Channel 0518R2X,4.0,12.666203108999998
3419.0,0.213079163147086,Leonard,108,Legend 04X765,3.0,15.145938592399995
2215.0,0.200173508249745,Leonard,109,PFS 18X07N,3.0,2.2220692108999995
1894.0,0.204426779107849,Leonard,110,Integra 20775N,3.5,3.0974433615999994
2957.0,0.226100913532731,Leonard,111,PB-1257R2,3.0,21.112676315499996
2889.0,0.202591306143419,Leonard,112,Dahlman 68008XN,3.0,2.6200035133999995
3228.0,0.235034142340426,Leonard,113,REA RX0228,2.5,18.645097394699995
659.0,0.203802555844708,Leonard,114,PFS 18X11N,4.0,1.9454565899999996
2840.0,0.204856396424519,Leonard,115,W1048NRX,3.5,6.899723409599998
1391.0,0.211262883266299,Leonard,116,REA RX0327,3.5,1.0112511814999998
2271.0,0.199521678865271,Leonard,117,Dyna-Gro S07RY45,3.5,2.0107117169999995
2115.0,0.213626294884276,Leonard,118,Thunder SB8703R2X,3.0,4.9905332204
1488.0,0.201175419443477,Leonard,119,Dyna-Gro S05XT88,3.5,0.7986739655999998
3373.0,0.201953230565428,Leonard,120,PFS 17X04N,3.5,10.3232187905
1460.0,0.183059364720567,Leonard,121,GH1253X,3.5,2.0212826409999995
2241.0,0.1912609077242,Leonard,122,PB-0777R2,3.5,1.6165382239999995
3722.0,0.205959270536611,Leonard,123,W1039NRX,3.0,15.431678799599995
2011.0,0.21783524292254,Leonard,124,Legend 007X756N,3.5,8.437467592399999
2607.0,0.242039161672481,Leonard,125,Legend 02R21,2.5,15.872526987799995
2531.0,0.203117425294084,Leonard,126,PB-0863R2,3.0,0.8059109827999997
531.0,0.199933535719322,Leonard,127,Dahlman 6806XN,3.5,0.8842984499999998
1790.0,0.186692960323069,Leonard,128,Integra 20915N,3.5,6.203302804999999
2785.0,0.197854053404323,Leonard,129,Channel 0317R2X,3.5,1.6176766311999997
1911.0,0.208407468333536,Leonard,130,Dahlman 6703XN,3.0,0.4046631021999999
2292.0,0.217080727174072,Leonard,131,NKS08-M2,3.5,11.446968997799997
1555.0,0.208266820612444,Leonard,132,Stine 07BA00,3.5,
1876.0,0.216898702561601,Leonard,133,NKS12-R3,3.5,14.415487743999998
2793.0,0.206534546824966,Leonard,134,Channel 1318R2X,3.5,11.182777212599996
1394.0,0.195076943726587,Leonard,135,PFS 15R07N,3.5,2.1869615459999996
3015.0,0.218735086052967,Leonard,136,GH0391,3.5,17.139899460599995
3279.0,0.222314314990009,Leonard,137,REA RX0628,3.0,12.1873809092
3729.0,0.231365191705523,Leonard,138,PB-0578R2,3.0,20.239457007
3097.0,0.230897709635869,Leonard,139,Thunder 3503R2Y,3.0,14.399184126599998
2741.0,0.203579632547031,Leonard,140,W1074NRX,3.0,1.4123364325
928.0,0.192735804702509,Leonard,201,GH1253X,4.0,
2052.0,0.212882699571971,Leonard,202,REA RX0327,3.5,5.800997831999999
5509.0,0.252005460106931,Leonard,203,REA RX0228,3.0,26.407225244399992
17.0,0.212226069148849,Leonard,204,Integra 30808N,4.0,
2299.0,0.212876871694892,Leonard,205,Dyna-Gro S05XT88,3.5,8.989839028799999
3427.0,0.211998149604779,Leonard,206,Legend 007X756N,3.0,11.519867715999998
2675.0,0.189869895485517,Leonard,207,Dyna-Gro S11XT78,3.0,7.9998516675
2005.0,0.198110609035242,Leonard,208,W1050NRX,3.5,5.811365468999999
3762.0,0.211591667995245,Leonard,209,REA RX0628,3.0,17.8475211789
2201.0,0.2038307037477,Leonard,210,PFS 15R07N,3.0,7.719254621399998
1153.0,0.211111680590786,Leonard,211,REA RX0516,3.5,0.40445981519999996
2705.0,0.204463777304136,Leonard,212,PB-1257R2,3.0,6.100033008999999
802.0,0.198958489235648,Leonard,213,PFS 18X07N,3.5,7.781826359999998
3285.0,0.197910887619858,Leonard,214,Legend 02R21,3.0,8.220113132
1275.0,0.186309884617142,Leonard,215,Stine 07BA00,4.0,
2058.0,0.227382385435327,Leonard,216,Channel 0218R2X,3.0,11.099470199999997
2015.0,0.195977232869594,Leonard,217,PB-0777R2,3.5,0.4046631021999999
3540.0,0.219682068167265,Leonard,218,GH0391,3.0,19.5422639118
2620.0,0.218458317936832,Leonard,219,Legend 04X765,3.5,12.029711512
2377.0,0.203641106043486,Leonard,220,Thunder SB8703R2X,3.0,5.496067331999998
1534.0,0.194805331061918,Leonard,221,Integra 20915N,3.5,4.301227660799999
2780.0,0.197032024901655,Leonard,222,Channel 1318R2X,3.0,10.423988156399998
3219.0,0.208876222240125,Leonard,223,Dahlman 6703XN,3.0,7.6801828599999995
3813.0,0.201726809806424,Leonard,224,Dahlman 68008XN,3.0,10.5120520848
3514.0,0.226097294902795,Leonard,225,W1039NRX,2.5,20.255110105999997
1796.0,0.211533257418327,Leonard,226,NKS08-M2,3.5,5.2474270022999985
1480.0,0.200060946418828,Leonard,227,W1074NRX,3.5,2.0131511609999997
2079.0,0.199064410086891,Leonard,228,NKS12-R3,3.5,9.004597664999999
1810.0,0.190488574740307,Leonard,229,Integra 20775N,3.5,2.3418662399999994
1504.0,0.216299022280393,Leonard,230,W1048NRX,3.5,2.1686250585999995
2217.0,0.211177446159845,Leonard,231,PB-0578R2,3.5,9.921970909899999
2155.0,0.212377965360396,Leonard,232,Dyna-Gro S07RY45,3.5,6.8709989564999985
3165.0,0.216432180958337,Leonard,233,Channel 0317R2X,3.0,14.0114345028
2513.0,0.199953188059034,Leonard,234,PFS 17X04N,3.0,6.283824785699999
2517.0,0.209773542734664,Leonard,235,Thunder 3503R2Y,3.0,12.358995794599998
1890.0,0.189671131349588,Leonard,236,Thunder SB8807NR2X,3.5,1.2141112788
2053.0,0.200844296016057,Leonard,237,Dahlman 6806XN,3.5,2.8283726884
2531.0,0.202403145285521,Leonard,238,PB-0863R2,3.0,7.288936699799998
3681.0,0.211121234855584,Leonard,239,Channel 0518R2X,2.5,16.841514801999995
85.0,0.207197234385154,Leonard,240,PFS 18X11N,3.5,0.4047444169999999
2315.0,0.188408084030285,Leonard,301,Channel 0317R2X,4.0,7.279951414399998
711.0,0.197926149736309,Leonard,302,PB-0863R2,4.0,2.983135081499999
810.0,0.202202859355344,Leonard,303,REA RX0516,4.0,0.20245352329999994
897.0,0.207196102958326,Leonard,304,Dahlman 68008XN,4.0,0.6072995837999998
2674.0,0.214033470371363,Leonard,305,PB-0578R2,4.0,13.309118575199998
822.0,0.193712135427915,Leonard,306,W1050NRX,4.0,1.0123692599999998
1719.0,0.194194074561944,Leonard,307,PB-1257R2,4.0,13.779687322799997
2647.0,0.212477318756775,Leonard,308,W1074NRX,3.5,13.572009323599998
3540.0,0.218186555116695,Leonard,309,REA RX0327,3.5,16.616272805999998
3390.0,0.212743366687699,Leonard,310,Dahlman 6703XN,3.0,13.687842256199998
2630.0,0.229286516437966,Leonard,311,Thunder 3503R2Y,2.5,11.245836839999997
1002.0,0.210520138655475,Leonard,312,Stine 07BA00,3.5,0.8096514635999998
3053.0,0.211886736166856,Leonard,313,PFS 15R07N,3.0,14.175446454399998
2328.0,0.199295872739193,Leonard,314,W1048NRX,3.5,9.536152512599998
2063.0,0.195405514052177,Leonard,315,Integra 20775N,3.5,5.1700762988
3333.0,0.228556977184263,Leonard,316,REA RX0628,3.0,18.081321557599995
1510.0,0.214473448743094,Leonard,317,Dahlman 6806XN,3.5,1.0116577555
3282.0,0.213590473172724,Leonard,319,Dyna-Gro S05XT88,3.5,13.300336576799996
2729.0,0.196223571519792,Leonard,320,Dyna-Gro S11XT78,3.5,12.295895509799998
3670.0,0.200463752744958,Leonard,321,Legend 007X756N,3.0,10.207975390199998
3210.0,0.209072143136527,Leonard,322,NKS08-M2,3.0,21.795375047599997
2144.0,0.191681302941418,Leonard,323,NKS12-R3,3.5,17.007559623599995
3851.0,0.234692292325189,Leonard,324,Legend 02R21,2.5,23.216676436799997
4273.0,0.242068992864463,Leonard,325,Channel 0218R2X,2.5,23.43449845729999
2961.0,0.221626242011916,Leonard,326,Legend 04X765,3.0,13.128599719199997
1078.0,0.195081672346105,Leonard,327,GH1253X,3.5,10.646953337999998
2089.0,0.202523022747428,Leonard,328,PFS 17X04N,3.5,5.989953098499999
2164.0,0.204387303111238,Leonard,329,Thunder SB8703R2X,3.5,5.9151638111999985
2575.0,0.21057377053696,Leonard,330,GH0391,3.0,14.757009903999997
3648.0,0.221356857469992,Leonard,331,W1039NRX,3.0,16.0394052861
3267.0,0.199537865454938,Leonard,332,Dyna-Gro S07RY45,3.0,13.676132925
1777.0,0.205792978489808,Leonard,333,PFS 18X11N,3.0,6.266220131499999
3148.0,0.185335230697633,Leonard,334,PB-0777R2,3.5,4.067122351599999
5091.0,0.235481304563092,Leonard,335,REA RX0228,2.5,26.797190696499992
2747.0,0.192409548361952,Leonard,336,PFS 18X07N,3.5,13.212516592799998
3784.0,0.208878459410848,Leonard,337,Channel 1318R2X,3.0,23.737985619599993
3334.0,0.215646285485492,Leonard,338,Thunder SB8807NR2X,3.0,19.323750715499997
1203.0,0.205150525245881,Leonard,339,Integra 20915N,3.5,10.340559171599997
4281.0,0.226132801963859,Leonard,340,Channel 0518R2X,2.5,25.620524883099996
2607.0,0.189480813226574,Leonard,401,PB-0777R2,3.5,3.412904128199999
4746.0,0.211697780354097,Leonard,402,Channel 0518R2X,2.5,20.808579292199997
1828.0,0.205112200866186,Leonard,403,REA RX0516,3.5,1.6180018903999998
2741.0,0.190182490361972,Leonard,404,Dahlman 68008XN,3.0,2.8252420685999997
3312.0,0.205702380724881,Leonard,405,W1050NRX,3.0,13.840795394999997
1441.0,0.199450275876884,Leonard,406,Integra 20915N,3.5,12.824157107999996
3697.0,0.197864726709778,Leonard,407,Channel 0317R2X,2.5,21.764190821799996
1548.0,0.186287180166836,Leonard,408,Integra 20775N,3.0,5.4068649963999995
2065.0,0.210627168857157,Leonard,409,Legend 007X756N,3.0,10.4663328385
3310.0,0.204633615116428,Leonard,410,Dyna-Gro S05XT88,3.0,9.577623060599999
1533.0,0.197306322982439,Leonard,411,NKS08-M2,3.5,9.285255697199997
3177.0,0.223483743581676,Leonard,412,REA RX0327,3.0,14.747252128
3478.0,0.229164839540664,Leonard,413,PB-0578R2,3.0,16.2201884152
2199.0,0.195489931917695,Leonard,414,PFS 17X04N,3.5,5.651846160099999
1950.0,0.191821019137517,Leonard,415,PFS 15R07N,3.0,2.4184647815999996
2873.0,0.226959593560361,Leonard,416,Thunder 3503R2Y,3.0,9.525784875599998
2631.0,0.212659023183917,Leonard,417,GH0391,3.0,13.477643498199996
2882.0,0.197337092106579,Leonard,418,Dyna-Gro S11XT78,3.0,7.000309817199999
3239.0,0.216927280439643,Leonard,419,REA RX0628,3.0,17.865268133999997
2505.0,0.208915505223645,Leonard,420,Dahlman 6703XN,3.0,8.855588293999999
1667.0,0.184697182103768,Leonard,421,Thunder SB8807NR2X,3.5,9.196703879999998
3029.0,0.198911182092888,Leonard,422,Legend 02R21,3.0,10.671957638999999
1345.0,0.200586051668376,Leonard,423,NKS12-R3,3.5,12.385667048999997
1751.0,0.205543053917787,Leonard,424,Dyna-Gro S07RY45,3.5,8.762482848
2128.0,0.207867097018525,Leonard,425,Legend 04X765,3.0,3.987271217999999
2468.0,0.203039695362363,Leonard,426,PB-0863R2,3.5,3.3487467509999993
760.0,0.208219817025881,Leonard,427,Stine 07BA00,3.5,
2601.0,0.19253982609279,Leonard,428,W1039NRX,3.0,6.889071170799999
510.0,0.203490967931701,Leonard,429,PFS 18X11N,4.0,1.2137453621999998
1948.0,0.207209005814191,Leonard,430,Channel 1318R2X,3.5,3.8498085485999987
3856.0,0.225486131497037,Leonard,431,REA RX0228,2.5,21.984919846399997
1335.0,0.19641624763887,Leonard,432,PFS 18X07N,3.5,9.4025929536
365.0,0.197066884824674,Leonard,433,Integra 30808N,4.0,
2531.0,0.202826135831947,Leonard,434,W1074NRX,3.5,9.232279104999998
2297.0,0.191455183733169,Leonard,435,GH1253X,3.5,9.118438384999997
5173.0,0.242256367403028,Leonard,436,Channel 0218R2X,2.5,17.698654108799996
2174.0,0.202191680025484,Leonard,437,Thunder SB8703R2X,3.5,8.267885577
3701.0,0.219479634733788,Leonard,438,PB-1257R2,2.5,20.752390765399998
1698.0,0.193995245766373,Leonard,439,Dahlman 6806XN,3.5,0.8097327783999998
2635.0,0.209640959863758,Leonard,440,W1048NRX,3.5,5.489968722
