Canopy,PlotNumber,DGCI,pixel_DGCI,Location_x,date,alt,Plot_Loc,PLOT,Variety,IDC1,YLD3,Location_y
7701,101,0.3201,2465.09,Hunter,708,100Ft,"Hunter, 101",101,Channel 1318R2X,1.5,49.4399879323,Hunter
8198,102,0.3151,2583.19,Hunter,708,100Ft,"Hunter, 102",102,W1050NRX,1.5,45.4367383561,Hunter
8785,103,0.2945,2587.18,Hunter,708,100Ft,"Hunter, 103",103,REA RX0228,2.0,43.4036447404,Hunter
6247,104,0.2593,1619.85,Hunter,708,100Ft,"Hunter, 104",104,Dahlman 6806XN,2.0,35.303633567999995,Hunter
6871,105,0.2807,1928.69,Hunter,708,100Ft,"Hunter, 105",105,Dahlman 6703XN,2.0,35.3153428992,Hunter
4591,106,0.2585,1186.77,Hunter,708,100Ft,"Hunter, 106",106,Dyna-Gro S11XT78,2.5,46.017021097599994,Hunter
2186,107,0.2179,476.33,Hunter,708,100Ft,"Hunter, 107",107,Integra 30808N,3.5,32.10405881759999,Hunter
4299,108,0.2441,1049.39,Hunter,708,100Ft,"Hunter, 108",108,Thunder SB8807NR2X,3.0,39.091358266799986,Hunter
6486,109,0.2452,1590.37,Hunter,708,100Ft,"Hunter, 109",109,PB-1257R2,2.5,41.33938722759999,Hunter
3373,110,0.23,775.79,Hunter,708,100Ft,"Hunter, 110",110,PFS 18X07N,3.0,30.308871977999992,Hunter
3646,111,0.2433,887.07,Hunter,708,100Ft,"Hunter, 111",111,Integra 20915N,2.5,39.25748440319999,Hunter
4734,112,0.2504,1185.39,Hunter,708,100Ft,"Hunter, 112",112,GH1253X,2.5,39.82546828119999,Hunter
5309,113,0.2773,1472.19,Hunter,708,100Ft,"Hunter, 113",113,Thunder 3503R2Y,2.0,34.75201429349999,Hunter
6836,114,0.2812,1922.28,Hunter,708,100Ft,"Hunter, 114",114,Dyna-Gro S07RY45,2.0,39.91369483919999,Hunter
11349,115,0.3374,3829.15,Hunter,708,100Ft,"Hunter, 115",115,PB-0777R2,1.0,38.59200407999999,Hunter
9460,116,0.3179,3007.33,Hunter,708,100Ft,"Hunter, 116",116,Integra 20775N,1.0,39.54145601349999,Hunter
8534,117,0.3181,2714.67,Hunter,708,100Ft,"Hunter, 117",117,REA RX0516,1.0,38.42097872689999,Hunter
6336,118,0.2964,1877.99,Hunter,708,100Ft,"Hunter, 118",118,Dyna-Gro S05XT88,1.0,37.87785684899999,Hunter
9581,119,0.3126,2995.02,Hunter,708,100Ft,"Hunter, 119",119,Channel 0218R2X,1.0,40.263755053199986,Hunter
8274,120,0.3272,2707.25,Hunter,708,100Ft,"Hunter, 120",120,Legend 04X765,1.5,38.61334921499999,Hunter
7827,121,0.3042,2380.97,Hunter,708,100Ft,"Hunter, 121",121,REA RX0628,1.0,41.37144558749999,Hunter
7988,122,0.3404,2719.12,Hunter,708,100Ft,"Hunter, 122",122,Dahlman 68008XN,1.5,27.817020589399995,Hunter
5271,123,0.2996,1579.19,Hunter,708,100Ft,"Hunter, 123",123,PFS 18X11N,1.5,29.216427968699996,Hunter
9222,124,0.3605,3324.53,Hunter,708,100Ft,"Hunter, 124",124,REA RX0327,1.0,38.82295844069999,Hunter
8022,125,0.3287,2636.83,Hunter,708,100Ft,"Hunter, 125",125,Thunder SB8703R2X,1.0,36.06701691039999,Hunter
7847,126,0.3106,2437.28,Hunter,708,100Ft,"Hunter, 126",126,PFS 15R07N,2.0,36.987093872399996,Hunter
10305,127,0.3698,3810.79,Hunter,708,100Ft,"Hunter, 127",127,W1074NRX,1.5,31.629668274399997,Hunter
8818,128,0.344,3033.39,Hunter,708,100Ft,"Hunter, 128",128,PFS 17X04N,1.0,35.534587928699985,Hunter
8315,129,0.3372,2803.82,Hunter,708,100Ft,"Hunter, 129",129,Legend 007X756N,1.0,34.035325975,Hunter
7738,130,0.3278,2536.52,Hunter,708,100Ft,"Hunter, 130",130,NKS08-M2,1.0,33.86257268239999,Hunter
10001,131,0.355,3550.36,Hunter,708,100Ft,"Hunter, 131",131,W1039NRX,1.5,37.48522833719999,Hunter
8456,132,0.3474,2937.61,Hunter,708,100Ft,"Hunter, 132",132,Channel 0317R2X,1.0,40.11978719979999,Hunter
9477,133,0.3505,3321.69,Hunter,708,100Ft,"Hunter, 133",133,Channel 0518R2X,1.0,34.3614593091,Hunter
9520,134,0.4016,3823.23,Hunter,708,100Ft,"Hunter, 134",134,PB-0578R2,1.0,38.90783076319999,Hunter
6553,135,0.3199,2096.3,Hunter,708,100Ft,"Hunter, 135",135,Stine 07BA00,1.5,31.07455246349999,Hunter
6483,136,0.2997,1942.96,Hunter,708,100Ft,"Hunter, 136",136,GH0391,2.0,43.14807232399999,Hunter
7403,137,0.3198,2367.48,Hunter,708,100Ft,"Hunter, 137",137,NKS12-R3,1.5,44.42841450739999,Hunter
6701,138,0.2988,2002.26,Hunter,708,100Ft,"Hunter, 138",138,Legend 02R21,1.5,35.50712385499999,Hunter
8037,139,0.3414,2743.83,Hunter,708,100Ft,"Hunter, 139",139,PB-0863R2,1.5,40.8739819698,Hunter
5797,140,0.2964,1718.23,Hunter,708,100Ft,"Hunter, 140",140,W1048NRX,1.0,36.27105607229999,Hunter
3035,201,0.2274,690.16,Hunter,708,100Ft,"Hunter, 201",201,Integra 30808N,3.0,34.2664226366,Hunter
4564,202,0.2482,1132.78,Hunter,708,100Ft,"Hunter, 202",202,Thunder SB8807NR2X,3.5,38.01544149059998,Hunter
4812,203,0.2622,1261.71,Hunter,708,100Ft,"Hunter, 203",203,GH0391,3.0,39.47152528549999,Hunter
5192,204,0.2945,1529.04,Hunter,708,100Ft,"Hunter, 204",204,REA RX0327,3.0,40.30382292089999,Hunter
4949,205,0.2775,1373.35,Hunter,708,100Ft,"Hunter, 205",205,Dahlman 6703XN,2.0,32.4117540208,Hunter
5821,206,0.321,1868.54,Hunter,708,100Ft,"Hunter, 206",206,PB-0578R2,2.0,37.994401286099986,Hunter
7485,207,0.3006,2249.99,Hunter,708,100Ft,"Hunter, 207",207,REA RX0228,2.0,38.84011586349999,Hunter
4750,208,0.2676,1271.1,Hunter,708,100Ft,"Hunter, 208",208,PB-0863R2,3.0,30.05516980199999,Hunter
5364,209,0.2666,1430.04,Hunter,708,100Ft,"Hunter, 209",209,Thunder SB8703R2X,3.0,36.61501767629999,Hunter
6768,210,0.2831,1916.02,Hunter,708,100Ft,"Hunter, 210",210,Channel 0518R2X,3.0,40.582041509099994,Hunter
5587,211,0.2777,1551.51,Hunter,708,100Ft,"Hunter, 211",211,Integra 20775N,3.0,40.469969386,Hunter
5208,212,0.3036,1581.15,Hunter,708,100Ft,"Hunter, 212",212,Legend 04X765,2.5,41.05356570559999,Hunter
6878,213,0.2913,2003.56,Hunter,708,100Ft,"Hunter, 213",213,Legend 007X756N,1.5,34.3728637098,Hunter
4619,214,0.2485,1147.82,Hunter,708,100Ft,"Hunter, 214",214,Stine 07BA00,3.0,31.355393453999998,Hunter
4977,215,0.2455,1221.85,Hunter,708,100Ft,"Hunter, 215",215,PFS 18X07N,2.5,31.254969675999995,Hunter
5749,216,0.2599,1494.17,Hunter,708,100Ft,"Hunter, 216",216,NKS08-M2,2.0,34.020282737,Hunter
4871,217,0.2674,1302.51,Hunter,708,100Ft,"Hunter, 217",217,GH1253X,2.0,33.825167874399995,Hunter
4887,218,0.2611,1276.0,Hunter,708,100Ft,"Hunter, 218",218,PFS 17X04N,2.0,23.58259303679999,Hunter
3734,219,0.2551,952.54,Hunter,708,100Ft,"Hunter, 219",219,Channel 0317R2X,2.0,35.330955340799996,Hunter
4389,220,0.252,1106.03,Hunter,708,100Ft,"Hunter, 220",220,W1048NRX,2.5,31.064245812599992,Hunter
1691,221,0.2202,372.36,Hunter,708,100Ft,"Hunter, 221",221,PFS 15R07N,3.5,21.925722672,Hunter
3077,222,0.2445,752.33,Hunter,708,100Ft,"Hunter, 222",222,W1050NRX,3.0,31.002405907199993,Hunter
4184,223,0.2558,1070.27,Hunter,708,100Ft,"Hunter, 223",223,Channel 0218R2X,2.0,36.6028814424,Hunter
5558,224,0.2757,1532.34,Hunter,708,100Ft,"Hunter, 224",224,PB-1257R2,2.5,45.78787599119999,Hunter
7892,225,0.3033,2393.64,Hunter,708,100Ft,"Hunter, 225",225,Thunder 3503R2Y,1.5,38.41248133029999,Hunter
5834,226,0.2897,1690.11,Hunter,708,100Ft,"Hunter, 226",226,Channel 1318R2X,1.5,44.860074123199986,Hunter
6705,227,0.2743,1839.18,Hunter,708,100Ft,"Hunter, 227",227,Dahlman 68008XN,1.5,29.646115700599992,Hunter
7647,228,0.2712,2073.87,Hunter,708,100Ft,"Hunter, 228",228,W1074NRX,2.0,44.67622136039999,Hunter
9164,229,0.2813,2577.83,Hunter,708,100Ft,"Hunter, 229",229,W1039NRX,1.5,35.245086912,Hunter
5656,230,0.2571,1454.16,Hunter,708,100Ft,"Hunter, 230",230,Dyna-Gro S11XT78,2.0,36.11887542409999,Hunter
5257,231,0.2563,1347.37,Hunter,708,100Ft,"Hunter, 231",231,Legend 02R21,2.0,35.647717144199994,Hunter
5195,232,0.2576,1338.23,Hunter,708,100Ft,"Hunter, 232",232,Dahlman 6806XN,2.0,35.62405453739999,Hunter
3338,233,0.2519,840.84,Hunter,708,100Ft,"Hunter, 233",233,Dyna-Gro S05XT88,2.5,41.155697094400004,Hunter
4553,234,0.2667,1214.29,Hunter,708,100Ft,"Hunter, 234",234,Dyna-Gro S07RY45,3.0,49.286872163899986,Hunter
1235,235,0.2125,262.44,Hunter,708,100Ft,"Hunter, 235",235,PFS 18X11N,3.5,28.662247277999995,Hunter
7836,236,0.3067,2403.3,Hunter,708,100Ft,"Hunter, 236",236,REA RX0628,1.5,42.4934678553,Hunter
9411,237,0.3197,3008.7,Hunter,708,100Ft,"Hunter, 237",237,PB-0777R2,2.5,51.72035985479999,Hunter
6535,238,0.266,1738.31,Hunter,708,100Ft,"Hunter, 238",238,Integra 20915N,3.0,45.3946376184,Hunter
9388,239,0.3339,3134.65,Hunter,708,100Ft,"Hunter, 239",239,NKS12-R3,2.0,52.59654715349999,Hunter
5820,240,0.2654,1544.63,Hunter,708,100Ft,"Hunter, 240",240,REA RX0516,2.0,42.4418126286,Hunter
4131,301,0.2363,976.16,Hunter,708,100Ft,"Hunter, 301",301,Dahlman 6806XN,3.0,38.152578900799995,Hunter
1169,302,0.2283,266.88,Hunter,708,100Ft,"Hunter, 302",302,PFS 18X11N,4.0,18.975703042799996,Hunter
3513,303,0.2305,809.75,Hunter,708,100Ft,"Hunter, 303",303,Dahlman 6703XN,2.5,30.328997390999994,Hunter
2255,304,0.2307,520.23,Hunter,708,100Ft,"Hunter, 304",304,Dyna-Gro S11XT78,3.5,32.6417122752,Hunter
3164,305,0.2289,724.24,Hunter,708,100Ft,"Hunter, 305",305,Channel 1318R2X,3.5,46.722487973699984,Hunter
1994,306,0.2339,466.4,Hunter,708,100Ft,"Hunter, 306",306,PFS 17X04N,3.5,26.489434507199995,Hunter
4783,307,0.2514,1202.45,Hunter,708,100Ft,"Hunter, 307",307,Channel 0317R2X,3.0,43.597194293099996,Hunter
3815,308,0.2485,948.03,Hunter,708,100Ft,"Hunter, 308",308,Dahlman 68008XN,3.0,20.621108020799998,Hunter
5251,309,0.2302,1208.78,Hunter,708,100Ft,"Hunter, 309",309,W1039NRX,3.0,38.66854163549999,Hunter
5142,310,0.2753,1415.59,Hunter,708,100Ft,"Hunter, 310",310,Thunder 3503R2Y,2.5,37.109513303799986,Hunter
4979,311,0.2584,1286.57,Hunter,708,100Ft,"Hunter, 311",311,Legend 04X765,3.0,40.22368718549998,Hunter
4524,312,0.2155,974.92,Hunter,708,100Ft,"Hunter, 312",312,PB-1257R2,3.0,42.946777536599996,Hunter
2050,313,0.2297,470.88,Hunter,708,100Ft,"Hunter, 313",313,Integra 20915N,3.0,36.189517656599996,Hunter
2404,314,0.19899999999999998,478.4,Hunter,708,100Ft,"Hunter, 314",314,Integra 30808N,3.5,29.961820411599994,Hunter
6708,315,0.2788,1870.19,Hunter,708,100Ft,"Hunter, 315",315,PFS 18X07N,1.5,41.178465238399994,Hunter
7368,316,0.295,2173.56,Hunter,708,100Ft,"Hunter, 316",316,PB-0578R2,2.0,46.18233408599998,Hunter
5891,317,0.2348,1383.21,Hunter,708,100Ft,"Hunter, 317",317,PB-0777R2,3.0,42.902623600199995,Hunter
4973,318,0.2576,1281.04,Hunter,708,100Ft,"Hunter, 318",318,NKS12-R3,2.0,48.866149388699995,Hunter
7805,319,0.2958,2308.72,Hunter,708,100Ft,"Hunter, 319",319,Channel 0218R2X,1.5,38.61334921499999,Hunter
4779,320,0.253,1209.09,Hunter,708,100Ft,"Hunter, 320",320,W1074NRX,3.0,44.582363752499994,Hunter
3468,321,0.2706,938.44,Hunter,708,100Ft,"Hunter, 321",321,REA RX0516,2.0,41.69766023639999,Hunter
3573,322,0.2922,1044.03,Hunter,708,100Ft,"Hunter, 322",322,Dyna-Gro S05XT88,2.0,41.57829011,Hunter
5116,323,0.3035,1552.71,Hunter,708,100Ft,"Hunter, 323",323,NKS08-M2,2.0,37.514257720799996,Hunter
6395,324,0.3221,2059.83,Hunter,708,100Ft,"Hunter, 324",324,W1050NRX,2.0,42.314189049999996,Hunter
5547,325,0.2792,1548.72,Hunter,708,100Ft,"Hunter, 325",325,GH1253X,2.5,41.68381639169999,Hunter
6752,326,0.2832,1912.17,Hunter,708,100Ft,"Hunter, 326",326,Channel 0518R2X,2.5,42.55479954319999,Hunter
6414,327,0.2956,1895.98,Hunter,708,100Ft,"Hunter, 327",327,GH0391,2.5,42.352589964299995,Hunter
6963,328,0.3129,2178.72,Hunter,708,100Ft,"Hunter, 328",328,Legend 02R21,1.5,36.03514150879999,Hunter
7198,329,0.3378,2431.48,Hunter,708,100Ft,"Hunter, 329",329,Legend 007X756N,1.0,34.556675815199995,Hunter
7588,330,0.33399999999999996,2534.39,Hunter,708,100Ft,"Hunter, 330",330,Integra 20775N,1.5,44.14417862399999,Hunter
5372,331,0.2963,1591.72,Hunter,708,100Ft,"Hunter, 331",331,W1048NRX,1.5,40.11092388659999,Hunter
7108,332,0.3122,2219.12,Hunter,708,100Ft,"Hunter, 332",332,Thunder SB8703R2X,1.5,38.26251651039999,Hunter
6946,333,0.3033,2106.72,Hunter,708,100Ft,"Hunter, 333",333,Thunder SB8807NR2X,2.0,43.35566900839999,Hunter
4493,334,0.2879,1293.53,Hunter,708,100Ft,"Hunter, 334",334,PFS 15R07N,3.0,34.5948937712,Hunter
5121,335,0.301,1541.42,Hunter,708,100Ft,"Hunter, 335",335,REA RX0628,2.0,40.492330955999996,Hunter
6251,336,0.3248,2030.32,Hunter,708,100Ft,"Hunter, 336",336,PB-0863R2,2.0,37.73982497599999,Hunter
7922,337,0.3201,2535.83,Hunter,708,100Ft,"Hunter, 337",337,REA RX0228,2.0,41.02183260489999,Hunter
1997,338,0.2461,491.46,Hunter,708,100Ft,"Hunter, 338",338,Stine 07BA00,3.5,30.181411028999996,Hunter
5793,339,0.2947,1707.2,Hunter,708,100Ft,"Hunter, 339",339,Dyna-Gro S07RY45,2.0,43.61646590069999,Hunter
7047,340,0.3027,2133.13,Hunter,708,100Ft,"Hunter, 340",340,REA RX0327,2.0,44.3281127016,Hunter
4907,401,0.285,1398.5,Hunter,708,100Ft,"Hunter, 401",401,Channel 0218R2X,2.0,36.61906308759999,Hunter
4449,402,0.2636,1172.76,Hunter,708,100Ft,"Hunter, 402",402,Channel 0518R2X,2.0,42.22067703,Hunter
4638,403,0.2925,1356.62,Hunter,708,100Ft,"Hunter, 403",403,W1048NRX,3.0,40.30382292089999,Hunter
7886,404,0.3833,3022.7,Hunter,708,100Ft,"Hunter, 404",404,PB-0578R2,2.0,43.88736615689999,Hunter
3976,405,0.2718,1080.68,Hunter,708,100Ft,"Hunter, 405",405,Integra 20775N,3.0,41.15114346559999,Hunter
4348,406,0.2931,1274.4,Hunter,708,100Ft,"Hunter, 406",406,Dyna-Gro S11XT78,3.0,44.1566401171,Hunter
4376,407,0.2913,1274.73,Hunter,708,100Ft,"Hunter, 407",407,Thunder 3503R2Y,2.5,38.60054213399999,Hunter
3570,408,0.2434,868.94,Hunter,708,100Ft,"Hunter, 408",408,PB-1257R2,3.0,36.61934768939999,Hunter
5006,409,0.2819,1411.19,Hunter,708,100Ft,"Hunter, 409",409,Thunder SB8703R2X,3.0,31.993917920999994,Hunter
4671,410,0.2554,1192.97,Hunter,708,100Ft,"Hunter, 410",410,Dahlman 6806XN,3.0,16.834033840399997,Hunter
3442,411,0.2411,829.87,Hunter,708,100Ft,"Hunter, 411",411,PFS 15R07N,3.5,24.295601860599994,Hunter
1982,412,0.2365,468.74,Hunter,708,100Ft,"Hunter, 412",412,Dyna-Gro S05XT88,3.0,27.12596676159999,Hunter
1796,413,0.2323,417.21,Hunter,708,100Ft,"Hunter, 413",413,REA RX0516,3.0,27.345598036399995,Hunter
1916,414,0.2266,434.17,Hunter,708,100Ft,"Hunter, 414",414,Dyna-Gro S07RY45,3.5,40.005539905799985,Hunter
2764,415,0.2534,700.4,Hunter,708,100Ft,"Hunter, 415",415,Channel 0317R2X,2.5,28.519234873499997,Hunter
1376,416,0.2222,305.75,Hunter,708,100Ft,"Hunter, 416",416,Integra 20915N,3.0,26.595733279499992,Hunter
5265,417,0.28300000000000003,1490.0,Hunter,708,100Ft,"Hunter, 417",417,PB-0863R2,3.0,20.415706835999995,Hunter
3923,418,0.2357,924.65,Hunter,708,100Ft,"Hunter, 418",418,Integra 30808N,3.0,29.73604986939999,Hunter
3662,419,0.2374,869.36,Hunter,708,100Ft,"Hunter, 419",419,NKS12-R3,3.0,36.95635687799999,Hunter
2881,420,0.2319,668.1,Hunter,708,100Ft,"Hunter, 420",420,Legend 04X765,3.0,22.805304863599996,Hunter
3597,421,0.2395,861.48,Hunter,708,100Ft,"Hunter, 421",421,GH1253X,3.0,26.379496897599996,Hunter
1891,422,0.2342,442.87,Hunter,708,100Ft,"Hunter, 422",422,Legend 007X756N,3.0,19.620041517999997,Hunter
679,423,0.2165,147.0,Hunter,708,100Ft,"Hunter, 423",423,Dahlman 6703XN,3.5,8.124405612399999,Hunter
1489,424,0.2144,319.24,Hunter,708,100Ft,"Hunter, 424",424,PB-0777R2,3.5,27.538883315999996,Hunter
2301,425,0.2284,525.55,Hunter,708,100Ft,"Hunter, 425",425,Thunder SB8807NR2X,3.5,20.560528494799996,Hunter
113,426,0.2021,22.84,Hunter,708,100Ft,"Hunter, 426",426,Stine 07BA00,4.0,0.8095701487999998,Hunter
2926,427,0.2382,696.97,Hunter,708,100Ft,"Hunter, 427",427,Channel 1318R2X,3.0,33.8649308116,Hunter
2365,428,0.23,543.95,Hunter,708,100Ft,"Hunter, 428",428,REA RX0327,3.5,28.994133634199997,Hunter
7801,429,0.2924,2281.01,Hunter,708,100Ft,"Hunter, 429",429,W1074NRX,1.5,43.71825170159999,Hunter
2804,430,0.2432,681.93,Hunter,708,100Ft,"Hunter, 430",430,PFS 18X07N,2.5,22.466364448499995,Hunter
2428,431,0.2202,534.65,Hunter,708,100Ft,"Hunter, 431",431,W1050NRX,3.0,30.98179260539999,Hunter
4323,432,0.2423,1047.46,Hunter,708,100Ft,"Hunter, 432",432,Dahlman 68008XN,3.0,17.66157456,Hunter
1212,433,0.2119,256.82,Hunter,708,100Ft,"Hunter, 433",433,PFS 17X04N,3.5,18.928459143999998,Hunter
280,434,0.2113,59.16,Hunter,708,100Ft,"Hunter, 434",434,PFS 18X11N,4.0,10.788949307499998,Hunter
1808,435,0.2311,417.83,Hunter,708,100Ft,"Hunter, 435",435,NKS08-M2,3.0,29.895142275599994,Hunter
2959,436,0.2359,698.03,Hunter,708,100Ft,"Hunter, 436",436,Legend 02R21,2.0,34.549032223999994,Hunter
2717,437,0.249,676.53,Hunter,708,100Ft,"Hunter, 437",437,REA RX0628,2.5,45.23778136919999,Hunter
3830,438,0.2331,892.77,Hunter,708,100Ft,"Hunter, 438",438,GH0391,3.0,42.94067892659999,Hunter
7347,439,0.2757,2025.57,Hunter,708,100Ft,"Hunter, 439",439,REA RX0228,2.5,41.0082327046,Hunter
6717,440,0.2694,1809.56,Hunter,708,100Ft,"Hunter, 440",440,W1039NRX,2.5,45.05274954179999,Hunter
477,101,0.2189,104.42,Leonard,708,100Ft,"Leonard, 101",101,Dyna-Gro S11XT78,3.0,0.4041752133999999,Leonard
221,103,0.2124,46.94,Leonard,708,100Ft,"Leonard, 103",103,Thunder SB8807NR2X,3.0,9.196703879999998,Leonard
639,104,0.2244,143.39,Leonard,708,100Ft,"Leonard, 104",104,W1050NRX,3.0,5.853445877999999,Leonard
169,105,0.2166,36.61,Leonard,708,100Ft,"Leonard, 105",105,REA RX0516,4.0,0.6072385976999999,Leonard
3168,106,0.2462,779.96,Leonard,708,100Ft,"Leonard, 106",106,Channel 0218R2X,3.0,14.752131016,Leonard
1113,107,0.2194,244.19,Leonard,708,100Ft,"Leonard, 107",107,Channel 0518R2X,4.0,12.666203108999998,Leonard
4665,108,0.2512,1171.85,Leonard,708,100Ft,"Leonard, 108",108,Legend 04X765,3.0,15.145938592399995,Leonard
1362,109,0.22699999999999998,309.17,Leonard,708,100Ft,"Leonard, 109",109,PFS 18X07N,3.0,2.2220692108999995,Leonard
1260,110,0.2236,281.74,Leonard,708,100Ft,"Leonard, 110",110,Integra 20775N,3.5,3.0974433615999994,Leonard
3447,111,0.2462,848.65,Leonard,708,100Ft,"Leonard, 111",111,PB-1257R2,3.0,21.112676315499996,Leonard
2212,112,0.2211,489.07,Leonard,708,100Ft,"Leonard, 112",112,Dahlman 68008XN,3.0,2.6200035133999995,Leonard
5737,113,0.2473,1418.76,Leonard,708,100Ft,"Leonard, 113",113,REA RX0228,2.5,18.645097394699995,Leonard
51,114,0.2341,11.94,Leonard,708,100Ft,"Leonard, 114",114,PFS 18X11N,4.0,1.9454565899999996,Leonard
3545,115,0.2456,870.65,Leonard,708,100Ft,"Leonard, 115",115,W1048NRX,3.5,6.899723409599998,Leonard
1765,116,0.2319,409.3,Leonard,708,100Ft,"Leonard, 116",116,REA RX0327,3.5,1.0112511814999998,Leonard
1868,117,0.2461,459.71,Leonard,708,100Ft,"Leonard, 117",117,Dyna-Gro S07RY45,3.5,2.0107117169999995,Leonard
2459,118,0.2365,581.55,Leonard,708,100Ft,"Leonard, 118",118,Thunder SB8703R2X,3.0,4.9905332204,Leonard
821,119,0.235,192.94,Leonard,708,100Ft,"Leonard, 119",119,Dyna-Gro S05XT88,3.5,0.7986739655999998,Leonard
3944,120,0.2566,1012.03,Leonard,708,100Ft,"Leonard, 120",120,PFS 17X04N,3.5,10.3232187905,Leonard
172,121,0.2027,34.86,Leonard,708,100Ft,"Leonard, 121",121,GH1253X,3.5,2.0212826409999995,Leonard
606,122,0.2124,128.71,Leonard,708,100Ft,"Leonard, 122",122,PB-0777R2,3.5,1.6165382239999995,Leonard
3882,123,0.2385,925.86,Leonard,708,100Ft,"Leonard, 123",123,W1039NRX,3.0,15.431678799599995,Leonard
1741,124,0.2407,419.06,Leonard,708,100Ft,"Leonard, 124",124,Legend 007X756N,3.5,8.437467592399999,Leonard
4136,125,0.2659,1099.76,Leonard,708,100Ft,"Leonard, 125",125,Legend 02R21,2.5,15.872526987799995,Leonard
1540,126,0.2258,347.73,Leonard,708,100Ft,"Leonard, 126",126,PB-0863R2,3.0,0.8059109827999997,Leonard
91,127,0.2282,20.77,Leonard,708,100Ft,"Leonard, 127",127,Dahlman 6806XN,3.5,0.8842984499999998,Leonard
984,128,0.2304,226.71,Leonard,708,100Ft,"Leonard, 128",128,Integra 20915N,3.5,6.203302804999999,Leonard
3001,129,0.235,705.24,Leonard,708,100Ft,"Leonard, 129",129,Channel 0317R2X,3.5,1.6176766311999997,Leonard
1877,130,0.2258,423.83,Leonard,708,100Ft,"Leonard, 130",130,Dahlman 6703XN,3.0,0.4046631021999999,Leonard
2552,131,0.2387,609.16,Leonard,708,100Ft,"Leonard, 131",131,NKS08-M2,3.5,11.446968997799997,Leonard
326,132,0.2201,71.75,Leonard,708,100Ft,"Leonard, 132",132,Stine 07BA00,3.5,,Leonard
1803,133,0.2455,442.64,Leonard,708,100Ft,"Leonard, 133",133,NKS12-R3,3.5,14.415487743999998,Leonard
3234,134,0.2524,816.26,Leonard,708,100Ft,"Leonard, 134",134,Channel 1318R2X,3.5,11.182777212599996,Leonard
428,135,0.2232,95.53,Leonard,708,100Ft,"Leonard, 135",135,PFS 15R07N,3.5,2.1869615459999996,Leonard
3098,136,0.2486,770.16,Leonard,708,100Ft,"Leonard, 136",136,GH0391,3.5,17.139899460599995,Leonard
3235,137,0.249,805.52,Leonard,708,100Ft,"Leonard, 137",137,REA RX0628,3.0,12.1873809092,Leonard
4617,138,0.2668,1231.82,Leonard,708,100Ft,"Leonard, 138",138,PB-0578R2,3.0,20.239457007,Leonard
4209,139,0.2473,1040.89,Leonard,708,100Ft,"Leonard, 139",139,Thunder 3503R2Y,3.0,14.399184126599998,Leonard
2571,140,0.2285,587.47,Leonard,708,100Ft,"Leonard, 140",140,W1074NRX,3.0,1.4123364325,Leonard
114,201,0.2256,25.72,Leonard,708,100Ft,"Leonard, 201",201,GH1253X,4.0,,Leonard
3243,202,0.2362,766.0,Leonard,708,100Ft,"Leonard, 202",202,REA RX0327,3.5,5.800997831999999,Leonard
8699,203,0.2776,2414.84,Leonard,708,100Ft,"Leonard, 203",203,REA RX0228,3.0,26.407225244399992,Leonard
2192,205,0.2403,526.74,Leonard,708,100Ft,"Leonard, 205",205,Dyna-Gro S05XT88,3.5,8.989839028799999,Leonard
4126,206,0.2497,1030.26,Leonard,708,100Ft,"Leonard, 206",206,Legend 007X756N,3.0,11.519867715999998,Leonard
1702,207,0.2178,370.7,Leonard,708,100Ft,"Leonard, 207",207,Dyna-Gro S11XT78,3.0,7.9998516675,Leonard
1559,208,0.2344,365.43,Leonard,708,100Ft,"Leonard, 208",208,W1050NRX,3.5,5.811365468999999,Leonard
4003,209,0.2452,981.54,Leonard,708,100Ft,"Leonard, 209",209,REA RX0628,3.0,17.8475211789,Leonard
869,210,0.2279,198.05,Leonard,708,100Ft,"Leonard, 210",210,PFS 15R07N,3.0,7.719254621399998,Leonard
642,211,0.2258,144.96,Leonard,708,100Ft,"Leonard, 211",211,REA RX0516,3.5,0.40445981519999996,Leonard
1718,212,0.2185,375.38,Leonard,708,100Ft,"Leonard, 212",212,PB-1257R2,3.0,6.100033008999999,Leonard
218,213,0.2205,48.07,Leonard,708,100Ft,"Leonard, 213",213,PFS 18X07N,3.5,7.781826359999998,Leonard
2761,214,0.2307,636.96,Leonard,708,100Ft,"Leonard, 214",214,Legend 02R21,3.0,8.220113132,Leonard
54,215,0.2161,11.67,Leonard,708,100Ft,"Leonard, 215",215,Stine 07BA00,4.0,,Leonard
3483,216,0.2461,857.17,Leonard,708,100Ft,"Leonard, 216",216,Channel 0218R2X,3.0,11.099470199999997,Leonard
1090,217,0.218,237.62,Leonard,708,100Ft,"Leonard, 217",217,PB-0777R2,3.5,0.4046631021999999,Leonard
4804,218,0.2573,1236.07,Leonard,708,100Ft,"Leonard, 218",218,GH0391,3.0,19.5422639118,Leonard
3143,219,0.2502,786.38,Leonard,708,100Ft,"Leonard, 219",219,Legend 04X765,3.5,12.029711512,Leonard
1897,220,0.2251,427.01,Leonard,708,100Ft,"Leonard, 220",220,Thunder SB8703R2X,3.0,5.496067331999998,Leonard
446,221,0.2088,93.12,Leonard,708,100Ft,"Leonard, 221",221,Integra 20915N,3.5,4.301227660799999,Leonard
2450,222,0.2266,555.17,Leonard,708,100Ft,"Leonard, 222",222,Channel 1318R2X,3.0,10.423988156399998,Leonard
3457,223,0.2416,835.21,Leonard,708,100Ft,"Leonard, 223",223,Dahlman 6703XN,3.0,7.6801828599999995,Leonard
4190,224,0.2437,1021.1,Leonard,708,100Ft,"Leonard, 224",224,Dahlman 68008XN,3.0,10.5120520848,Leonard
5373,225,0.2579,1385.7,Leonard,708,100Ft,"Leonard, 225",225,W1039NRX,2.5,20.255110105999997,Leonard
1484,226,0.22899999999999998,339.84,Leonard,708,100Ft,"Leonard, 226",226,NKS08-M2,3.5,5.2474270022999985,Leonard
583,227,0.2178,126.98,Leonard,708,100Ft,"Leonard, 227",227,W1074NRX,3.5,2.0131511609999997,Leonard
1033,228,0.2297,237.28,Leonard,708,100Ft,"Leonard, 228",228,NKS12-R3,3.5,9.004597664999999,Leonard
584,229,0.2235,130.52,Leonard,708,100Ft,"Leonard, 229",229,Integra 20775N,3.5,2.3418662399999994,Leonard
1560,230,0.2255,351.78,Leonard,708,100Ft,"Leonard, 230",230,W1048NRX,3.5,2.1686250585999995,Leonard
1600,231,0.2267,362.72,Leonard,708,100Ft,"Leonard, 231",231,PB-0578R2,3.5,9.921970909899999,Leonard
1810,232,0.2343,424.08,Leonard,708,100Ft,"Leonard, 232",232,Dyna-Gro S07RY45,3.5,6.8709989564999985,Leonard
4005,233,0.2536,1015.67,Leonard,708,100Ft,"Leonard, 233",233,Channel 0317R2X,3.0,14.0114345028,Leonard
1978,234,0.2412,477.09,Leonard,708,100Ft,"Leonard, 234",234,PFS 17X04N,3.0,6.283824785699999,Leonard
1967,235,0.2295,451.43,Leonard,708,100Ft,"Leonard, 235",235,Thunder 3503R2Y,3.0,12.358995794599998,Leonard
1008,236,0.212,213.7,Leonard,708,100Ft,"Leonard, 236",236,Thunder SB8807NR2X,3.5,1.2141112788,Leonard
1516,237,0.2323,352.17,Leonard,708,100Ft,"Leonard, 237",237,Dahlman 6806XN,3.5,2.8283726884,Leonard
1525,238,0.2317,353.34,Leonard,708,100Ft,"Leonard, 238",238,PB-0863R2,3.0,7.288936699799998,Leonard
5063,239,0.25,1265.75,Leonard,708,100Ft,"Leonard, 239",239,Channel 0518R2X,2.5,16.841514801999995,Leonard
39,240,0.2264,8.83,Leonard,708,100Ft,"Leonard, 240",240,PFS 18X11N,3.5,0.4047444169999999,Leonard
1657,301,0.2219,367.69,Leonard,708,100Ft,"Leonard, 301",301,Channel 0317R2X,4.0,7.279951414399998,Leonard
35,302,0.2077,7.27,Leonard,708,100Ft,"Leonard, 302",302,PB-0863R2,4.0,2.983135081499999,Leonard
163,303,0.2116,34.49,Leonard,708,100Ft,"Leonard, 303",303,REA RX0516,4.0,0.20245352329999994,Leonard
225,304,0.2169,48.8,Leonard,708,100Ft,"Leonard, 304",304,Dahlman 68008XN,4.0,0.6072995837999998,Leonard
2412,305,0.265,639.18,Leonard,708,100Ft,"Leonard, 305",305,PB-0578R2,4.0,13.309118575199998,Leonard
9,306,0.2349,2.11,Leonard,708,100Ft,"Leonard, 306",306,W1050NRX,4.0,1.0123692599999998,Leonard
995,307,0.2274,226.26,Leonard,708,100Ft,"Leonard, 307",307,PB-1257R2,4.0,13.779687322799997,Leonard
2565,308,0.2597,666.13,Leonard,708,100Ft,"Leonard, 308",308,W1074NRX,3.5,13.572009323599998,Leonard
5034,309,0.2539,1278.13,Leonard,708,100Ft,"Leonard, 309",309,REA RX0327,3.5,16.616272805999998,Leonard
4327,310,0.2492,1078.29,Leonard,708,100Ft,"Leonard, 310",310,Dahlman 6703XN,3.0,13.687842256199998,Leonard
4532,311,0.2547,1154.3,Leonard,708,100Ft,"Leonard, 311",311,Thunder 3503R2Y,2.5,11.245836839999997,Leonard
296,312,0.2193,64.91,Leonard,708,100Ft,"Leonard, 312",312,Stine 07BA00,3.5,0.8096514635999998,Leonard
2724,313,0.23399999999999999,637.42,Leonard,708,100Ft,"Leonard, 313",313,PFS 15R07N,3.0,14.175446454399998,Leonard
2133,314,0.2298,490.16,Leonard,708,100Ft,"Leonard, 314",314,W1048NRX,3.5,9.536152512599998,Leonard
854,315,0.2178,186.0,Leonard,708,100Ft,"Leonard, 315",315,Integra 20775N,3.5,5.1700762988,Leonard
4834,316,0.2467,1192.55,Leonard,708,100Ft,"Leonard, 316",316,REA RX0628,3.0,18.081321557599995,Leonard
1149,317,0.2437,280.01,Leonard,708,100Ft,"Leonard, 317",317,Dahlman 6806XN,3.5,1.0116577555,Leonard
2976,319,0.2435,724.66,Leonard,708,100Ft,"Leonard, 319",319,Dyna-Gro S05XT88,3.5,13.300336576799996,Leonard
2356,320,0.2361,556.25,Leonard,708,100Ft,"Leonard, 320",320,Dyna-Gro S11XT78,3.5,12.295895509799998,Leonard
3601,321,0.2502,900.97,Leonard,708,100Ft,"Leonard, 321",321,Legend 007X756N,3.0,10.207975390199998,Leonard
3625,322,0.2624,951.2,Leonard,708,100Ft,"Leonard, 322",322,NKS08-M2,3.0,21.795375047599997,Leonard
649,323,0.2342,152.0,Leonard,708,100Ft,"Leonard, 323",323,NKS12-R3,3.5,17.007559623599995,Leonard
5320,324,0.2715,1444.38,Leonard,708,100Ft,"Leonard, 324",324,Legend 02R21,2.5,23.216676436799997,Leonard
6294,325,0.2773,1745.33,Leonard,708,100Ft,"Leonard, 325",325,Channel 0218R2X,2.5,23.43449845729999,Leonard
4174,326,0.2568,1071.88,Leonard,708,100Ft,"Leonard, 326",326,Legend 04X765,3.0,13.128599719199997,Leonard
276,327,0.2203,60.8,Leonard,708,100Ft,"Leonard, 327",327,GH1253X,3.5,10.646953337999998,Leonard
2043,328,0.2315,472.95,Leonard,708,100Ft,"Leonard, 328",328,PFS 17X04N,3.5,5.989953098499999,Leonard
1491,329,0.2287,340.99,Leonard,708,100Ft,"Leonard, 329",329,Thunder SB8703R2X,3.5,5.9151638111999985,Leonard
2502,330,0.2365,591.72,Leonard,708,100Ft,"Leonard, 330",330,GH0391,3.0,14.757009903999997,Leonard
3802,331,0.2508,953.54,Leonard,708,100Ft,"Leonard, 331",331,W1039NRX,3.0,16.0394052861,Leonard
2163,332,0.2274,491.87,Leonard,708,100Ft,"Leonard, 332",332,Dyna-Gro S07RY45,3.0,13.676132925,Leonard
736,333,0.225,165.6,Leonard,708,100Ft,"Leonard, 333",333,PFS 18X11N,3.0,6.266220131499999,Leonard
1229,334,0.2143,263.37,Leonard,708,100Ft,"Leonard, 334",334,PB-0777R2,3.5,4.067122351599999,Leonard
7241,335,0.2792,2021.69,Leonard,708,100Ft,"Leonard, 335",335,REA RX0228,2.5,26.797190696499992,Leonard
1638,336,0.22699999999999998,371.83,Leonard,708,100Ft,"Leonard, 336",336,PFS 18X07N,3.5,13.212516592799998,Leonard
4754,337,0.252,1198.01,Leonard,708,100Ft,"Leonard, 337",337,Channel 1318R2X,3.0,23.737985619599993,Leonard
4253,338,0.2459,1045.81,Leonard,708,100Ft,"Leonard, 338",338,Thunder SB8807NR2X,3.0,19.323750715499997,Leonard
674,339,0.237,159.74,Leonard,708,100Ft,"Leonard, 339",339,Integra 20915N,3.5,10.340559171599997,Leonard
5412,340,0.2592,1402.79,Leonard,708,100Ft,"Leonard, 340",340,Channel 0518R2X,2.5,25.620524883099996,Leonard
1211,401,0.2099,254.19,Leonard,708,100Ft,"Leonard, 401",401,PB-0777R2,3.5,3.412904128199999,Leonard
6447,402,0.256,1650.43,Leonard,708,100Ft,"Leonard, 402",402,Channel 0518R2X,2.5,20.808579292199997,Leonard
1067,403,0.2252,240.29,Leonard,708,100Ft,"Leonard, 403",403,REA RX0516,3.5,1.6180018903999998,Leonard
1075,404,0.2141,230.16,Leonard,708,100Ft,"Leonard, 404",404,Dahlman 68008XN,3.0,2.8252420685999997,Leonard
2582,405,0.2451,632.85,Leonard,708,100Ft,"Leonard, 405",405,W1050NRX,3.0,13.840795394999997,Leonard
873,406,0.2304,201.14,Leonard,708,100Ft,"Leonard, 406",406,Integra 20915N,3.5,12.824157107999996,Leonard
4074,407,0.249,1014.43,Leonard,708,100Ft,"Leonard, 407",407,Channel 0317R2X,2.5,21.764190821799996,Leonard
428,408,0.218,93.3,Leonard,708,100Ft,"Leonard, 408",408,Integra 20775N,3.0,5.4068649963999995,Leonard
1717,409,0.2411,413.97,Leonard,708,100Ft,"Leonard, 409",409,Legend 007X756N,3.0,10.4663328385,Leonard
2679,410,0.2361,632.51,Leonard,708,100Ft,"Leonard, 410",410,Dyna-Gro S05XT88,3.0,9.577623060599999,Leonard
788,411,0.2202,173.52,Leonard,708,100Ft,"Leonard, 411",411,NKS08-M2,3.5,9.285255697199997,Leonard
3476,412,0.2481,862.4,Leonard,708,100Ft,"Leonard, 412",412,REA RX0327,3.0,14.747252128,Leonard
3686,413,0.2661,980.84,Leonard,708,100Ft,"Leonard, 413",413,PB-0578R2,3.0,16.2201884152,Leonard
1596,414,0.222,354.31,Leonard,708,100Ft,"Leonard, 414",414,PFS 17X04N,3.5,5.651846160099999,Leonard
339,415,0.2135,72.38,Leonard,708,100Ft,"Leonard, 415",415,PFS 15R07N,3.0,2.4184647815999996,Leonard
2987,416,0.2384,712.1,Leonard,708,100Ft,"Leonard, 416",416,Thunder 3503R2Y,3.0,9.525784875599998,Leonard
2796,417,0.2397,670.2,Leonard,708,100Ft,"Leonard, 417",417,GH0391,3.0,13.477643498199996,Leonard
2104,418,0.2309,485.81,Leonard,708,100Ft,"Leonard, 418",418,Dyna-Gro S11XT78,3.0,7.000309817199999,Leonard
2715,419,0.2322,630.42,Leonard,708,100Ft,"Leonard, 419",419,REA RX0628,3.0,17.865268133999997,Leonard
2093,420,0.2365,494.99,Leonard,708,100Ft,"Leonard, 420",420,Dahlman 6703XN,3.0,8.855588293999999,Leonard
498,421,0.214,106.57,Leonard,708,100Ft,"Leonard, 421",421,Thunder SB8807NR2X,3.5,9.196703879999998,Leonard
2705,422,0.2238,605.38,Leonard,708,100Ft,"Leonard, 422",422,Legend 02R21,3.0,10.671957638999999,Leonard
708,423,0.2286,161.85,Leonard,708,100Ft,"Leonard, 423",423,NKS12-R3,3.5,12.385667048999997,Leonard
990,424,0.2276,225.32,Leonard,708,100Ft,"Leonard, 424",424,Dyna-Gro S07RY45,3.5,8.762482848,Leonard
2018,425,0.2389,482.1,Leonard,708,100Ft,"Leonard, 425",425,Legend 04X765,3.0,3.987271217999999,Leonard
1646,426,0.2281,375.45,Leonard,708,100Ft,"Leonard, 426",426,PB-0863R2,3.5,3.3487467509999993,Leonard
13,427,0.2121,2.76,Leonard,708,100Ft,"Leonard, 427",427,Stine 07BA00,3.5,,Leonard
1312,428,0.2011,263.84,Leonard,708,100Ft,"Leonard, 428",428,W1039NRX,3.0,6.889071170799999,Leonard
43,429,0.214,9.2,Leonard,708,100Ft,"Leonard, 429",429,PFS 18X11N,4.0,1.2137453621999998,Leonard
1867,430,0.2352,439.12,Leonard,708,100Ft,"Leonard, 430",430,Channel 1318R2X,3.5,3.8498085485999987,Leonard
5081,431,0.2506,1273.3,Leonard,708,100Ft,"Leonard, 431",431,REA RX0228,2.5,21.984919846399997,Leonard
629,432,0.2175,136.81,Leonard,708,100Ft,"Leonard, 432",432,PFS 18X07N,3.5,9.4025929536,Leonard
2274,434,0.2322,528.02,Leonard,708,100Ft,"Leonard, 434",434,W1074NRX,3.5,9.232279104999998,Leonard
1253,435,0.2182,273.4,Leonard,708,100Ft,"Leonard, 435",435,GH1253X,3.5,9.118438384999997,Leonard
6610,436,0.2707,1789.33,Leonard,708,100Ft,"Leonard, 436",436,Channel 0218R2X,2.5,17.698654108799996,Leonard
1343,437,0.2192,294.39,Leonard,708,100Ft,"Leonard, 437",437,Thunder SB8703R2X,3.5,8.267885577,Leonard
3750,438,0.2358,884.25,Leonard,708,100Ft,"Leonard, 438",438,PB-1257R2,2.5,20.752390765399998,Leonard
822,439,0.2231,183.39,Leonard,708,100Ft,"Leonard, 439",439,Dahlman 6806XN,3.5,0.8097327783999998,Leonard
1969,440,0.2265,445.98,Leonard,708,100Ft,"Leonard, 440",440,W1048NRX,3.5,5.489968722,Leonard
