canopy_size,DGCI,loc,plot,variety,IDC,yield
6940.0,0.320398946643219,Hunter,101,Channel 1318R2X,1.5,49.4399879323
7028.0,0.314227133925726,Hunter,102,W1050NRX,1.5,45.4367383561
7924.0,0.293514871389682,Hunter,103,REA RX0228,2.0,43.4036447404
5837.0,0.258198048144002,Hunter,104,Dahlman 6806XN,2.0,35.303633567999995
6107.0,0.281347995838362,Hunter,105,Dahlman 6703XN,2.0,35.3153428992
4354.0,0.252089137966938,Hunter,106,Dyna-Gro S11XT78,2.5,46.017021097599994
2671.0,0.210277420858103,Hunter,107,Integra 30808N,3.5,32.10405881759999
4372.0,0.238046935276356,Hunter,108,Thunder SB8807NR2X,3.0,39.091358266799986
6246.0,0.243442398110978,Hunter,109,PB-1257R2,2.5,41.33938722759999
3387.0,0.22878480535457,Hunter,110,PFS 18X07N,3.0,30.308871977999992
3568.0,0.241772186115484,Hunter,111,Integra 20915N,2.5,39.25748440319999
4545.0,0.249969160664986,Hunter,112,GH1253X,2.5,39.82546828119999
4545.0,0.275921404299432,Hunter,113,Thunder 3503R2Y,2.0,34.75201429349999
6163.0,0.281995345016453,Hunter,114,Dyna-Gro S07RY45,2.0,39.91369483919999
10612.0,0.335495526517983,Hunter,115,PB-0777R2,1.0,38.59200407999999
8676.0,0.316404967100362,Hunter,116,Integra 20775N,1.0,39.54145601349999
7483.0,0.319004393151207,Hunter,117,REA RX0516,1.0,38.42097872689999
5822.0,0.294464548478336,Hunter,118,Dyna-Gro S05XT88,1.0,37.87785684899999
8066.0,0.311520164116142,Hunter,119,Channel 0218R2X,1.0,40.263755053199986
6761.0,0.326481473263402,Hunter,120,Legend 04X765,1.5,38.61334921499999
7316.0,0.302472698608665,Hunter,121,REA RX0628,1.0,41.37144558749999
6076.0,0.334349232504464,Hunter,122,Dahlman 68008XN,1.5,27.817020589399995
4285.0,0.29346512942776,Hunter,123,PFS 18X11N,1.5,29.216427968699996
7220.0,0.35815220044673,Hunter,124,REA RX0327,1.0,38.82295844069999
6263.0,0.328442495862897,Hunter,125,Thunder SB8703R2X,1.0,36.06701691039999
6550.0,0.306433776780849,Hunter,126,PFS 15R07N,2.0,36.987093872399996
8324.0,0.365344253352117,Hunter,127,W1074NRX,1.5,31.629668274399997
6725.0,0.344797151452103,Hunter,128,PFS 17X04N,1.0,35.534587928699985
6103.0,0.337885908852068,Hunter,129,Legend 007X756N,1.0,34.035325975
6068.0,0.328176104956618,Hunter,130,NKS08-M2,1.0,33.86257268239999
8090.0,0.3524317206831,Hunter,131,W1039NRX,1.5,37.48522833719999
6651.0,0.350620437568604,Hunter,132,Channel 0317R2X,1.0,40.11978719979999
7316.0,0.349559395002204,Hunter,133,Channel 0518R2X,1.0,34.3614593091
7484.0,0.385536735942104,Hunter,134,PB-0578R2,1.0,38.90783076319999
5415.0,0.320052875984298,Hunter,135,Stine 07BA00,1.5,31.07455246349999
5563.0,0.300983750220685,Hunter,136,GH0391,2.0,43.14807232399999
5788.0,0.313385377222905,Hunter,137,NKS12-R3,1.5,44.42841450739999
5660.0,0.295801990810953,Hunter,138,Legend 02R21,1.5,35.50712385499999
6649.0,0.344530072543366,Hunter,139,PB-0863R2,1.5,40.8739819698
4553.0,0.296394974264946,Hunter,140,W1048NRX,1.0,36.27105607229999
3158.0,0.223702025680583,Hunter,201,Integra 30808N,3.0,34.2664226366
4199.0,0.247522059257583,Hunter,202,Thunder SB8807NR2X,3.5,38.01544149059998
4381.0,0.26291607602958,Hunter,203,GH0391,3.0,39.47152528549999
4389.0,0.290615138546648,Hunter,204,REA RX0327,3.0,40.30382292089999
4444.0,0.270686194297298,Hunter,205,Dahlman 6703XN,2.0,32.4117540208
4783.0,0.314887293251693,Hunter,206,PB-0578R2,2.0,37.994401286099986
5880.0,0.296909439414233,Hunter,207,REA RX0228,2.0,38.84011586349999
4665.0,0.263571451248208,Hunter,208,PB-0863R2,3.0,30.05516980199999
4864.0,0.265978142640578,Hunter,209,Thunder SB8703R2X,3.0,36.61501767629999
5721.0,0.282636049035087,Hunter,210,Channel 0518R2X,3.0,40.582041509099994
4895.0,0.276363645020617,Hunter,211,Integra 20775N,3.0,40.469969386
4524.0,0.302946386313697,Hunter,212,Legend 04X765,2.5,41.05356570559999
5867.0,0.290823056925617,Hunter,213,Legend 007X756N,1.5,34.3728637098
4596.0,0.245300267614729,Hunter,214,Stine 07BA00,3.0,31.355393453999998
4555.0,0.246206502366145,Hunter,215,PFS 18X07N,2.5,31.254969675999995
5203.0,0.260234487891862,Hunter,216,NKS08-M2,2.0,34.020282737
4301.0,0.269128482952503,Hunter,217,GH1253X,2.0,33.825167874399995
4172.0,0.26272160663115,Hunter,218,PFS 17X04N,2.0,23.58259303679999
3532.0,0.249739086974754,Hunter,219,Channel 0317R2X,2.0,35.330955340799996
4248.0,0.250066474251968,Hunter,220,W1048NRX,2.5,31.064245812599992
2414.0,0.214006534761378,Hunter,221,PFS 15R07N,3.5,21.925722672
3856.0,0.232748561243129,Hunter,222,W1050NRX,3.0,31.002405907199993
4254.0,0.249867721180093,Hunter,223,Channel 0218R2X,2.0,36.6028814424
5342.0,0.274749863202409,Hunter,224,PB-1257R2,2.5,45.78787599119999
7155.0,0.304201925631839,Hunter,225,Thunder 3503R2Y,1.5,38.41248133029999
5431.0,0.289279057261387,Hunter,226,Channel 1318R2X,1.5,44.860074123199986
6219.0,0.274300460705019,Hunter,227,Dahlman 68008XN,1.5,29.646115700599992
7071.0,0.271547145926578,Hunter,228,W1074NRX,2.0,44.67622136039999
8645.0,0.283088273439123,Hunter,229,W1039NRX,1.5,35.245086912
5672.0,0.256017182193097,Hunter,230,Dyna-Gro S11XT78,2.0,36.11887542409999
5510.0,0.253919797143248,Hunter,231,Legend 02R21,2.0,35.647717144199994
5301.0,0.254946354728131,Hunter,232,Dahlman 6806XN,2.0,35.62405453739999
3550.0,0.247659768911315,Hunter,233,Dyna-Gro S05XT88,2.5,41.155697094400004
4427.0,0.25934529023614,Hunter,234,Dyna-Gro S07RY45,3.0,49.286872163899986
1664.0,0.209417424487093,Hunter,235,PFS 18X11N,3.5,28.662247277999995
6821.0,0.298481342495099,Hunter,236,REA RX0628,1.5,42.4934678553
8504.0,0.31807547067717,Hunter,237,PB-0777R2,2.5,51.72035985479999
6159.0,0.266897168532461,Hunter,238,Integra 20915N,3.0,45.3946376184
8570.0,0.333465129277879,Hunter,239,NKS12-R3,2.0,52.59654715349999
5649.0,0.265537202590376,Hunter,240,REA RX0516,2.0,42.4418126286
4190.0,0.233654364767464,Hunter,301,Dahlman 6806XN,3.0,38.152578900799995
1439.0,0.221172114817362,Hunter,302,PFS 18X11N,4.0,18.975703042799996
3750.0,0.227633992004395,Hunter,303,Dahlman 6703XN,2.5,30.328997390999994
2477.0,0.229152917543101,Hunter,304,Dyna-Gro S11XT78,3.5,32.6417122752
3464.0,0.224517733422183,Hunter,305,Channel 1318R2X,3.5,46.722487973699984
2186.0,0.229704183368702,Hunter,306,PFS 17X04N,3.5,26.489434507199995
4543.0,0.250427943105979,Hunter,307,Channel 0317R2X,3.0,43.597194293099996
3692.0,0.240932174894721,Hunter,308,Dahlman 68008XN,3.0,20.621108020799998
5440.0,0.226885097729974,Hunter,309,W1039NRX,3.0,38.66854163549999
4815.0,0.268074855814965,Hunter,310,Thunder 3503R2Y,2.5,37.109513303799986
4845.0,0.253670053154815,Hunter,311,Legend 04X765,3.0,40.22368718549998
4967.0,0.212922943437606,Hunter,312,PB-1257R2,3.0,42.946777536599996
2573.0,0.221296576653479,Hunter,313,Integra 20915N,3.0,36.189517656599996
2957.0,0.19527078073725,Hunter,314,Integra 30808N,3.5,29.961820411599994
5890.0,0.277615774978199,Hunter,315,PFS 18X07N,1.5,41.178465238399994
6645.0,0.291754681719614,Hunter,316,PB-0578R2,2.0,46.18233408599998
6422.0,0.230949987589208,Hunter,317,PB-0777R2,3.0,42.902623600199995
4807.0,0.250270649745815,Hunter,318,NKS12-R3,2.0,48.866149388699995
6977.0,0.295077673741666,Hunter,319,Channel 0218R2X,1.5,38.61334921499999
4845.0,0.248340928028612,Hunter,320,W1074NRX,3.0,44.582363752499994
3312.0,0.262582890765858,Hunter,321,REA RX0516,2.0,41.69766023639999
3194.0,0.276593375262911,Hunter,322,Dyna-Gro S05XT88,2.0,41.57829011
4175.0,0.299573098535309,Hunter,323,NKS08-M2,2.0,37.514257720799996
5140.0,0.315688572464518,Hunter,324,W1050NRX,2.0,42.314189049999996
5196.0,0.272941486581621,Hunter,325,GH1253X,2.5,41.68381639169999
6151.0,0.279980627141276,Hunter,326,Channel 0518R2X,2.5,42.55479954319999
5497.0,0.290878812565096,Hunter,327,GH0391,2.5,42.352589964299995
5487.0,0.30794284732665,Hunter,328,Legend 02R21,1.5,36.03514150879999
5411.0,0.331193909572268,Hunter,329,Legend 007X756N,1.0,34.556675815199995
6309.0,0.329268809805337,Hunter,330,Integra 20775N,1.5,44.14417862399999
4550.0,0.293861676978541,Hunter,331,W1048NRX,1.5,40.11092388659999
5963.0,0.303069591627172,Hunter,332,Thunder SB8703R2X,1.5,38.26251651039999
6262.0,0.301501127110431,Hunter,333,Thunder SB8807NR2X,2.0,43.35566900839999
4091.0,0.278758258006299,Hunter,334,PFS 15R07N,3.0,34.5948937712
4414.0,0.291499426813757,Hunter,335,REA RX0628,2.0,40.492330955999996
5331.0,0.314060939616702,Hunter,336,PB-0863R2,2.0,37.73982497599999
6752.0,0.313408381700675,Hunter,337,REA RX0228,2.0,41.02183260489999
2754.0,0.236280923315642,Hunter,338,Stine 07BA00,3.5,30.181411028999996
5151.0,0.290406212329263,Hunter,339,Dyna-Gro S07RY45,2.0,43.61646590069999
6122.0,0.301764139121204,Hunter,340,REA RX0327,2.0,44.3281127016
3762.0,0.277108555240779,Hunter,401,Channel 0218R2X,2.0,36.61906308759999
4311.0,0.261330575587384,Hunter,402,Channel 0518R2X,2.0,42.22067703
3875.0,0.285519553426773,Hunter,403,W1048NRX,3.0,40.30382292089999
6158.0,0.37857402988884,Hunter,404,PB-0578R2,2.0,43.88736615689999
3831.0,0.264728922393981,Hunter,405,Integra 20775N,3.0,41.15114346559999
3713.0,0.283532694495819,Hunter,406,Dyna-Gro S11XT78,3.0,44.1566401171
3818.0,0.282227639918742,Hunter,407,Thunder 3503R2Y,2.5,38.60054213399999
4044.0,0.239311694888846,Hunter,408,PB-1257R2,3.0,36.61934768939999
4753.0,0.274211961107457,Hunter,409,Thunder SB8703R2X,3.0,31.993917920999994
4379.0,0.251326077497966,Hunter,410,Dahlman 6806XN,3.0,16.834033840399997
3954.0,0.232952488509992,Hunter,411,PFS 15R07N,3.5,24.295601860599994
2287.0,0.231094769354882,Hunter,412,Dyna-Gro S05XT88,3.0,27.12596676159999
2150.0,0.229070684216743,Hunter,413,REA RX0516,3.0,27.345598036399995
2542.0,0.220454795560107,Hunter,414,Dyna-Gro S07RY45,3.5,40.005539905799985
2706.0,0.248528331617294,Hunter,415,Channel 0317R2X,2.5,28.519234873499997
1658.0,0.219141894832379,Hunter,416,Integra 20915N,3.0,26.595733279499992
4659.0,0.278411179093313,Hunter,417,PB-0863R2,3.0,20.415706835999995
4014.0,0.232492165317955,Hunter,418,Integra 30808N,3.0,29.73604986939999
3652.0,0.236364715617366,Hunter,419,NKS12-R3,3.0,36.95635687799999
3036.0,0.228669048111508,Hunter,420,Legend 04X765,3.0,22.805304863599996
3796.0,0.236498693371284,Hunter,421,GH1253X,3.0,26.379496897599996
2070.0,0.229635318235499,Hunter,422,Legend 007X756N,3.0,19.620041517999997
1106.0,0.211200939973052,Hunter,423,Dahlman 6703XN,3.5,8.124405612399999
2366.0,0.212585155925354,Hunter,424,PB-0777R2,3.5,27.538883315999996
3058.0,0.2207068615953,Hunter,425,Thunder SB8807NR2X,3.5,20.560528494799996
249.0,0.201086702894973,Hunter,426,Stine 07BA00,4.0,0.8095701487999998
3261.0,0.233130706189162,Hunter,427,Channel 1318R2X,3.0,33.8649308116
3071.0,0.220519603315276,Hunter,428,REA RX0327,3.5,28.994133634199997
7206.0,0.290638529281219,Hunter,429,W1074NRX,1.5,43.71825170159999
2987.0,0.239131668318783,Hunter,430,PFS 18X07N,2.5,22.466364448499995
3239.0,0.214876297662364,Hunter,431,W1050NRX,3.0,30.98179260539999
4485.0,0.240466922043159,Hunter,432,Dahlman 68008XN,3.0,17.66157456
1851.0,0.207809243103673,Hunter,433,PFS 17X04N,3.5,18.928459143999998
597.0,0.207882553239164,Hunter,434,PFS 18X11N,4.0,10.788949307499998
2376.0,0.224100486315812,Hunter,435,NKS08-M2,3.0,29.895142275599994
3286.0,0.232851197946492,Hunter,436,Legend 02R21,2.0,34.549032223999994
3365.0,0.238834606850572,Hunter,437,REA RX0628,2.5,45.23778136919999
4289.0,0.226599742917921,Hunter,438,GH0391,3.0,42.94067892659999
6890.0,0.274034556984382,Hunter,439,REA RX0228,2.5,41.0082327046
6507.0,0.264148722522834,Hunter,440,W1039NRX,2.5,45.05274954179999
599.0,0.219215034766866,Leonard,101,Dyna-Gro S11XT78,3.0,0.4041752133999999
236.0,0.217563977370323,Leonard,103,Thunder SB8807NR2X,3.0,9.196703879999998
897.0,0.223048509080939,Leonard,104,W1050NRX,3.0,5.853445877999999
189.0,0.220064324440149,Leonard,105,REA RX0516,4.0,0.6072385976999999
2343.0,0.248846382863034,Leonard,106,Channel 0218R2X,3.0,14.752131016
1233.0,0.219932257899499,Leonard,107,Channel 0518R2X,4.0,12.666203108999998
3933.0,0.254398435740685,Leonard,108,Legend 04X765,3.0,15.145938592399995
1516.0,0.227606191376033,Leonard,109,PFS 18X07N,3.0,2.2220692108999995
1449.0,0.223291252350873,Leonard,110,Integra 20775N,3.5,3.0974433615999994
3211.0,0.247110124235397,Leonard,111,PB-1257R2,3.0,21.112676315499996
2454.0,0.221522287354055,Leonard,112,Dahlman 68008XN,3.0,2.6200035133999995
5496.0,0.248189777656414,Leonard,113,REA RX0228,2.5,18.645097394699995
22.0,0.232798578386957,Leonard,114,PFS 18X11N,4.0,1.9454565899999996
3270.0,0.245072861749462,Leonard,115,W1048NRX,3.5,6.899723409599998
1702.0,0.232607547250674,Leonard,116,REA RX0327,3.5,1.0112511814999998
2133.0,0.236533285849987,Leonard,117,Dyna-Gro S07RY45,3.5,2.0107117169999995
2530.0,0.235768430341374,Leonard,118,Thunder SB8703R2X,3.0,4.9905332204
852.0,0.234332141112274,Leonard,119,Dyna-Gro S05XT88,3.5,0.7986739655999998
3373.0,0.256307593486339,Leonard,120,PFS 17X04N,3.5,10.3232187905
337.0,0.203083729089545,Leonard,121,GH1253X,3.5,2.0212826409999995
781.0,0.213933873630669,Leonard,122,PB-0777R2,3.5,1.6165382239999995
3926.0,0.237103078406166,Leonard,123,W1039NRX,3.0,15.431678799599995
1789.0,0.239325293578736,Leonard,124,Legend 007X756N,3.5,8.437467592399999
3524.0,0.267769477673712,Leonard,125,Legend 02R21,2.5,15.872526987799995
1798.0,0.225361516141852,Leonard,126,PB-0863R2,3.0,0.8059109827999997
100.0,0.225882354825735,Leonard,127,Dahlman 6806XN,3.5,0.8842984499999998
1258.0,0.228922351401163,Leonard,128,Integra 20915N,3.5,6.203302804999999
3358.0,0.233419756428907,Leonard,129,Channel 0317R2X,3.5,1.6176766311999997
2630.0,0.222876316467619,Leonard,130,Dahlman 6703XN,3.0,0.4046631021999999
2685.0,0.237756604339157,Leonard,131,NKS08-M2,3.5,11.446968997799997
482.0,0.218346760511646,Leonard,132,Stine 07BA00,3.5,
1419.0,0.2488358348419,Leonard,133,NKS12-R3,3.5,14.415487743999998
2965.0,0.25356215416983,Leonard,134,Channel 1318R2X,3.5,11.182777212599996
423.0,0.221684515969409,Leonard,135,PFS 15R07N,3.5,2.1869615459999996
2904.0,0.249208670863805,Leonard,136,GH0391,3.5,17.139899460599995
3267.0,0.247470552759102,Leonard,137,REA RX0628,3.0,12.1873809092
4033.0,0.267607929712929,Leonard,138,PB-0578R2,3.0,20.239457007
4036.0,0.247977036864629,Leonard,139,Thunder 3503R2Y,3.0,14.399184126599998
3021.0,0.22759766961537,Leonard,140,W1074NRX,3.0,1.4123364325
162.0,0.227136289355931,Leonard,201,GH1253X,4.0,
3251.0,0.236057687840693,Leonard,202,REA RX0327,3.5,5.800997831999999
7673.0,0.277597288416244,Leonard,203,REA RX0228,3.0,26.407225244399992
2192.0,0.240208606820309,Leonard,205,Dyna-Gro S05XT88,3.5,8.989839028799999
3597.0,0.250941150410327,Leonard,206,Legend 007X756N,3.0,11.519867715999998
2181.0,0.214825007229265,Leonard,207,Dyna-Gro S11XT78,3.0,7.9998516675
1699.0,0.233299869747987,Leonard,208,W1050NRX,3.5,5.811365468999999
3945.0,0.244691971476994,Leonard,209,REA RX0628,3.0,17.8475211789
1077.0,0.226019994088534,Leonard,210,PFS 15R07N,3.0,7.719254621399998
789.0,0.22560700103735,Leonard,211,REA RX0516,3.5,0.40445981519999996
2327.0,0.217329392687517,Leonard,212,PB-1257R2,3.0,6.100033008999999
343.0,0.21952781337517,Leonard,213,PFS 18X07N,3.5,7.781826359999998
3505.0,0.228330399888898,Leonard,214,Legend 02R21,3.0,8.220113132
100.0,0.215960786938667,Leonard,215,Stine 07BA00,4.0,
3537.0,0.245371347043115,Leonard,216,Channel 0218R2X,3.0,11.099470199999997
1594.0,0.218434327369652,Leonard,217,PB-0777R2,3.5,0.4046631021999999
4312.0,0.258673477313155,Leonard,218,GH0391,3.0,19.5422639118
2841.0,0.251568427433308,Leonard,219,Legend 04X765,3.5,12.029711512
2149.0,0.225054976314986,Leonard,220,Thunder SB8703R2X,3.0,5.496067331999998
745.0,0.208885382245851,Leonard,221,Integra 20915N,3.5,4.301227660799999
2572.0,0.227832163161197,Leonard,222,Channel 1318R2X,3.0,10.423988156399998
3253.0,0.241301247712066,Leonard,223,Dahlman 6703XN,3.0,7.6801828599999995
4084.0,0.243027795139011,Leonard,224,Dahlman 68008XN,3.0,10.5120520848
4765.0,0.259444898257476,Leonard,225,W1039NRX,2.5,20.255110105999997
1592.0,0.229594052156162,Leonard,226,NKS08-M2,3.5,5.2474270022999985
814.0,0.216934048902491,Leonard,227,W1074NRX,3.5,2.0131511609999997
1283.0,0.227701621880684,Leonard,228,NKS12-R3,3.5,9.004597664999999
678.0,0.220984443604594,Leonard,229,Integra 20775N,3.5,2.3418662399999994
1787.0,0.225504463037166,Leonard,230,W1048NRX,3.5,2.1686250585999995
1763.0,0.226899338906216,Leonard,231,PB-0578R2,3.5,9.921970909899999
1845.0,0.233593712993431,Leonard,232,Dyna-Gro S07RY45,3.5,6.8709989564999985
3554.0,0.254146122767238,Leonard,233,Channel 0317R2X,3.0,14.0114345028
1926.0,0.240869021358458,Leonard,234,PFS 17X04N,3.0,6.283824785699999
2362.0,0.227914201068888,Leonard,235,Thunder 3503R2Y,3.0,12.358995794599998
1162.0,0.213718743260674,Leonard,236,Thunder SB8807NR2X,3.5,1.2141112788
1500.0,0.232732030491034,Leonard,237,Dahlman 6806XN,3.5,2.8283726884
1597.0,0.231166284375065,Leonard,238,PB-0863R2,3.0,7.288936699799998
4122.0,0.253586216289722,Leonard,239,Channel 0518R2X,2.5,16.841514801999995
37.0,0.22808691335691,Leonard,240,PFS 18X11N,3.5,0.4047444169999999
1913.0,0.221803350554233,Leonard,301,Channel 0317R2X,4.0,7.279951414399998
161.0,0.21096090861359,Leonard,302,PB-0863R2,4.0,2.983135081499999
318.0,0.208188435472782,Leonard,303,REA RX0516,4.0,0.20245352329999994
256.0,0.218091301445384,Leonard,304,Dahlman 68008XN,4.0,0.6072995837999998
2320.0,0.262641995085468,Leonard,305,PB-0578R2,4.0,13.309118575199998
15.0,0.221699350078901,Leonard,306,W1050NRX,4.0,1.0123692599999998
1219.0,0.222673683698496,Leonard,307,PB-1257R2,4.0,13.779687322799997
2465.0,0.257466498446513,Leonard,308,W1074NRX,3.5,13.572009323599998
4124.0,0.259174425433147,Leonard,309,REA RX0327,3.5,16.616272805999998
3805.0,0.252433595789716,Leonard,310,Dahlman 6703XN,3.0,13.687842256199998
3325.0,0.260636305571499,Leonard,311,Thunder 3503R2Y,2.5,11.245836839999997
331.0,0.221467925162474,Leonard,312,Stine 07BA00,3.5,0.8096514635999998
3170.0,0.232828605701495,Leonard,313,PFS 15R07N,3.0,14.175446454399998
2358.0,0.229820888713824,Leonard,314,W1048NRX,3.5,9.536152512599998
1379.0,0.211224391418925,Leonard,315,Integra 20775N,3.5,5.1700762988
4925.0,0.246745900902046,Leonard,316,REA RX0628,3.0,18.081321557599995
966.0,0.246478307845676,Leonard,317,Dahlman 6806XN,3.5,1.0116577555
2766.0,0.246331510730007,Leonard,319,Dyna-Gro S05XT88,3.5,13.300336576799996
2567.0,0.235813535329057,Leonard,320,Dyna-Gro S11XT78,3.5,12.295895509799998
3548.0,0.250836711305508,Leonard,321,Legend 007X756N,3.0,10.207975390199998
3232.0,0.263134593130228,Leonard,322,NKS08-M2,3.0,21.795375047599997
998.0,0.228912731419823,Leonard,323,NKS12-R3,3.5,17.007559623599995
4175.0,0.274652586575754,Leonard,324,Legend 02R21,2.5,23.216676436799997
4846.0,0.281434465905408,Leonard,325,Channel 0218R2X,2.5,23.43449845729999
3613.0,0.259900260002139,Leonard,326,Legend 04X765,3.0,13.128599719199997
456.0,0.217827660080634,Leonard,327,GH1253X,3.5,10.646953337999998
1899.0,0.233716408576446,Leonard,328,PFS 17X04N,3.5,5.989953098499999
1869.0,0.22715093897842,Leonard,329,Thunder SB8703R2X,3.5,5.9151638111999985
2741.0,0.235657521796374,Leonard,330,GH0391,3.0,14.757009903999997
3636.0,0.25077547653444,Leonard,331,W1039NRX,3.0,16.0394052861
2719.0,0.226292830403126,Leonard,332,Dyna-Gro S07RY45,3.0,13.676132925
1041.0,0.225469479915274,Leonard,333,PFS 18X11N,3.0,6.266220131499999
2183.0,0.213275491542845,Leonard,334,PB-0777R2,3.5,4.067122351599999
5943.0,0.284983826209134,Leonard,335,REA RX0228,2.5,26.797190696499992
1917.0,0.226366773255492,Leonard,336,PFS 18X07N,3.5,13.212516592799998
4291.0,0.253827215578,Leonard,337,Channel 1318R2X,3.0,23.737985619599993
3885.0,0.246208904424689,Leonard,338,Thunder SB8807NR2X,3.0,19.323750715499997
802.0,0.233519147700651,Leonard,339,Integra 20915N,3.5,10.340559171599997
4606.0,0.26189966203141,Leonard,340,Channel 0518R2X,2.5,25.620524883099996
1783.0,0.208159856953717,Leonard,401,PB-0777R2,3.5,3.412904128199999
6067.0,0.255818530504543,Leonard,402,Channel 0518R2X,2.5,20.808579292199997
1214.0,0.226029657195683,Leonard,403,REA RX0516,3.5,1.6180018903999998
1550.0,0.212865278278628,Leonard,404,Dahlman 68008XN,3.0,2.8252420685999997
2756.0,0.243703583452759,Leonard,405,W1050NRX,3.0,13.840795394999997
1072.0,0.230933571039741,Leonard,406,Integra 20915N,3.5,12.824157107999996
3829.0,0.250971181935478,Leonard,407,Channel 0317R2X,2.5,21.764190821799996
784.0,0.213240298328503,Leonard,408,Integra 20775N,3.0,5.4068649963999995
1656.0,0.241867960165232,Leonard,409,Legend 007X756N,3.0,10.4663328385
3099.0,0.233422550151293,Leonard,410,Dyna-Gro S05XT88,3.0,9.577623060599999
1133.0,0.218392955394098,Leonard,411,NKS08-M2,3.5,9.285255697199997
3317.0,0.247664148962243,Leonard,412,REA RX0327,3.0,14.747252128
3456.0,0.266780146518377,Leonard,413,PB-0578R2,3.0,16.2201884152
1895.0,0.221960787423997,Leonard,414,PFS 17X04N,3.5,5.651846160099999
750.0,0.207743793765704,Leonard,415,PFS 15R07N,3.0,2.4184647815999996
2823.0,0.240543718302964,Leonard,416,Thunder 3503R2Y,3.0,9.525784875599998
2547.0,0.240852373268588,Leonard,417,GH0391,3.0,13.477643498199996
2279.0,0.231477518008957,Leonard,418,Dyna-Gro S11XT78,3.0,7.000309817199999
3302.0,0.230127912084671,Leonard,419,REA RX0628,3.0,17.865268133999997
2130.0,0.237451905634761,Leonard,420,Dahlman 6703XN,3.0,8.855588293999999
830.0,0.214656274595174,Leonard,421,Thunder SB8807NR2X,3.5,9.196703879999998
2748.0,0.224127354704961,Leonard,422,Legend 02R21,3.0,10.671957638999999
921.0,0.229609762984818,Leonard,423,NKS12-R3,3.5,12.385667048999997
1093.0,0.223723161403236,Leonard,424,Dyna-Gro S07RY45,3.5,8.762482848
1788.0,0.241413349464902,Leonard,425,Legend 04X765,3.0,3.987271217999999
1624.0,0.230727812284466,Leonard,426,PB-0863R2,3.5,3.3487467509999993
27.0,0.214960060737751,Leonard,427,Stine 07BA00,3.5,
1944.0,0.200796823925626,Leonard,428,W1039NRX,3.0,6.889071170799999
79.0,0.21965748524364,Leonard,429,PFS 18X11N,4.0,1.2137453621999998
1928.0,0.234905626864416,Leonard,430,Channel 1318R2X,3.5,3.8498085485999987
4521.0,0.252383004340865,Leonard,431,REA RX0228,2.5,21.984919846399997
767.0,0.216811108523118,Leonard,432,PFS 18X07N,3.5,9.4025929536
2201.0,0.232559179972649,Leonard,434,W1074NRX,3.5,9.232279104999998
1556.0,0.218272093587715,Leonard,435,GH1253X,3.5,9.118438384999997
5676.0,0.275885402723107,Leonard,436,Channel 0218R2X,2.5,17.698654108799996
1939.0,0.217945375827983,Leonard,437,Thunder SB8703R2X,3.5,8.267885577
3557.0,0.237043779545498,Leonard,438,PB-1257R2,2.5,20.752390765399998
937.0,0.224964952106282,Leonard,439,Dahlman 6806XN,3.5,0.8097327783999998
1681.0,0.229914503897818,Leonard,440,W1048NRX,3.5,5.489968722
