Canopy,PlotNumber,DGCI,pixel_DGCI,Location_x,date,alt,Plot_Loc,PLOT,Variety,IDC1,YLD3,Location_y
12313,101,0.3598,4430.22,Hunter,714,100Ft,"Hunter, 101",101,Channel 1318R2X,1.5,49.4399879323,Hunter
11489,102,0.3742,4299.18,Hunter,714,100Ft,"Hunter, 102",102,W1050NRX,1.5,45.4367383561,Hunter
12414,103,0.3661,4544.77,Hunter,714,100Ft,"Hunter, 103",103,REA RX0228,2.0,43.4036447404,Hunter
10849,104,0.3338,3621.4,Hunter,714,100Ft,"Hunter, 104",104,Dahlman 6806XN,2.0,35.303633567999995,Hunter
9625,105,0.3676,3538.15,Hunter,714,100Ft,"Hunter, 105",105,Dahlman 6703XN,2.0,35.3153428992,Hunter
7904,106,0.33799999999999997,2671.55,Hunter,714,100Ft,"Hunter, 106",106,Dyna-Gro S11XT78,2.5,46.017021097599994,Hunter
5588,107,0.3015,1684.78,Hunter,714,100Ft,"Hunter, 107",107,Integra 30808N,3.5,32.10405881759999,Hunter
9296,108,0.3065,2849.22,Hunter,714,100Ft,"Hunter, 108",108,Thunder SB8807NR2X,3.0,39.091358266799986,Hunter
11838,109,0.3136,3712.4,Hunter,714,100Ft,"Hunter, 109",109,PB-1257R2,2.5,41.33938722759999,Hunter
6347,110,0.2898,1839.36,Hunter,714,100Ft,"Hunter, 110",110,PFS 18X07N,3.0,30.308871977999992,Hunter
7484,111,0.3031,2268.4,Hunter,714,100Ft,"Hunter, 111",111,Integra 20915N,2.5,39.25748440319999,Hunter
9201,112,0.3163,2910.28,Hunter,714,100Ft,"Hunter, 112",112,GH1253X,2.5,39.82546828119999,Hunter
9951,113,0.3157,3141.53,Hunter,714,100Ft,"Hunter, 113",113,Thunder 3503R2Y,2.0,34.75201429349999,Hunter
10761,114,0.3228,3473.65,Hunter,714,100Ft,"Hunter, 114",114,Dyna-Gro S07RY45,2.0,39.91369483919999,Hunter
15851,115,0.41600000000000004,6594.02,Hunter,714,100Ft,"Hunter, 115",115,PB-0777R2,1.0,38.59200407999999,Hunter
11614,116,0.418,4854.65,Hunter,714,100Ft,"Hunter, 116",116,Integra 20775N,1.0,39.54145601349999,Hunter
11653,117,0.3978,4635.56,Hunter,714,100Ft,"Hunter, 117",117,REA RX0516,1.0,38.42097872689999,Hunter
9235,118,0.4031,3722.63,Hunter,714,100Ft,"Hunter, 118",118,Dyna-Gro S05XT88,1.0,37.87785684899999,Hunter
13124,119,0.4052,5317.84,Hunter,714,100Ft,"Hunter, 119",119,Channel 0218R2X,1.0,40.263755053199986,Hunter
11361,120,0.4145,4709.13,Hunter,714,100Ft,"Hunter, 120",120,Legend 04X765,1.5,38.61334921499999,Hunter
12232,121,0.4075,4984.54,Hunter,714,100Ft,"Hunter, 121",121,REA RX0628,1.0,41.37144558749999,Hunter
11482,122,0.4086,4691.55,Hunter,714,100Ft,"Hunter, 122",122,Dahlman 68008XN,1.5,27.817020589399995,Hunter
9118,123,0.3788,3453.9,Hunter,714,100Ft,"Hunter, 123",123,PFS 18X11N,1.5,29.216427968699996,Hunter
11808,124,0.4224,4987.7,Hunter,714,100Ft,"Hunter, 124",124,REA RX0327,1.0,38.82295844069999,Hunter
10442,125,0.4032,4210.21,Hunter,714,100Ft,"Hunter, 125",125,Thunder SB8703R2X,1.0,36.06701691039999,Hunter
10806,126,0.4025,4349.42,Hunter,714,100Ft,"Hunter, 126",126,PFS 15R07N,2.0,36.987093872399996,Hunter
12373,127,0.409,5060.56,Hunter,714,100Ft,"Hunter, 127",127,W1074NRX,1.5,31.629668274399997,Hunter
12095,128,0.4001,4839.21,Hunter,714,100Ft,"Hunter, 128",128,PFS 17X04N,1.0,35.534587928699985,Hunter
11592,129,0.3826,4435.1,Hunter,714,100Ft,"Hunter, 129",129,Legend 007X756N,1.0,34.035325975,Hunter
11854,130,0.3741,4434.58,Hunter,714,100Ft,"Hunter, 130",130,NKS08-M2,1.0,33.86257268239999,Hunter
12665,131,0.3921,4965.95,Hunter,714,100Ft,"Hunter, 131",131,W1039NRX,1.5,37.48522833719999,Hunter
11343,132,0.3995,4531.53,Hunter,714,100Ft,"Hunter, 132",132,Channel 0317R2X,1.0,40.11978719979999,Hunter
13298,133,0.3945,5246.06,Hunter,714,100Ft,"Hunter, 133",133,Channel 0518R2X,1.0,34.3614593091,Hunter
11209,134,0.4393,4924.11,Hunter,714,100Ft,"Hunter, 134",134,PB-0578R2,1.0,38.90783076319999,Hunter
9613,135,0.3613,3473.18,Hunter,714,100Ft,"Hunter, 135",135,Stine 07BA00,1.5,31.07455246349999,Hunter
9296,136,0.3931,3654.26,Hunter,714,100Ft,"Hunter, 136",136,GH0391,2.0,43.14807232399999,Hunter
9829,137,0.4146,4075.1,Hunter,714,100Ft,"Hunter, 137",137,NKS12-R3,1.5,44.42841450739999,Hunter
10415,138,0.3873,4033.73,Hunter,714,100Ft,"Hunter, 138",138,Legend 02R21,1.5,35.50712385499999,Hunter
10681,139,0.42200000000000004,4507.38,Hunter,714,100Ft,"Hunter, 139",139,PB-0863R2,1.5,40.8739819698,Hunter
9614,140,0.3862,3712.93,Hunter,714,100Ft,"Hunter, 140",140,W1048NRX,1.0,36.27105607229999,Hunter
6984,201,0.2837,1981.36,Hunter,714,100Ft,"Hunter, 201",201,Integra 30808N,3.0,34.2664226366,Hunter
8597,202,0.3216,2764.8,Hunter,714,100Ft,"Hunter, 202",202,Thunder SB8807NR2X,3.5,38.01544149059998,Hunter
8598,203,0.3285,2824.44,Hunter,714,100Ft,"Hunter, 203",203,GH0391,3.0,39.47152528549999,Hunter
9078,204,0.3811,3459.63,Hunter,714,100Ft,"Hunter, 204",204,REA RX0327,3.0,40.30382292089999,Hunter
8218,205,0.3574,2937.11,Hunter,714,100Ft,"Hunter, 205",205,Dahlman 6703XN,2.0,32.4117540208,Hunter
8298,206,0.3972,3295.97,Hunter,714,100Ft,"Hunter, 206",206,PB-0578R2,2.0,37.994401286099986,Hunter
10859,207,0.3771,4094.93,Hunter,714,100Ft,"Hunter, 207",207,REA RX0228,2.0,38.84011586349999,Hunter
9374,208,0.3557,3334.33,Hunter,714,100Ft,"Hunter, 208",208,PB-0863R2,3.0,30.05516980199999,Hunter
8757,209,0.3374,2954.61,Hunter,714,100Ft,"Hunter, 209",209,Thunder SB8703R2X,3.0,36.61501767629999,Hunter
11864,210,0.3597,4267.48,Hunter,714,100Ft,"Hunter, 210",210,Channel 0518R2X,3.0,40.582041509099994,Hunter
9271,211,0.3656,3389.48,Hunter,714,100Ft,"Hunter, 211",211,Integra 20775N,3.0,40.469969386,Hunter
9355,212,0.363,3395.86,Hunter,714,100Ft,"Hunter, 212",212,Legend 04X765,2.5,41.05356570559999,Hunter
10516,213,0.3439,3616.45,Hunter,714,100Ft,"Hunter, 213",213,Legend 007X756N,1.5,34.3728637098,Hunter
8890,214,0.3066,2725.67,Hunter,714,100Ft,"Hunter, 214",214,Stine 07BA00,3.0,31.355393453999998,Hunter
8790,215,0.3266,2870.81,Hunter,714,100Ft,"Hunter, 215",215,PFS 18X07N,2.5,31.254969675999995,Hunter
8664,216,0.3689,3196.15,Hunter,714,100Ft,"Hunter, 216",216,NKS08-M2,2.0,34.020282737,Hunter
8710,217,0.3452,3006.69,Hunter,714,100Ft,"Hunter, 217",217,GH1253X,2.0,33.825167874399995,Hunter
6684,218,0.3536,2363.46,Hunter,714,100Ft,"Hunter, 218",218,PFS 17X04N,2.0,23.58259303679999,Hunter
7051,219,0.3535,2492.53,Hunter,714,100Ft,"Hunter, 219",219,Channel 0317R2X,2.0,35.330955340799996,Hunter
7054,220,0.3467,2445.62,Hunter,714,100Ft,"Hunter, 220",220,W1048NRX,2.5,31.064245812599992,Hunter
4397,221,0.3033,1333.61,Hunter,714,100Ft,"Hunter, 221",221,PFS 15R07N,3.5,21.925722672,Hunter
7030,222,0.3292,2314.28,Hunter,714,100Ft,"Hunter, 222",222,W1050NRX,3.0,31.002405907199993,Hunter
8881,223,0.3389,3009.77,Hunter,714,100Ft,"Hunter, 223",223,Channel 0218R2X,2.0,36.6028814424,Hunter
8599,224,0.353,3035.45,Hunter,714,100Ft,"Hunter, 224",224,PB-1257R2,2.5,45.78787599119999,Hunter
10678,225,0.3802,4059.78,Hunter,714,100Ft,"Hunter, 225",225,Thunder 3503R2Y,1.5,38.41248133029999,Hunter
9907,226,0.3836,3800.33,Hunter,714,100Ft,"Hunter, 226",226,Channel 1318R2X,1.5,44.860074123199986,Hunter
9989,227,0.3676,3671.96,Hunter,714,100Ft,"Hunter, 227",227,Dahlman 68008XN,1.5,29.646115700599992,Hunter
10690,228,0.3724,3980.96,Hunter,714,100Ft,"Hunter, 228",228,W1074NRX,2.0,44.67622136039999,Hunter
12579,229,0.36700000000000005,4616.49,Hunter,714,100Ft,"Hunter, 229",229,W1039NRX,1.5,35.245086912,Hunter
10470,230,0.3457,3619.48,Hunter,714,100Ft,"Hunter, 230",230,Dyna-Gro S11XT78,2.0,36.11887542409999,Hunter
9815,231,0.3542,3476.47,Hunter,714,100Ft,"Hunter, 231",231,Legend 02R21,2.0,35.647717144199994,Hunter
9974,232,0.3357,3348.27,Hunter,714,100Ft,"Hunter, 232",232,Dahlman 6806XN,2.0,35.62405453739999,Hunter
7232,233,0.3197,2312.07,Hunter,714,100Ft,"Hunter, 233",233,Dyna-Gro S05XT88,2.5,41.155697094400004,Hunter
8299,234,0.3352,2781.82,Hunter,714,100Ft,"Hunter, 234",234,Dyna-Gro S07RY45,3.0,49.286872163899986,Hunter
4623,235,0.2817,1302.3,Hunter,714,100Ft,"Hunter, 235",235,PFS 18X11N,3.5,28.662247277999995,Hunter
12165,236,0.3662,4454.82,Hunter,714,100Ft,"Hunter, 236",236,REA RX0628,1.5,42.4934678553,Hunter
11878,237,0.4062,4824.84,Hunter,714,100Ft,"Hunter, 237",237,PB-0777R2,2.5,51.72035985479999,Hunter
10222,238,0.3698,3780.1,Hunter,714,100Ft,"Hunter, 238",238,Integra 20915N,3.0,45.3946376184,Hunter
10642,239,0.4232,4503.69,Hunter,714,100Ft,"Hunter, 239",239,NKS12-R3,2.0,52.59654715349999,Hunter
9993,240,0.355,3547.52,Hunter,714,100Ft,"Hunter, 240",240,REA RX0516,2.0,42.4418126286,Hunter
8321,301,0.3139,2611.96,Hunter,714,100Ft,"Hunter, 301",301,Dahlman 6806XN,3.0,38.152578900799995,Hunter
3617,302,0.2863,1035.55,Hunter,714,100Ft,"Hunter, 302",302,PFS 18X11N,4.0,18.975703042799996,Hunter
7855,303,0.3282,2578.01,Hunter,714,100Ft,"Hunter, 303",303,Dahlman 6703XN,2.5,30.328997390999994,Hunter
5064,304,0.3098,1568.83,Hunter,714,100Ft,"Hunter, 304",304,Dyna-Gro S11XT78,3.5,32.6417122752,Hunter
6973,305,0.3273,2282.26,Hunter,714,100Ft,"Hunter, 305",305,Channel 1318R2X,3.5,46.722487973699984,Hunter
4835,306,0.3181,1538.01,Hunter,714,100Ft,"Hunter, 306",306,PFS 17X04N,3.5,26.489434507199995,Hunter
7849,307,0.3553,2788.75,Hunter,714,100Ft,"Hunter, 307",307,Channel 0317R2X,3.0,43.597194293099996,Hunter
7798,308,0.3227,2516.41,Hunter,714,100Ft,"Hunter, 308",308,Dahlman 68008XN,3.0,20.621108020799998,Hunter
9165,309,0.3131,2869.56,Hunter,714,100Ft,"Hunter, 309",309,W1039NRX,3.0,38.66854163549999,Hunter
9191,310,0.3451,3171.81,Hunter,714,100Ft,"Hunter, 310",310,Thunder 3503R2Y,2.5,37.109513303799986,Hunter
8270,311,0.3344,2765.49,Hunter,714,100Ft,"Hunter, 311",311,Legend 04X765,3.0,40.22368718549998,Hunter
8194,312,0.287,2351.68,Hunter,714,100Ft,"Hunter, 312",312,PB-1257R2,3.0,42.946777536599996,Hunter
6166,313,0.2855,1760.39,Hunter,714,100Ft,"Hunter, 313",313,Integra 20915N,3.0,36.189517656599996,Hunter
5991,314,0.2644,1584.02,Hunter,714,100Ft,"Hunter, 314",314,Integra 30808N,3.5,29.961820411599994,Hunter
10752,315,0.3751,4033.08,Hunter,714,100Ft,"Hunter, 315",315,PFS 18X07N,1.5,41.178465238399994,Hunter
11201,316,0.4209,4714.5,Hunter,714,100Ft,"Hunter, 316",316,PB-0578R2,2.0,46.18233408599998,Hunter
9037,317,0.3474,3139.45,Hunter,714,100Ft,"Hunter, 317",317,PB-0777R2,3.0,42.902623600199995,Hunter
8846,318,0.3871,3424.29,Hunter,714,100Ft,"Hunter, 318",318,NKS12-R3,2.0,48.866149388699995,Hunter
10906,319,0.4114,4486.73,Hunter,714,100Ft,"Hunter, 319",319,Channel 0218R2X,1.5,38.61334921499999,Hunter
7757,320,0.3598,2790.97,Hunter,714,100Ft,"Hunter, 320",320,W1074NRX,3.0,44.582363752499994,Hunter
6280,321,0.3841,2412.15,Hunter,714,100Ft,"Hunter, 321",321,REA RX0516,2.0,41.69766023639999,Hunter
7439,322,0.4002,2977.09,Hunter,714,100Ft,"Hunter, 322",322,Dyna-Gro S05XT88,2.0,41.57829011,Hunter
8299,323,0.3856,3200.09,Hunter,714,100Ft,"Hunter, 323",323,NKS08-M2,2.0,37.514257720799996,Hunter
9743,324,0.4068,3963.45,Hunter,714,100Ft,"Hunter, 324",324,W1050NRX,2.0,42.314189049999996,Hunter
9366,325,0.3823,3580.62,Hunter,714,100Ft,"Hunter, 325",325,GH1253X,2.5,41.68381639169999,Hunter
10523,326,0.3736,3931.39,Hunter,714,100Ft,"Hunter, 326",326,Channel 0518R2X,2.5,42.55479954319999,Hunter
10549,327,0.3811,4020.22,Hunter,714,100Ft,"Hunter, 327",327,GH0391,2.5,42.352589964299995,Hunter
9911,328,0.3651,3618.51,Hunter,714,100Ft,"Hunter, 328",328,Legend 02R21,1.5,36.03514150879999,Hunter
9636,329,0.3975,3830.31,Hunter,714,100Ft,"Hunter, 329",329,Legend 007X756N,1.0,34.556675815199995,Hunter
10768,330,0.3908,4208.13,Hunter,714,100Ft,"Hunter, 330",330,Integra 20775N,1.5,44.14417862399999,Hunter
9490,331,0.3782,3589.12,Hunter,714,100Ft,"Hunter, 331",331,W1048NRX,1.5,40.11092388659999,Hunter
10217,332,0.3879,3963.17,Hunter,714,100Ft,"Hunter, 332",332,Thunder SB8703R2X,1.5,38.26251651039999,Hunter
10978,333,0.3828,4202.38,Hunter,714,100Ft,"Hunter, 333",333,Thunder SB8807NR2X,2.0,43.35566900839999,Hunter
7763,334,0.3734,2898.7,Hunter,714,100Ft,"Hunter, 334",334,PFS 15R07N,3.0,34.5948937712,Hunter
8804,335,0.36200000000000004,3187.05,Hunter,714,100Ft,"Hunter, 335",335,REA RX0628,2.0,40.492330955999996,Hunter
7815,336,0.44799999999999995,3501.12,Hunter,714,100Ft,"Hunter, 336",336,PB-0863R2,2.0,37.73982497599999,Hunter
10599,337,0.4142,4390.11,Hunter,714,100Ft,"Hunter, 337",337,REA RX0228,2.0,41.02183260489999,Hunter
5548,338,0.3485,1933.48,Hunter,714,100Ft,"Hunter, 338",338,Stine 07BA00,3.5,30.181411028999996,Hunter
8781,339,0.40700000000000003,3573.87,Hunter,714,100Ft,"Hunter, 339",339,Dyna-Gro S07RY45,2.0,43.61646590069999,Hunter
9960,340,0.4122,4105.51,Hunter,714,100Ft,"Hunter, 340",340,REA RX0327,2.0,44.3281127016,Hunter
8862,401,0.3554,3149.55,Hunter,714,100Ft,"Hunter, 401",401,Channel 0218R2X,2.0,36.61906308759999,Hunter
8626,402,0.3459,2983.73,Hunter,714,100Ft,"Hunter, 402",402,Channel 0518R2X,2.0,42.22067703,Hunter
7804,403,0.3724,2906.21,Hunter,714,100Ft,"Hunter, 403",403,W1048NRX,3.0,40.30382292089999,Hunter
9915,404,0.4387,4349.71,Hunter,714,100Ft,"Hunter, 404",404,PB-0578R2,2.0,43.88736615689999,Hunter
7414,405,0.3769,2794.34,Hunter,714,100Ft,"Hunter, 405",405,Integra 20775N,3.0,41.15114346559999,Hunter
7354,406,0.3765,2768.78,Hunter,714,100Ft,"Hunter, 406",406,Dyna-Gro S11XT78,3.0,44.1566401171,Hunter
7387,407,0.3736,2759.78,Hunter,714,100Ft,"Hunter, 407",407,Thunder 3503R2Y,2.5,38.60054213399999,Hunter
7468,408,0.3199,2389.01,Hunter,714,100Ft,"Hunter, 408",408,PB-1257R2,3.0,36.61934768939999,Hunter
9324,409,0.3533,3294.17,Hunter,714,100Ft,"Hunter, 409",409,Thunder SB8703R2X,3.0,31.993917920999994,Hunter
9543,410,0.3265,3115.79,Hunter,714,100Ft,"Hunter, 410",410,Dahlman 6806XN,3.0,16.834033840399997,Hunter
7282,411,0.3133,2281.45,Hunter,714,100Ft,"Hunter, 411",411,PFS 15R07N,3.5,24.295601860599994,Hunter
5582,412,0.3015,1682.97,Hunter,714,100Ft,"Hunter, 412",412,Dyna-Gro S05XT88,3.0,27.12596676159999,Hunter
4696,413,0.2693,1264.63,Hunter,714,100Ft,"Hunter, 413",413,REA RX0516,3.0,27.345598036399995,Hunter
4861,414,0.2887,1403.37,Hunter,714,100Ft,"Hunter, 414",414,Dyna-Gro S07RY45,3.5,40.005539905799985,Hunter
6315,415,0.3509,2215.93,Hunter,714,100Ft,"Hunter, 415",415,Channel 0317R2X,2.5,28.519234873499997,Hunter
3394,416,0.3007,1020.58,Hunter,714,100Ft,"Hunter, 416",416,Integra 20915N,3.0,26.595733279499992,Hunter
7703,417,0.3782,2913.27,Hunter,714,100Ft,"Hunter, 417",417,PB-0863R2,3.0,20.415706835999995,Hunter
6723,418,0.3297,2216.57,Hunter,714,100Ft,"Hunter, 418",418,Integra 30808N,3.0,29.73604986939999,Hunter
6053,419,0.3693,2235.37,Hunter,714,100Ft,"Hunter, 419",419,NKS12-R3,3.0,36.95635687799999,Hunter
6862,420,0.3276,2247.99,Hunter,714,100Ft,"Hunter, 420",420,Legend 04X765,3.0,22.805304863599996,Hunter
5892,421,0.3344,1970.28,Hunter,714,100Ft,"Hunter, 421",421,GH1253X,3.0,26.379496897599996,Hunter
3420,422,0.2957,1011.29,Hunter,714,100Ft,"Hunter, 422",422,Legend 007X756N,3.0,19.620041517999997,Hunter
1955,423,0.2659,519.83,Hunter,714,100Ft,"Hunter, 423",423,Dahlman 6703XN,3.5,8.124405612399999,Hunter
3483,424,0.2682,934.14,Hunter,714,100Ft,"Hunter, 424",424,PB-0777R2,3.5,27.538883315999996,Hunter
5254,425,0.2759,1449.58,Hunter,714,100Ft,"Hunter, 425",425,Thunder SB8807NR2X,3.5,20.560528494799996,Hunter
654,426,0.2659,173.9,Hunter,714,100Ft,"Hunter, 426",426,Stine 07BA00,4.0,0.8095701487999998,Hunter
5074,427,0.2972,1507.99,Hunter,714,100Ft,"Hunter, 427",427,Channel 1318R2X,3.0,33.8649308116,Hunter
4528,428,0.2891,1309.04,Hunter,714,100Ft,"Hunter, 428",428,REA RX0327,3.5,28.994133634199997,Hunter
11167,429,0.3601,4021.24,Hunter,714,100Ft,"Hunter, 429",429,W1074NRX,1.5,43.71825170159999,Hunter
5151,430,0.2879,1482.97,Hunter,714,100Ft,"Hunter, 430",430,PFS 18X07N,2.5,22.466364448499995,Hunter
5683,431,0.28300000000000003,1608.29,Hunter,714,100Ft,"Hunter, 431",431,W1050NRX,3.0,30.98179260539999,Hunter
7250,432,0.3155,2287.38,Hunter,714,100Ft,"Hunter, 432",432,Dahlman 68008XN,3.0,17.66157456,Hunter
3366,433,0.2757,928.01,Hunter,714,100Ft,"Hunter, 433",433,PFS 17X04N,3.5,18.928459143999998,Hunter
1059,434,0.2472,261.78,Hunter,714,100Ft,"Hunter, 434",434,PFS 18X11N,4.0,10.788949307499998,Hunter
3948,435,0.282,1113.34,Hunter,714,100Ft,"Hunter, 435",435,NKS08-M2,3.0,29.895142275599994,Hunter
5812,436,0.3113,1809.28,Hunter,714,100Ft,"Hunter, 436",436,Legend 02R21,2.0,34.549032223999994,Hunter
5680,437,0.3294,1870.99,Hunter,714,100Ft,"Hunter, 437",437,REA RX0628,2.5,45.23778136919999,Hunter
7682,438,0.3331,2558.87,Hunter,714,100Ft,"Hunter, 438",438,GH0391,3.0,42.94067892659999,Hunter
9904,439,0.3711,3675.37,Hunter,714,100Ft,"Hunter, 439",439,REA RX0228,2.5,41.0082327046,Hunter
10928,440,0.3566,3896.92,Hunter,714,100Ft,"Hunter, 440",440,W1039NRX,2.5,45.05274954179999,Hunter
1317,101,0.2313,304.62,Leonard,714,100Ft,"Leonard, 101",101,Dyna-Gro S11XT78,3.0,0.4041752133999999,Leonard
420,102,0.2308,96.94,Leonard,714,100Ft,"Leonard, 102",102,Integra 30808N,5.0,,Leonard
611,103,0.2109,128.86,Leonard,714,100Ft,"Leonard, 103",103,Thunder SB8807NR2X,3.0,9.196703879999998,Leonard
1427,104,0.2354,335.92,Leonard,714,100Ft,"Leonard, 104",104,W1050NRX,3.0,5.853445877999999,Leonard
301,105,0.2102,63.27,Leonard,714,100Ft,"Leonard, 105",105,REA RX0516,4.0,0.6072385976999999,Leonard
4958,106,0.255,1264.29,Leonard,714,100Ft,"Leonard, 106",106,Channel 0218R2X,3.0,14.752131016,Leonard
1800,107,0.2288,411.84,Leonard,714,100Ft,"Leonard, 107",107,Channel 0518R2X,4.0,12.666203108999998,Leonard
5796,108,0.2604,1509.28,Leonard,714,100Ft,"Leonard, 108",108,Legend 04X765,3.0,15.145938592399995,Leonard
2772,109,0.2285,633.4,Leonard,714,100Ft,"Leonard, 109",109,PFS 18X07N,3.0,2.2220692108999995,Leonard
2025,110,0.2271,459.88,Leonard,714,100Ft,"Leonard, 110",110,Integra 20775N,3.5,3.0974433615999994,Leonard
4190,111,0.254,1064.26,Leonard,714,100Ft,"Leonard, 111",111,PB-1257R2,3.0,21.112676315499996,Leonard
3438,112,0.2236,768.74,Leonard,714,100Ft,"Leonard, 112",112,Dahlman 68008XN,3.0,2.6200035133999995,Leonard
8157,113,0.2653,2164.05,Leonard,714,100Ft,"Leonard, 113",113,REA RX0228,2.5,18.645097394699995,Leonard
200,114,0.2147,42.94,Leonard,714,100Ft,"Leonard, 114",114,PFS 18X11N,4.0,1.9454565899999996,Leonard
4294,115,0.2652,1138.77,Leonard,714,100Ft,"Leonard, 115",115,W1048NRX,3.5,6.899723409599998,Leonard
2579,116,0.23,593.17,Leonard,714,100Ft,"Leonard, 116",116,REA RX0327,3.5,1.0112511814999998,Leonard
3578,117,0.2606,932.43,Leonard,714,100Ft,"Leonard, 117",117,Dyna-Gro S07RY45,3.5,2.0107117169999995,Leonard
3260,118,0.2489,811.41,Leonard,714,100Ft,"Leonard, 118",118,Thunder SB8703R2X,3.0,4.9905332204,Leonard
1623,119,0.2272,368.75,Leonard,714,100Ft,"Leonard, 119",119,Dyna-Gro S05XT88,3.5,0.7986739655999998,Leonard
7316,120,0.276,2019.22,Leonard,714,100Ft,"Leonard, 120",120,PFS 17X04N,3.5,10.3232187905,Leonard
288,121,0.2104,60.6,Leonard,714,100Ft,"Leonard, 121",121,GH1253X,3.5,2.0212826409999995,Leonard
810,122,0.2119,171.64,Leonard,714,100Ft,"Leonard, 122",122,PB-0777R2,3.5,1.6165382239999995,Leonard
7245,123,0.2585,1872.83,Leonard,714,100Ft,"Leonard, 123",123,W1039NRX,3.0,15.431678799599995,Leonard
5394,124,0.2629,1418.08,Leonard,714,100Ft,"Leonard, 124",124,Legend 007X756N,3.5,8.437467592399999,Leonard
5195,125,0.2878,1495.12,Leonard,714,100Ft,"Leonard, 125",125,Legend 02R21,2.5,15.872526987799995,Leonard
2517,126,0.2255,567.58,Leonard,714,100Ft,"Leonard, 126",126,PB-0863R2,3.0,0.8059109827999997,Leonard
177,127,0.2111,37.36,Leonard,714,100Ft,"Leonard, 127",127,Dahlman 6806XN,3.5,0.8842984499999998,Leonard
2101,128,0.2362,496.26,Leonard,714,100Ft,"Leonard, 128",128,Integra 20915N,3.5,6.203302804999999,Leonard
4011,129,0.2421,971.06,Leonard,714,100Ft,"Leonard, 129",129,Channel 0317R2X,3.5,1.6176766311999997,Leonard
2925,130,0.2398,701.42,Leonard,714,100Ft,"Leonard, 130",130,Dahlman 6703XN,3.0,0.4046631021999999,Leonard
3692,131,0.2607,962.5,Leonard,714,100Ft,"Leonard, 131",131,NKS08-M2,3.5,11.446968997799997,Leonard
282,132,0.2075,58.52,Leonard,714,100Ft,"Leonard, 132",132,Stine 07BA00,3.5,,Leonard
2286,133,0.2403,549.33,Leonard,714,100Ft,"Leonard, 133",133,NKS12-R3,3.5,14.415487743999998,Leonard
5522,134,0.2596,1433.51,Leonard,714,100Ft,"Leonard, 134",134,Channel 1318R2X,3.5,11.182777212599996,Leonard
681,135,0.2442,166.3,Leonard,714,100Ft,"Leonard, 135",135,PFS 15R07N,3.5,2.1869615459999996,Leonard
5157,136,0.2777,1432.1,Leonard,714,100Ft,"Leonard, 136",136,GH0391,3.5,17.139899460599995,Leonard
4993,137,0.2504,1250.25,Leonard,714,100Ft,"Leonard, 137",137,REA RX0628,3.0,12.1873809092,Leonard
6113,138,0.2794,1707.97,Leonard,714,100Ft,"Leonard, 138",138,PB-0578R2,3.0,20.239457007,Leonard
6233,139,0.2621,1633.67,Leonard,714,100Ft,"Leonard, 139",139,Thunder 3503R2Y,3.0,14.399184126599998,Leonard
3419,140,0.2255,770.98,Leonard,714,100Ft,"Leonard, 140",140,W1074NRX,3.0,1.4123364325,Leonard
572,201,0.2583,147.75,Leonard,714,100Ft,"Leonard, 201",201,GH1253X,4.0,,Leonard
3968,202,0.245,972.16,Leonard,714,100Ft,"Leonard, 202",202,REA RX0327,3.5,5.800997831999999,Leonard
11705,203,0.3154,3691.76,Leonard,714,100Ft,"Leonard, 203",203,REA RX0228,3.0,26.407225244399992,Leonard
5186,205,0.2486,1289.24,Leonard,714,100Ft,"Leonard, 205",205,Dyna-Gro S05XT88,3.5,8.989839028799999,Leonard
6584,206,0.2626,1728.96,Leonard,714,100Ft,"Leonard, 206",206,Legend 007X756N,3.0,11.519867715999998,Leonard
3781,207,0.2287,864.71,Leonard,714,100Ft,"Leonard, 207",207,Dyna-Gro S11XT78,3.0,7.9998516675,Leonard
2717,208,0.2414,655.88,Leonard,714,100Ft,"Leonard, 208",208,W1050NRX,3.5,5.811365468999999,Leonard
7948,209,0.2693,2140.4,Leonard,714,100Ft,"Leonard, 209",209,REA RX0628,3.0,17.8475211789,Leonard
2942,210,0.2375,698.72,Leonard,714,100Ft,"Leonard, 210",210,PFS 15R07N,3.0,7.719254621399998,Leonard
1134,211,0.2214,251.07,Leonard,714,100Ft,"Leonard, 211",211,REA RX0516,3.5,0.40445981519999996,Leonard
2680,212,0.2289,613.45,Leonard,714,100Ft,"Leonard, 212",212,PB-1257R2,3.0,6.100033008999999,Leonard
323,213,0.2118,68.41,Leonard,714,100Ft,"Leonard, 213",213,PFS 18X07N,3.5,7.781826359999998,Leonard
3870,214,0.2347,908.29,Leonard,714,100Ft,"Leonard, 214",214,Legend 02R21,3.0,8.220113132,Leonard
219,215,0.2181,47.76,Leonard,714,100Ft,"Leonard, 215",215,Stine 07BA00,4.0,,Leonard
5317,216,0.2622,1394.12,Leonard,714,100Ft,"Leonard, 216",216,Channel 0218R2X,3.0,11.099470199999997,Leonard
2415,217,0.22399999999999998,540.96,Leonard,714,100Ft,"Leonard, 217",217,PB-0777R2,3.5,0.4046631021999999,Leonard
6786,218,0.2896,1965.23,Leonard,714,100Ft,"Leonard, 218",218,GH0391,3.0,19.5422639118,Leonard
5777,219,0.2716,1569.03,Leonard,714,100Ft,"Leonard, 219",219,Legend 04X765,3.5,12.029711512,Leonard
3433,220,0.2275,781.01,Leonard,714,100Ft,"Leonard, 220",220,Thunder SB8703R2X,3.0,5.496067331999998,Leonard
1080,221,0.2366,255.53,Leonard,714,100Ft,"Leonard, 221",221,Integra 20915N,3.5,4.301227660799999,Leonard
3555,222,0.2339,831.51,Leonard,714,100Ft,"Leonard, 222",222,Channel 1318R2X,3.0,10.423988156399998,Leonard
6395,223,0.2592,1657.58,Leonard,714,100Ft,"Leonard, 223",223,Dahlman 6703XN,3.0,7.6801828599999995,Leonard
7083,224,0.2618,1854.33,Leonard,714,100Ft,"Leonard, 224",224,Dahlman 68008XN,3.0,10.5120520848,Leonard
8174,225,0.2785,2276.46,Leonard,714,100Ft,"Leonard, 225",225,W1039NRX,2.5,20.255110105999997,Leonard
4207,226,0.251,1055.96,Leonard,714,100Ft,"Leonard, 226",226,NKS08-M2,3.5,5.2474270022999985,Leonard
1309,227,0.2165,283.4,Leonard,714,100Ft,"Leonard, 227",227,W1074NRX,3.5,2.0131511609999997,Leonard
1695,228,0.2382,403.75,Leonard,714,100Ft,"Leonard, 228",228,NKS12-R3,3.5,9.004597664999999,Leonard
1010,229,0.2349,237.25,Leonard,714,100Ft,"Leonard, 229",229,Integra 20775N,3.5,2.3418662399999994,Leonard
2162,230,0.2311,499.64,Leonard,714,100Ft,"Leonard, 230",230,W1048NRX,3.5,2.1686250585999995,Leonard
3124,231,0.24100000000000002,752.88,Leonard,714,100Ft,"Leonard, 231",231,PB-0578R2,3.5,9.921970909899999,Leonard
2388,232,0.2333,557.12,Leonard,714,100Ft,"Leonard, 232",232,Dyna-Gro S07RY45,3.5,6.8709989564999985,Leonard
5873,233,0.2719,1596.87,Leonard,714,100Ft,"Leonard, 233",233,Channel 0317R2X,3.0,14.0114345028,Leonard
3863,234,0.26,1004.38,Leonard,714,100Ft,"Leonard, 234",234,PFS 17X04N,3.0,6.283824785699999,Leonard
3233,235,0.2358,762.34,Leonard,714,100Ft,"Leonard, 235",235,Thunder 3503R2Y,3.0,12.358995794599998,Leonard
1534,236,0.1997,306.34,Leonard,714,100Ft,"Leonard, 236",236,Thunder SB8807NR2X,3.5,1.2141112788,Leonard
2289,237,0.2173,497.4,Leonard,714,100Ft,"Leonard, 237",237,Dahlman 6806XN,3.5,2.8283726884,Leonard
2615,238,0.23800000000000002,622.37,Leonard,714,100Ft,"Leonard, 238",238,PB-0863R2,3.0,7.288936699799998,Leonard
6301,239,0.257,1619.36,Leonard,714,100Ft,"Leonard, 239",239,Channel 0518R2X,2.5,16.841514801999995,Leonard
377,240,0.2334,87.99,Leonard,714,100Ft,"Leonard, 240",240,PFS 18X11N,3.5,0.4047444169999999,Leonard
2812,301,0.2345,659.41,Leonard,714,100Ft,"Leonard, 301",301,Channel 0317R2X,4.0,7.279951414399998,Leonard
330,302,0.21600000000000003,71.28,Leonard,714,100Ft,"Leonard, 302",302,PB-0863R2,4.0,2.983135081499999,Leonard
242,303,0.1992,48.21,Leonard,714,100Ft,"Leonard, 303",303,REA RX0516,4.0,0.20245352329999994,Leonard
436,304,0.2005,87.42,Leonard,714,100Ft,"Leonard, 304",304,Dahlman 68008XN,4.0,0.6072995837999998,Leonard
3697,305,0.2802,1035.9,Leonard,714,100Ft,"Leonard, 305",305,PB-0578R2,4.0,13.309118575199998,Leonard
295,306,0.2394,70.62,Leonard,714,100Ft,"Leonard, 306",306,W1050NRX,4.0,1.0123692599999998,Leonard
1383,307,0.2508,346.86,Leonard,714,100Ft,"Leonard, 307",307,PB-1257R2,4.0,13.779687322799997,Leonard
3417,308,0.27699999999999997,946.51,Leonard,714,100Ft,"Leonard, 308",308,W1074NRX,3.5,13.572009323599998,Leonard
7076,309,0.2641,1868.77,Leonard,714,100Ft,"Leonard, 309",309,REA RX0327,3.5,16.616272805999998,Leonard
6323,310,0.2646,1673.07,Leonard,714,100Ft,"Leonard, 310",310,Dahlman 6703XN,3.0,13.687842256199998,Leonard
5153,311,0.2523,1300.1,Leonard,714,100Ft,"Leonard, 311",311,Thunder 3503R2Y,2.5,11.245836839999997,Leonard
862,312,0.2257,194.55,Leonard,714,100Ft,"Leonard, 312",312,Stine 07BA00,3.5,0.8096514635999998,Leonard
4477,313,0.2534,1134.47,Leonard,714,100Ft,"Leonard, 313",313,PFS 15R07N,3.0,14.175446454399998,Leonard
4180,314,0.2499,1044.58,Leonard,714,100Ft,"Leonard, 314",314,W1048NRX,3.5,9.536152512599998,Leonard
1837,315,0.2291,420.86,Leonard,714,100Ft,"Leonard, 315",315,Integra 20775N,3.5,5.1700762988,Leonard
9090,316,0.2897,2633.37,Leonard,714,100Ft,"Leonard, 316",316,REA RX0628,3.0,18.081321557599995,Leonard
2401,317,0.2535,608.65,Leonard,714,100Ft,"Leonard, 317",317,Dahlman 6806XN,3.5,1.0116577555,Leonard
4543,319,0.2589,1176.18,Leonard,714,100Ft,"Leonard, 319",319,Dyna-Gro S05XT88,3.5,13.300336576799996,Leonard
4423,320,0.2413,1067.27,Leonard,714,100Ft,"Leonard, 320",320,Dyna-Gro S11XT78,3.5,12.295895509799998,Leonard
6375,321,0.2829,1803.49,Leonard,714,100Ft,"Leonard, 321",321,Legend 007X756N,3.0,10.207975390199998,Leonard
6001,322,0.3096,1857.91,Leonard,714,100Ft,"Leonard, 322",322,NKS08-M2,3.0,21.795375047599997,Leonard
1572,323,0.235,369.42,Leonard,714,100Ft,"Leonard, 323",323,NKS12-R3,3.5,17.007559623599995,Leonard
8507,324,0.2949,2508.71,Leonard,714,100Ft,"Leonard, 324",324,Legend 02R21,2.5,23.216676436799997,Leonard
8733,325,0.2918,2548.29,Leonard,714,100Ft,"Leonard, 325",325,Channel 0218R2X,2.5,23.43449845729999,Leonard
6388,326,0.2771,1770.11,Leonard,714,100Ft,"Leonard, 326",326,Legend 04X765,3.0,13.128599719199997,Leonard
1491,327,0.2452,365.59,Leonard,714,100Ft,"Leonard, 327",327,GH1253X,3.5,10.646953337999998,Leonard
3603,328,0.2481,893.9,Leonard,714,100Ft,"Leonard, 328",328,PFS 17X04N,3.5,5.989953098499999,Leonard
2809,329,0.2474,694.95,Leonard,714,100Ft,"Leonard, 329",329,Thunder SB8703R2X,3.5,5.9151638111999985,Leonard
5222,330,0.2706,1413.07,Leonard,714,100Ft,"Leonard, 330",330,GH0391,3.0,14.757009903999997,Leonard
5859,331,0.2639,1546.19,Leonard,714,100Ft,"Leonard, 331",331,W1039NRX,3.0,16.0394052861,Leonard
3316,332,0.2358,781.91,Leonard,714,100Ft,"Leonard, 332",332,Dyna-Gro S07RY45,3.0,13.676132925,Leonard
1746,333,0.2347,409.79,Leonard,714,100Ft,"Leonard, 333",333,PFS 18X11N,3.0,6.266220131499999,Leonard
2689,334,0.2174,584.59,Leonard,714,100Ft,"Leonard, 334",334,PB-0777R2,3.5,4.067122351599999,Leonard
9823,335,0.2974,2921.36,Leonard,714,100Ft,"Leonard, 335",335,REA RX0228,2.5,26.797190696499992,Leonard
3293,336,0.2368,779.78,Leonard,714,100Ft,"Leonard, 336",336,PFS 18X07N,3.5,13.212516592799998,Leonard
6881,337,0.2691,1851.68,Leonard,714,100Ft,"Leonard, 337",337,Channel 1318R2X,3.0,23.737985619599993,Leonard
5850,338,0.2542,1487.07,Leonard,714,100Ft,"Leonard, 338",338,Thunder SB8807NR2X,3.0,19.323750715499997,Leonard
2508,339,0.2643,662.86,Leonard,714,100Ft,"Leonard, 339",339,Integra 20915N,3.5,10.340559171599997,Leonard
8024,340,0.2854,2290.05,Leonard,714,100Ft,"Leonard, 340",340,Channel 0518R2X,2.5,25.620524883099996,Leonard
2077,401,0.2194,455.69,Leonard,714,100Ft,"Leonard, 401",401,PB-0777R2,3.5,3.412904128199999,Leonard
10061,402,0.29600000000000004,2978.06,Leonard,714,100Ft,"Leonard, 402",402,Channel 0518R2X,2.5,20.808579292199997,Leonard
1950,403,0.2467,481.06,Leonard,714,100Ft,"Leonard, 403",403,REA RX0516,3.5,1.6180018903999998,Leonard
2177,404,0.223,485.47,Leonard,714,100Ft,"Leonard, 404",404,Dahlman 68008XN,3.0,2.8252420685999997,Leonard
5543,405,0.2608,1445.61,Leonard,714,100Ft,"Leonard, 405",405,W1050NRX,3.0,13.840795394999997,Leonard
1783,406,0.2326,414.73,Leonard,714,100Ft,"Leonard, 406",406,Integra 20915N,3.5,12.824157107999996,Leonard
6138,407,0.2595,1592.81,Leonard,714,100Ft,"Leonard, 407",407,Channel 0317R2X,2.5,21.764190821799996,Leonard
960,408,0.2408,231.17,Leonard,714,100Ft,"Leonard, 408",408,Integra 20775N,3.0,5.4068649963999995,Leonard
3648,409,0.2461,897.77,Leonard,714,100Ft,"Leonard, 409",409,Legend 007X756N,3.0,10.4663328385,Leonard
5410,410,0.2556,1382.8,Leonard,714,100Ft,"Leonard, 410",410,Dyna-Gro S05XT88,3.0,9.577623060599999,Leonard
1857,411,0.2274,422.28,Leonard,714,100Ft,"Leonard, 411",411,NKS08-M2,3.5,9.285255697199997,Leonard
6159,412,0.2796,1722.06,Leonard,714,100Ft,"Leonard, 412",412,REA RX0327,3.0,14.747252128,Leonard
5490,413,0.2873,1577.28,Leonard,714,100Ft,"Leonard, 413",413,PB-0578R2,3.0,16.2201884152,Leonard
2991,414,0.2433,727.71,Leonard,714,100Ft,"Leonard, 414",414,PFS 17X04N,3.5,5.651846160099999,Leonard
1082,415,0.2198,237.82,Leonard,714,100Ft,"Leonard, 415",415,PFS 15R07N,3.0,2.4184647815999996,Leonard
4464,416,0.2566,1145.46,Leonard,714,100Ft,"Leonard, 416",416,Thunder 3503R2Y,3.0,9.525784875599998,Leonard
4133,417,0.2559,1057.63,Leonard,714,100Ft,"Leonard, 417",417,GH0391,3.0,13.477643498199996,Leonard
3702,418,0.239,884.78,Leonard,714,100Ft,"Leonard, 418",418,Dyna-Gro S11XT78,3.0,7.000309817199999,Leonard
5750,419,0.2497,1435.78,Leonard,714,100Ft,"Leonard, 419",419,REA RX0628,3.0,17.865268133999997,Leonard
4047,420,0.2441,987.87,Leonard,714,100Ft,"Leonard, 420",420,Dahlman 6703XN,3.0,8.855588293999999,Leonard
1270,421,0.2094,265.94,Leonard,714,100Ft,"Leonard, 421",421,Thunder SB8807NR2X,3.5,9.196703879999998,Leonard
3351,422,0.2255,755.65,Leonard,714,100Ft,"Leonard, 422",422,Legend 02R21,3.0,10.671957638999999,Leonard
1802,423,0.2434,438.61,Leonard,714,100Ft,"Leonard, 423",423,NKS12-R3,3.5,12.385667048999997,Leonard
2138,424,0.2373,507.35,Leonard,714,100Ft,"Leonard, 424",424,Dyna-Gro S07RY45,3.5,8.762482848,Leonard
2962,425,0.242,716.8,Leonard,714,100Ft,"Leonard, 425",425,Legend 04X765,3.0,3.987271217999999,Leonard
2192,426,0.2307,505.69,Leonard,714,100Ft,"Leonard, 426",426,PB-0863R2,3.5,3.3487467509999993,Leonard
110,427,0.2409,26.5,Leonard,714,100Ft,"Leonard, 427",427,Stine 07BA00,3.5,,Leonard
3256,428,0.2348,764.51,Leonard,714,100Ft,"Leonard, 428",428,W1039NRX,3.0,6.889071170799999,Leonard
493,429,0.2176,107.28,Leonard,714,100Ft,"Leonard, 429",429,PFS 18X11N,4.0,1.2137453621999998,Leonard
3394,430,0.2455,833.23,Leonard,714,100Ft,"Leonard, 430",430,Channel 1318R2X,3.5,3.8498085485999987,Leonard
6837,431,0.2717,1857.61,Leonard,714,100Ft,"Leonard, 431",431,REA RX0228,2.5,21.984919846399997,Leonard
1797,432,0.23399999999999999,420.5,Leonard,714,100Ft,"Leonard, 432",432,PFS 18X07N,3.5,9.4025929536,Leonard
82,433,0.2654,21.76,Leonard,714,100Ft,"Leonard, 433",433,Integra 30808N,4.0,,Leonard
3187,434,0.2223,708.47,Leonard,714,100Ft,"Leonard, 434",434,W1074NRX,3.5,9.232279104999998,Leonard
2166,435,0.2271,491.9,Leonard,714,100Ft,"Leonard, 435",435,GH1253X,3.5,9.118438384999997,Leonard
8421,436,0.2925,2463.14,Leonard,714,100Ft,"Leonard, 436",436,Channel 0218R2X,2.5,17.698654108799996,Leonard
2784,437,0.2197,611.64,Leonard,714,100Ft,"Leonard, 437",437,Thunder SB8703R2X,3.5,8.267885577,Leonard
4121,438,0.2413,994.4,Leonard,714,100Ft,"Leonard, 438",438,PB-1257R2,2.5,20.752390765399998,Leonard
1517,439,0.2116,321.0,Leonard,714,100Ft,"Leonard, 439",439,Dahlman 6806XN,3.5,0.8097327783999998,Leonard
3628,440,0.237,859.84,Leonard,714,100Ft,"Leonard, 440",440,W1048NRX,3.5,5.489968722,Leonard
