canopy_size,DGCI,loc,plot,variety,IDC,yield
15758.0,0.376801584115949,Hunter,101,Channel 1318R2X,1.5,49.4399879323
14987.0,0.397714368700225,Hunter,102,W1050NRX,1.5,45.4367383561
14180.0,0.408173355056638,Hunter,103,REA RX0228,2.0,43.4036447404
14945.0,0.37298907487737,Hunter,104,Dahlman 6806XN,2.0,35.303633567999995
12962.0,0.39714006616426,Hunter,105,Dahlman 6703XN,2.0,35.3153428992
13694.0,0.383003299681265,Hunter,106,Dyna-Gro S11XT78,2.5,46.017021097599994
11738.0,0.35886362953466,Hunter,107,Integra 30808N,3.5,32.10405881759999
14265.0,0.382160102627464,Hunter,108,Thunder SB8807NR2X,3.0,39.091358266799986
17013.0,0.38655723220687,Hunter,109,PB-1257R2,2.5,41.33938722759999
12437.0,0.349783939577725,Hunter,110,PFS 18X07N,3.0,30.308871977999992
14626.0,0.333022856047464,Hunter,111,Integra 20915N,2.5,39.25748440319999
14981.0,0.360986671754471,Hunter,112,GH1253X,2.5,39.82546828119999
14653.0,0.37156977476882,Hunter,113,Thunder 3503R2Y,2.0,34.75201429349999
14835.0,0.347691808662553,Hunter,114,Dyna-Gro S07RY45,2.0,39.91369483919999
19184.0,0.395844789867362,Hunter,115,PB-0777R2,1.0,38.59200407999999
15602.0,0.40599371097937,Hunter,116,Integra 20775N,1.0,39.54145601349999
14784.0,0.407003872197331,Hunter,117,REA RX0516,1.0,38.42097872689999
14255.0,0.393331830514518,Hunter,118,Dyna-Gro S05XT88,1.0,37.87785684899999
16342.0,0.40162651723732,Hunter,119,Channel 0218R2X,1.0,40.263755053199986
16256.0,0.422683157274265,Hunter,120,Legend 04X765,1.5,38.61334921499999
16473.0,0.407235378632308,Hunter,121,REA RX0628,1.0,41.37144558749999
15469.0,0.403318474322463,Hunter,122,Dahlman 68008XN,1.5,27.817020589399995
13436.0,0.402237778777397,Hunter,123,PFS 18X11N,1.5,29.216427968699996
16279.0,0.386833039833064,Hunter,124,REA RX0327,1.0,38.82295844069999
14165.0,0.37690608178269,Hunter,125,Thunder SB8703R2X,1.0,36.06701691039999
14085.0,0.399838803867774,Hunter,126,PFS 15R07N,2.0,36.987093872399996
16132.0,0.381408779388869,Hunter,127,W1074NRX,1.5,31.629668274399997
15928.0,0.366821539832914,Hunter,128,PFS 17X04N,1.0,35.534587928699985
15450.0,0.370483415465332,Hunter,129,Legend 007X756N,1.0,34.035325975
13086.0,0.397383533036711,Hunter,130,NKS08-M2,1.0,33.86257268239999
17406.0,0.378864183848163,Hunter,131,W1039NRX,1.5,37.48522833719999
14954.0,0.378351136182095,Hunter,132,Channel 0317R2X,1.0,40.11978719979999
16291.0,0.380524562491244,Hunter,133,Channel 0518R2X,1.0,34.3614593091
16034.0,0.413793003105963,Hunter,134,PB-0578R2,1.0,38.90783076319999
14834.0,0.374786073517507,Hunter,135,Stine 07BA00,1.5,31.07455246349999
15139.0,0.366878957578997,Hunter,136,GH0391,2.0,43.14807232399999
14318.0,0.396221959198765,Hunter,137,NKS12-R3,1.5,44.42841450739999
14651.0,0.361446260520073,Hunter,138,Legend 02R21,1.5,35.50712385499999
13242.0,0.413357685873865,Hunter,139,PB-0863R2,1.5,40.8739819698
13804.0,0.373893908256035,Hunter,140,W1048NRX,1.0,36.27105607229999
14241.0,0.33370867445118,Hunter,201,Integra 30808N,3.0,34.2664226366
14066.0,0.335218015444299,Hunter,202,Thunder SB8807NR2X,3.5,38.01544149059998
14400.0,0.347033778804147,Hunter,203,GH0391,3.0,39.47152528549999
13473.0,0.370401815430479,Hunter,204,REA RX0327,3.0,40.30382292089999
13469.0,0.354170443348952,Hunter,205,Dahlman 6703XN,2.0,32.4117540208
13447.0,0.379900183902936,Hunter,206,PB-0578R2,2.0,37.994401286099986
15820.0,0.366108682969239,Hunter,207,REA RX0228,2.0,38.84011586349999
14115.0,0.353797735644916,Hunter,208,PB-0863R2,3.0,30.05516980199999
14854.0,0.362738771305658,Hunter,209,Thunder SB8703R2X,3.0,36.61501767629999
15391.0,0.367256911780455,Hunter,210,Channel 0518R2X,3.0,40.582041509099994
13532.0,0.374013966754929,Hunter,211,Integra 20775N,3.0,40.469969386
13318.0,0.37152402677377,Hunter,212,Legend 04X765,2.5,41.05356570559999
14790.0,0.383850252180989,Hunter,213,Legend 007X756N,1.5,34.3728637098
15079.0,0.339749745841296,Hunter,214,Stine 07BA00,3.0,31.355393453999998
15340.0,0.332096796345835,Hunter,215,PFS 18X07N,2.5,31.254969675999995
13363.0,0.378895202432083,Hunter,216,NKS08-M2,2.0,34.020282737
14862.0,0.355449491841341,Hunter,217,GH1253X,2.0,33.825167874399995
12181.0,0.33720533262185,Hunter,218,PFS 17X04N,2.0,23.58259303679999
13013.0,0.349006056289756,Hunter,219,Channel 0317R2X,2.0,35.330955340799996
12703.0,0.353138143988066,Hunter,220,W1048NRX,2.5,31.064245812599992
9506.0,0.282449895607348,Hunter,221,PFS 15R07N,3.5,21.925722672
12098.0,0.334147931817918,Hunter,222,W1050NRX,3.0,31.002405907199993
14024.0,0.367998566428551,Hunter,223,Channel 0218R2X,2.0,36.6028814424
14193.0,0.377174065396308,Hunter,224,PB-1257R2,2.5,45.78787599119999
15546.0,0.396324390290281,Hunter,225,Thunder 3503R2Y,1.5,38.41248133029999
14875.0,0.39608687716472,Hunter,226,Channel 1318R2X,1.5,44.860074123199986
14424.0,0.357529399821486,Hunter,227,Dahlman 68008XN,1.5,29.646115700599992
16127.0,0.359531279098687,Hunter,228,W1074NRX,2.0,44.67622136039999
19456.0,0.374205859708079,Hunter,229,W1039NRX,1.5,35.245086912
14711.0,0.377873043406302,Hunter,230,Dyna-Gro S11XT78,2.0,36.11887542409999
14622.0,0.377708860866765,Hunter,231,Legend 02R21,2.0,35.647717144199994
15246.0,0.376992239757432,Hunter,232,Dahlman 6806XN,2.0,35.62405453739999
14649.0,0.365180795755563,Hunter,233,Dyna-Gro S05XT88,2.5,41.155697094400004
14697.0,0.391154399611735,Hunter,234,Dyna-Gro S07RY45,3.0,49.286872163899986
10877.0,0.304526018964309,Hunter,235,PFS 18X11N,3.5,28.662247277999995
15914.0,0.402460292378712,Hunter,236,REA RX0628,1.5,42.4934678553
16957.0,0.438742757534274,Hunter,237,PB-0777R2,2.5,51.72035985479999
16505.0,0.390112097181721,Hunter,238,Integra 20915N,3.0,45.3946376184
14194.0,0.427197914002092,Hunter,239,NKS12-R3,2.0,52.59654715349999
15951.0,0.391559945997807,Hunter,240,REA RX0516,2.0,42.4418126286
13253.0,0.365170159715801,Hunter,301,Dahlman 6806XN,3.0,38.152578900799995
8702.0,0.315669158516849,Hunter,302,PFS 18X11N,4.0,18.975703042799996
12899.0,0.388584624334485,Hunter,303,Dahlman 6703XN,2.5,30.328997390999994
11209.0,0.367994914501866,Hunter,304,Dyna-Gro S11XT78,3.5,32.6417122752
11747.0,0.429836245745387,Hunter,305,Channel 1318R2X,3.5,46.722487973699984
9566.0,0.417665104832506,Hunter,306,PFS 17X04N,3.5,26.489434507199995
10803.0,0.487996629088507,Hunter,307,Channel 0317R2X,3.0,43.597194293099996
10838.0,0.428509358357219,Hunter,308,Dahlman 68008XN,3.0,20.621108020799998
13543.0,0.428448539027821,Hunter,309,W1039NRX,3.0,38.66854163549999
12753.0,0.448767620642204,Hunter,310,Thunder 3503R2Y,2.5,37.109513303799986
13525.0,0.429873808243358,Hunter,311,Legend 04X765,3.0,40.22368718549998
13414.0,0.394471399207237,Hunter,312,PB-1257R2,3.0,42.946777536599996
11071.0,0.322468354871372,Hunter,313,Integra 20915N,3.0,36.189517656599996
12983.0,0.344023037811168,Hunter,314,Integra 30808N,3.5,29.961820411599994
16170.0,0.38949859725172,Hunter,315,PFS 18X07N,1.5,41.178465238399994
14654.0,0.427454201136228,Hunter,316,PB-0578R2,2.0,46.18233408599998
15163.0,0.388660487676684,Hunter,317,PB-0777R2,3.0,42.902623600199995
14497.0,0.416032264496718,Hunter,318,NKS12-R3,2.0,48.866149388699995
14359.0,0.434983056071567,Hunter,319,Channel 0218R2X,1.5,38.61334921499999
13042.0,0.413939890286488,Hunter,320,W1074NRX,3.0,44.582363752499994
12107.0,0.418043047984802,Hunter,321,REA RX0516,2.0,41.69766023639999
12753.0,0.433816889690472,Hunter,322,Dyna-Gro S05XT88,2.0,41.57829011
12595.0,0.426750743053129,Hunter,323,NKS08-M2,2.0,37.514257720799996
14802.0,0.424940200313904,Hunter,324,W1050NRX,2.0,42.314189049999996
15763.0,0.412882995185366,Hunter,325,GH1253X,2.5,41.68381639169999
15185.0,0.404002927717191,Hunter,326,Channel 0518R2X,2.5,42.55479954319999
15983.0,0.394934333923805,Hunter,327,GH0391,2.5,42.352589964299995
15234.0,0.384830896201113,Hunter,328,Legend 02R21,1.5,36.03514150879999
14448.0,0.397307459568215,Hunter,329,Legend 007X756N,1.0,34.556675815199995
15385.0,0.399717585296456,Hunter,330,Integra 20775N,1.5,44.14417862399999
14303.0,0.385638564164544,Hunter,331,W1048NRX,1.5,40.11092388659999
15632.0,0.414780650063854,Hunter,332,Thunder SB8703R2X,1.5,38.26251651039999
15406.0,0.399882408061361,Hunter,333,Thunder SB8807NR2X,2.0,43.35566900839999
12595.0,0.401033721964196,Hunter,334,PFS 15R07N,3.0,34.5948937712
13591.0,0.414032363828449,Hunter,335,REA RX0628,2.0,40.492330955999996
11323.0,0.474982218867707,Hunter,336,PB-0863R2,2.0,37.73982497599999
12996.0,0.44798008186835,Hunter,337,REA RX0228,2.0,41.02183260489999
12162.0,0.38457717198699,Hunter,338,Stine 07BA00,3.5,30.181411028999996
14420.0,0.43410704985633,Hunter,339,Dyna-Gro S07RY45,2.0,43.61646590069999
14828.0,0.401309932015046,Hunter,340,REA RX0327,2.0,44.3281127016
14085.0,0.352565316897696,Hunter,401,Channel 0218R2X,2.0,36.61906308759999
14208.0,0.362933623688379,Hunter,402,Channel 0518R2X,2.0,42.22067703
11935.0,0.393865473371797,Hunter,403,W1048NRX,3.0,40.30382292089999
14242.0,0.492434981266127,Hunter,404,PB-0578R2,2.0,43.88736615689999
11918.0,0.45935593663841,Hunter,405,Integra 20775N,3.0,41.15114346559999
11681.0,0.453835718769364,Hunter,406,Dyna-Gro S11XT78,3.0,44.1566401171
12428.0,0.437341370580566,Hunter,407,Thunder 3503R2Y,2.5,38.60054213399999
11998.0,0.441388935099087,Hunter,408,PB-1257R2,3.0,36.61934768939999
13136.0,0.456488093686824,Hunter,409,Thunder SB8703R2X,3.0,31.993917920999994
18487.0,0.418584981833792,Hunter,410,Dahlman 6806XN,3.0,16.834033840399997
13134.0,0.402212795485631,Hunter,411,PFS 15R07N,3.5,24.295601860599994
12375.0,0.314813080728054,Hunter,412,Dyna-Gro S05XT88,3.0,27.12596676159999
10851.0,0.254015449550215,Hunter,413,REA RX0516,3.0,27.345598036399995
10900.0,0.294124491033614,Hunter,414,Dyna-Gro S07RY45,3.5,40.005539905799985
10823.0,0.317789828594611,Hunter,415,Channel 0317R2X,2.5,28.519234873499997
8491.0,0.262370544872602,Hunter,416,Integra 20915N,3.0,26.595733279499992
12181.0,0.342352854146515,Hunter,417,PB-0863R2,3.0,20.415706835999995
13270.0,0.39336466726362,Hunter,418,Integra 30808N,3.0,29.73604986939999
11027.0,0.407012742442126,Hunter,419,NKS12-R3,3.0,36.95635687799999
14410.0,0.385425707928469,Hunter,420,Legend 04X765,3.0,22.805304863599996
13341.0,0.371546076353089,Hunter,421,GH1253X,3.0,26.379496897599996
8784.0,0.320231089103824,Hunter,422,Legend 007X756N,3.0,19.620041517999997
6420.0,0.279164995390028,Hunter,423,Dahlman 6703XN,3.5,8.124405612399999
10292.0,0.28593654376214,Hunter,424,PB-0777R2,3.5,27.538883315999996
10825.0,0.269596711120484,Hunter,425,Thunder SB8807NR2X,3.5,20.560528494799996
3735.0,0.256059014525918,Hunter,426,Stine 07BA00,4.0,0.8095701487999998
10459.0,0.280562203033771,Hunter,427,Channel 1318R2X,3.0,33.8649308116
9928.0,0.288012916758044,Hunter,428,REA RX0327,3.5,28.994133634199997
16023.0,0.396599750278342,Hunter,429,W1074NRX,1.5,43.71825170159999
10996.0,0.306872739508428,Hunter,430,PFS 18X07N,2.5,22.466364448499995
10420.0,0.315312944183165,Hunter,431,W1050NRX,3.0,30.98179260539999
12489.0,0.333075233006656,Hunter,432,Dahlman 68008XN,3.0,17.66157456
8579.0,0.318619803063157,Hunter,433,PFS 17X04N,3.5,18.928459143999998
5756.0,0.271590437758209,Hunter,434,PFS 18X11N,4.0,10.788949307499998
9016.0,0.349101389534342,Hunter,435,NKS08-M2,3.0,29.895142275599994
11381.0,0.40687421125547,Hunter,436,Legend 02R21,2.0,34.549032223999994
11645.0,0.40372322660984,Hunter,437,REA RX0628,2.5,45.23778136919999
13819.0,0.409450482316943,Hunter,438,GH0391,3.0,42.94067892659999
15788.0,0.414202654728119,Hunter,439,REA RX0228,2.5,41.0082327046
16608.0,0.386023754477393,Hunter,440,W1039NRX,2.5,45.05274954179999
599.0,0.090942422640145,Leonard,101,Dyna-Gro S11XT78,3.0,0.4041752133999999
21.0,0.092623718082905,Leonard,103,Thunder SB8807NR2X,3.0,9.196703879999998
1945.0,0.107192905695395,Leonard,104,W1050NRX,3.0,5.853445877999999
140.0,0.089635856609259,Leonard,105,REA RX0516,4.0,0.6072385976999999
7558.0,0.1192690287851,Leonard,106,Channel 0218R2X,3.0,14.752131016
2284.0,0.095700699307559,Leonard,107,Channel 0518R2X,4.0,12.666203108999998
8366.0,0.127613640520138,Leonard,108,Legend 04X765,3.0,15.145938592399995
1292.0,0.089221759194698,Leonard,109,PFS 18X07N,3.0,2.2220692108999995
1940.0,0.099106531755365,Leonard,110,Integra 20775N,3.5,3.0974433615999994
6659.0,0.135438110872394,Leonard,111,PB-1257R2,3.0,21.112676315499996
1537.0,0.09060941469809,Leonard,112,Dahlman 68008XN,3.0,2.6200035133999995
8114.0,0.121224998126653,Leonard,113,REA RX0228,2.5,18.645097394699995
265.0,0.098986313618579,Leonard,114,PFS 18X11N,4.0,1.9454565899999996
5044.0,0.127302486744904,Leonard,115,W1048NRX,3.5,6.899723409599998
1266.0,0.089963760421174,Leonard,116,REA RX0327,3.5,1.0112511814999998
2458.0,0.095191374266531,Leonard,117,Dyna-Gro S07RY45,3.5,2.0107117169999995
4378.0,0.111985957742677,Leonard,118,Thunder SB8703R2X,3.0,4.9905332204
1146.0,0.090969444250925,Leonard,119,Dyna-Gro S05XT88,3.5,0.7986739655999998
8396.0,0.127123096815819,Leonard,120,PFS 17X04N,3.5,10.3232187905
777.0,0.093385825055907,Leonard,121,GH1253X,3.5,2.0212826409999995
1080.0,0.0890668142311,Leonard,122,PB-0777R2,3.5,1.6165382239999995
7946.0,0.115103915301868,Leonard,123,W1039NRX,3.0,15.431678799599995
5505.0,0.10815479968836,Leonard,124,Legend 007X756N,3.5,8.437467592399999
7604.0,0.139601967887838,Leonard,125,Legend 02R21,2.5,15.872526987799995
2008.0,0.091141319421836,Leonard,126,PB-0863R2,3.0,0.8059109827999997
74.0,0.096820352045265,Leonard,127,Dahlman 6806XN,3.5,0.8842984499999998
2222.0,0.097762131542102,Leonard,128,Integra 20915N,3.5,6.203302804999999
3254.0,0.09767405672964,Leonard,129,Channel 0317R2X,3.5,1.6176766311999997
1830.0,0.090560379579582,Leonard,130,Dahlman 6703XN,3.0,0.4046631021999999
4858.0,0.107349916880037,Leonard,131,NKS08-M2,3.5,11.446968997799997
695.0,0.095770914799018,Leonard,132,Stine 07BA00,3.5,
4383.0,0.10856383898175,Leonard,133,NKS12-R3,3.5,14.415487743999998
5625.0,0.121077127646075,Leonard,134,Channel 1318R2X,3.5,11.182777212599996
2267.0,0.104794280242831,Leonard,135,PFS 15R07N,3.5,2.1869615459999996
8696.0,0.147929185121504,Leonard,136,GH0391,3.5,17.139899460599995
6059.0,0.118879388637237,Leonard,137,REA RX0628,3.0,12.1873809092
9815.0,0.159152162420434,Leonard,138,PB-0578R2,3.0,20.239457007
8730.0,0.124454330452392,Leonard,139,Thunder 3503R2Y,3.0,14.399184126599998
863.0,0.084084250326436,Leonard,140,W1074NRX,3.0,1.4123364325
1158.0,0.095912495167968,Leonard,201,GH1253X,4.0,
4220.0,0.099174800393353,Leonard,202,REA RX0327,3.5,5.800997831999999
14681.0,0.166501725179693,Leonard,203,REA RX0228,3.0,26.407225244399992
5336.0,0.109575362399924,Leonard,205,Dyna-Gro S05XT88,3.5,8.989839028799999
6991.0,0.111418886156813,Leonard,206,Legend 007X756N,3.0,11.519867715999998
3344.0,0.097849237859588,Leonard,207,Dyna-Gro S11XT78,3.0,7.9998516675
2001.0,0.103948028935962,Leonard,208,W1050NRX,3.5,5.811365468999999
10381.0,0.138833959570321,Leonard,209,REA RX0628,3.0,17.8475211789
3824.0,0.098309954112029,Leonard,210,PFS 15R07N,3.0,7.719254621399998
911.0,0.085224168949672,Leonard,211,REA RX0516,3.5,0.40445981519999996
1820.0,0.088502480269788,Leonard,212,PB-1257R2,3.0,6.100033008999999
376.0,0.087411349976158,Leonard,213,PFS 18X07N,3.5,7.781826359999998
3603.0,0.103192875780581,Leonard,214,Legend 02R21,3.0,8.220113132
263.0,0.09007679356595,Leonard,215,Stine 07BA00,4.0,
6782.0,0.124701491427154,Leonard,216,Channel 0218R2X,3.0,11.099470199999997
1120.0,0.089611346913236,Leonard,217,PB-0777R2,3.5,0.4046631021999999
9692.0,0.156079406668234,Leonard,218,GH0391,3.0,19.5422639118
6950.0,0.120380310762486,Leonard,219,Legend 04X765,3.5,12.029711512
2265.0,0.092671949766724,Leonard,220,Thunder SB8703R2X,3.0,5.496067331999998
1580.0,0.091409781452598,Leonard,221,Integra 20915N,3.5,4.301227660799999
3097.0,0.097408626980365,Leonard,222,Channel 1318R2X,3.0,10.423988156399998
6481.0,0.106314387850152,Leonard,223,Dahlman 6703XN,3.0,7.6801828599999995
7130.0,0.120026403953952,Leonard,224,Dahlman 68008XN,3.0,10.5120520848
10615.0,0.134386970189822,Leonard,225,W1039NRX,2.5,20.255110105999997
3158.0,0.100244634851408,Leonard,226,NKS08-M2,3.5,5.2474270022999985
652.0,0.089119453863041,Leonard,227,W1074NRX,3.5,2.0131511609999997
3594.0,0.101394483439197,Leonard,228,NKS12-R3,3.5,9.004597664999999
980.0,0.088899562180955,Leonard,229,Integra 20775N,3.5,2.3418662399999994
2259.0,0.094591570802894,Leonard,230,W1048NRX,3.5,2.1686250585999995
4719.0,0.107413088768234,Leonard,231,PB-0578R2,3.5,9.921970909899999
3507.0,0.098530113131938,Leonard,232,Dyna-Gro S07RY45,3.5,6.8709989564999985
7067.0,0.132858331691465,Leonard,233,Channel 0317R2X,3.0,14.0114345028
3967.0,0.108502007158812,Leonard,234,PFS 17X04N,3.0,6.283824785699999
4876.0,0.105712656975343,Leonard,235,Thunder 3503R2Y,3.0,12.358995794599998
614.0,0.084958806864505,Leonard,236,Thunder SB8807NR2X,3.5,1.2141112788
1055.0,0.089675683129173,Leonard,237,Dahlman 6806XN,3.5,2.8283726884
2905.0,0.096407143743436,Leonard,238,PB-0863R2,3.0,7.288936699799998
8063.0,0.115431665152618,Leonard,239,Channel 0518R2X,2.5,16.841514801999995
360.0,0.087167758370439,Leonard,240,PFS 18X11N,3.5,0.4047444169999999
2658.0,0.094430430672441,Leonard,301,Channel 0317R2X,4.0,7.279951414399998
605.0,0.08854318817785,Leonard,302,PB-0863R2,4.0,2.983135081499999
297.0,0.09072423831682,Leonard,303,REA RX0516,4.0,0.20245352329999994
350.0,0.091943979838065,Leonard,304,Dahlman 68008XN,4.0,0.6072995837999998
5502.0,0.127264955329195,Leonard,305,PB-0578R2,4.0,13.309118575199998
261.0,0.094929008105934,Leonard,306,W1050NRX,4.0,1.0123692599999998
1985.0,0.109598461829445,Leonard,307,PB-1257R2,4.0,13.779687322799997
3249.0,0.129905434684795,Leonard,308,W1074NRX,3.5,13.572009323599998
8535.0,0.118322941159811,Leonard,309,REA RX0327,3.5,16.616272805999998
8066.0,0.133765555880345,Leonard,310,Dahlman 6703XN,3.0,13.687842256199998
8596.0,0.128346065529083,Leonard,311,Thunder 3503R2Y,2.5,11.245836839999997
772.0,0.094066851825449,Leonard,312,Stine 07BA00,3.5,0.8096514635999998
4595.0,0.115689264745396,Leonard,313,PFS 15R07N,3.0,14.175446454399998
4886.0,0.107795785799946,Leonard,314,W1048NRX,3.5,9.536152512599998
2402.0,0.095688236059992,Leonard,315,Integra 20775N,3.5,5.1700762988
9201.0,0.14201994637794,Leonard,316,REA RX0628,3.0,18.081321557599995
1828.0,0.099221266643093,Leonard,317,Dahlman 6806XN,3.5,1.0116577555
6537.0,0.119610546019139,Leonard,319,Dyna-Gro S05XT88,3.5,13.300336576799996
3895.0,0.097241815735272,Leonard,320,Dyna-Gro S11XT78,3.5,12.295895509799998
8237.0,0.135616197852859,Leonard,321,Legend 007X756N,3.0,10.207975390199998
8404.0,0.136672083909904,Leonard,322,NKS08-M2,3.0,21.795375047599997
3650.0,0.107712063001443,Leonard,323,NKS12-R3,3.5,17.007559623599995
11445.0,0.154710255412229,Leonard,324,Legend 02R21,2.5,23.216676436799997
13162.0,0.161160326564096,Leonard,325,Channel 0218R2X,2.5,23.43449845729999
8546.0,0.132893273478303,Leonard,326,Legend 04X765,3.0,13.128599719199997
2585.0,0.102937765843172,Leonard,327,GH1253X,3.5,10.646953337999998
3325.0,0.094621261282075,Leonard,328,PFS 17X04N,3.5,5.989953098499999
3528.0,0.103488064584346,Leonard,329,Thunder SB8703R2X,3.5,5.9151638111999985
7800.0,0.136624438330913,Leonard,330,GH0391,3.0,14.757009903999997
9028.0,0.13359179242696,Leonard,331,W1039NRX,3.0,16.0394052861
4944.0,0.112071676449519,Leonard,332,Dyna-Gro S07RY45,3.0,13.676132925
3141.0,0.097423702843703,Leonard,333,PFS 18X11N,3.0,6.266220131499999
1265.0,0.0875827350812,Leonard,334,PB-0777R2,3.5,4.067122351599999
12194.0,0.154748562927473,Leonard,335,REA RX0228,2.5,26.797190696499992
3523.0,0.097228857068693,Leonard,336,PFS 18X07N,3.5,13.212516592799998
8248.0,0.129684205043241,Leonard,337,Channel 1318R2X,3.0,23.737985619599993
8481.0,0.120082032114229,Leonard,338,Thunder SB8807NR2X,3.0,19.323750715499997
3888.0,0.106492579226677,Leonard,339,Integra 20915N,3.5,10.340559171599997
12085.0,0.153169628114038,Leonard,340,Channel 0518R2X,2.5,25.620524883099996
589.0,0.082645896271959,Leonard,401,PB-0777R2,3.5,3.412904128199999
9485.0,0.149582730190466,Leonard,402,Channel 0518R2X,2.5,20.808579292199997
1626.0,0.0887924196682,Leonard,403,REA RX0516,3.5,1.6180018903999998
1484.0,0.093039482410224,Leonard,404,Dahlman 68008XN,3.0,2.8252420685999997
6565.0,0.1322443778267,Leonard,405,W1050NRX,3.0,13.840795394999997
3273.0,0.098911476579603,Leonard,406,Integra 20915N,3.5,12.824157107999996
9302.0,0.140677320021816,Leonard,407,Channel 0317R2X,2.5,21.764190821799996
2173.0,0.093794611638804,Leonard,408,Integra 20775N,3.0,5.4068649963999995
4714.0,0.099639790402121,Leonard,409,Legend 007X756N,3.0,10.4663328385
6067.0,0.110050840494571,Leonard,410,Dyna-Gro S05XT88,3.0,9.577623060599999
2090.0,0.094626139974195,Leonard,411,NKS08-M2,3.5,9.285255697199997
7660.0,0.140874933571051,Leonard,412,REA RX0327,3.0,14.747252128
7759.0,0.153913106842782,Leonard,413,PB-0578R2,3.0,16.2201884152
4076.0,0.102839195272786,Leonard,414,PFS 17X04N,3.5,5.651846160099999
1413.0,0.089418982935348,Leonard,415,PFS 15R07N,3.0,2.4184647815999996
6363.0,0.125755828371002,Leonard,416,Thunder 3503R2Y,3.0,9.525784875599998
7261.0,0.140656371227294,Leonard,417,GH0391,3.0,13.477643498199996
4434.0,0.105263253731882,Leonard,418,Dyna-Gro S11XT78,3.0,7.000309817199999
9155.0,0.133388166241897,Leonard,419,REA RX0628,3.0,17.865268133999997
5421.0,0.107069460290634,Leonard,420,Dahlman 6703XN,3.0,8.855588293999999
605.0,0.089943285569672,Leonard,421,Thunder SB8807NR2X,3.5,9.196703879999998
4081.0,0.103547287866185,Leonard,422,Legend 02R21,3.0,10.671957638999999
2482.0,0.097666337173567,Leonard,423,NKS12-R3,3.5,12.385667048999997
2849.0,0.102273246054379,Leonard,424,Dyna-Gro S07RY45,3.5,8.762482848
3973.0,0.102381272286949,Leonard,425,Legend 04X765,3.0,3.987271217999999
1951.0,0.097972887371028,Leonard,426,PB-0863R2,3.5,3.3487467509999993
256.0,0.098192404431757,Leonard,427,Stine 07BA00,3.5,
2500.0,0.094956865224242,Leonard,428,W1039NRX,3.0,6.889071170799999
630.0,0.085788984667687,Leonard,429,PFS 18X11N,4.0,1.2137453621999998
2486.0,0.096811953359617,Leonard,430,Channel 1318R2X,3.5,3.8498085485999987
11175.0,0.149365622603253,Leonard,431,REA RX0228,2.5,21.984919846399997
1865.0,0.092557432915985,Leonard,432,PFS 18X07N,3.5,9.4025929536
2429.0,0.095065348482196,Leonard,434,W1074NRX,3.5,9.232279104999998
3934.0,0.100631002202274,Leonard,435,GH1253X,3.5,9.118438384999997
11309.0,0.149148608903183,Leonard,436,Channel 0218R2X,2.5,17.698654108799996
1847.0,0.08801554431448,Leonard,437,Thunder SB8703R2X,3.5,8.267885577
7323.0,0.129746464796483,Leonard,438,PB-1257R2,2.5,20.752390765399998
816.0,0.089258941328701,Leonard,439,Dahlman 6806XN,3.5,0.8097327783999998
4538.0,0.104327727609949,Leonard,440,W1048NRX,3.5,5.489968722
