PLOT,Variety,IDC1,YLD3,Location,Plot_Loc,Canopy,DGCI,pixel_DGCI,Canopy_0703,DGCI_0703,pixel_DGCI_0703,Canopy_0708,DGCI_0708,pixel_DGCI_0708,Canopy_0714,DGCI_0714,pixel_DGCI_0714,Canopy_0724,DGCI_0724,pixel_DGCI_0724,AUC
101,Channel 1318R2X,1.5,49.4399879323,Hunter,"Hunter, 101",3628,0.2964,1075.34,5762,0.2964,1707.86,7701,0.3201,2465.09,12313,0.3598,4430.22,16894,0.3785,6394.38,9.64365
102,W1050NRX,1.5,45.4367383561,Hunter,"Hunter, 102",4881,0.2888,1409.63,6809,0.2696,1835.71,8198,0.3151,2583.19,11489,0.3742,4299.18,16278,0.4018,6540.5,9.643249999999998
103,REA RX0228,2.0,43.4036447404,Hunter,"Hunter, 103",4314,0.2857,1232.51,7406,0.2971,2200.32,8785,0.2945,2587.18,12414,0.3661,4544.77,16137,0.4151,6698.47,9.698
104,Dahlman 6806XN,2.0,35.303633567999995,Hunter,"Hunter, 104",3296,0.2602,857.62,4935,0.2401,1184.89,6247,0.2593,1619.85,10849,0.3338,3621.4,16188,0.3787,6130.4,8.5915
105,Dahlman 6703XN,2.0,35.3153428992,Hunter,"Hunter, 105",3620,0.2629,951.7,5554,0.2504,1390.72,6871,0.2807,1928.69,9625,0.3676,3538.15,14489,0.4049,5866.6,9.18835
106,Dyna-Gro S11XT78,2.5,46.017021097599994,Hunter,"Hunter, 106",4081,0.2757,1125.13,4519,0.22,994.18,4591,0.2585,1186.77,7904,0.33799999999999997,2671.55,14082,0.3892,5480.71,8.60455
107,Integra 30808N,3.5,32.10405881759999,Hunter,"Hunter, 107",2730,0.2466,673.22,3411,0.2362,805.68,2186,0.2179,476.33,5588,0.3015,1684.78,11927,0.3653,4356.93,7.9586500000000004
108,Thunder SB8807NR2X,3.0,39.091358266799986,Hunter,"Hunter, 108",4377,0.2667,1167.35,6480,0.2673,1732.1,4299,0.2441,1049.39,9296,0.3065,2849.22,15137,0.387,5858.02,8.5338
109,PB-1257R2,2.5,41.33938722759999,Hunter,"Hunter, 109",6730,0.2906,1955.74,10624,0.3112,3306.19,6486,0.2452,1590.37,11838,0.3136,3712.4,17612,0.3897,6863.4,8.9911
110,PFS 18X07N,3.0,30.308871977999992,Hunter,"Hunter, 110",2450,0.251,614.95,3423,0.2044,699.66,3373,0.23,775.79,6347,0.2898,1839.36,12591,0.3551,4471.06,7.6915000000000004
111,Integra 20915N,2.5,39.25748440319999,Hunter,"Hunter, 111",2133,0.2517,536.88,3205,0.2444,783.3,3646,0.2433,887.07,7484,0.3031,2268.4,14608,0.34,4966.72,8.05835
112,GH1253X,2.5,39.82546828119999,Hunter,"Hunter, 112",3046,0.2351,716.11,3645,0.2074,755.97,4734,0.2504,1185.39,9201,0.3163,2910.28,15871,0.3642,5780.22,8.0171
113,Thunder 3503R2Y,2.0,34.75201429349999,Hunter,"Hunter, 113",2116,0.2607,551.64,3443,0.2436,838.71,5309,0.2773,1472.19,9951,0.3157,3141.53,15691,0.3744,5874.71,8.54895
114,Dyna-Gro S07RY45,2.0,39.91369483919999,Hunter,"Hunter, 114",3597,0.2646,951.77,4706,0.2504,1178.38,6836,0.2812,1922.28,10761,0.3228,3473.65,14996,0.3494,5239.6,8.562000000000001
115,PB-0777R2,1.0,38.59200407999999,Hunter,"Hunter, 115",5785,0.3047,1762.69,9979,0.3218,3211.24,11349,0.3374,3829.15,15851,0.41600000000000004,6594.02,21005,0.3972,8343.19,10.4802
116,Integra 20775N,1.0,39.54145601349999,Hunter,"Hunter, 116",4525,0.2768,1252.52,7492,0.2947,2207.89,9460,0.3179,3007.33,11614,0.418,4854.65,17209,0.4102,7059.13,10.1662
117,REA RX0516,1.0,38.42097872689999,Hunter,"Hunter, 117",3471,0.2639,916.0,5881,0.2828,1663.15,8534,0.3181,2714.67,11653,0.3978,4635.56,16519,0.4144,6845.47,9.89775
118,Dyna-Gro S05XT88,1.0,37.87785684899999,Hunter,"Hunter, 118",2105,0.253,532.57,3573,0.2624,937.56,6336,0.2964,1877.99,9235,0.4031,3722.63,16192,0.3978,6441.18,9.5616
119,Channel 0218R2X,1.0,40.263755053199986,Hunter,"Hunter, 119",4779,0.2853,1363.45,8105,0.3208,2600.08,9581,0.3126,2995.02,13124,0.4052,5317.84,18636,0.4066,7577.4,10.220299999999998
120,Legend 04X765,1.5,38.61334921499999,Hunter,"Hunter, 120",3773,0.2784,1050.4,6135,0.2905,1782.22,8274,0.3272,2707.25,11361,0.4145,4709.13,17988,0.4266,7673.68,10.25045
121,REA RX0628,1.0,41.37144558749999,Hunter,"Hunter, 121",3995,0.2817,1125.39,6301,0.2953,1860.69,7827,0.3042,2380.97,12232,0.4075,4984.54,17930,0.4111,7371.02,10.03485
122,Dahlman 68008XN,1.5,27.817020589399995,Hunter,"Hunter, 122",3527,0.2715,957.58,6636,0.29600000000000004,1964.26,7988,0.3404,2719.12,11482,0.4086,4691.55,17176,0.4084,7014.68,10.193000000000001
123,PFS 18X11N,1.5,29.216427968699996,Hunter,"Hunter, 123",2443,0.259,632.74,4369,0.265,1157.79,5271,0.2996,1579.19,9118,0.3788,3453.9,14730,0.406,5980.38,9.4667
124,REA RX0327,1.0,38.82295844069999,Hunter,"Hunter, 124",4951,0.2868,1419.95,7872,0.3052,2402.53,9222,0.3605,3324.53,11808,0.4224,4987.7,18889,0.3883,7334.6,10.43445
125,Thunder SB8703R2X,1.0,36.06701691039999,Hunter,"Hunter, 125",4330,0.2807,1215.43,5780,0.2912,1683.14,8022,0.3287,2636.83,10442,0.4032,4210.21,16544,0.38,6286.72,9.94905
126,PFS 15R07N,2.0,36.987093872399996,Hunter,"Hunter, 126",4587,0.2764,1267.85,5766,0.2469,1423.63,7847,0.3106,2437.28,10806,0.4025,4349.42,15527,0.4043,6277.57,9.660250000000001
127,W1074NRX,1.5,31.629668274399997,Hunter,"Hunter, 127",4765,0.2955,1408.06,8000,0.2972,2377.6,10305,0.3698,3810.79,12373,0.409,5060.56,17951,0.3873,6952.42,10.3562
128,PFS 17X04N,1.0,35.534587928699985,Hunter,"Hunter, 128",4144,0.3003,1244.44,7333,0.3094,2268.83,8818,0.344,3033.39,12095,0.4001,4839.21,17896,0.3695,6612.57,10.152600000000001
129,Legend 007X756N,1.0,34.035325975,Hunter,"Hunter, 129",3496,0.2694,941.82,6523,0.3121,2035.83,8315,0.3372,2803.82,11592,0.3826,4435.1,16872,0.3714,6266.26,9.878649999999999
130,NKS08-M2,1.0,33.86257268239999,Hunter,"Hunter, 130",3188,0.2741,873.83,5991,0.28600000000000003,1713.43,7738,0.3278,2536.52,11854,0.3741,4434.58,15309,0.4009,6137.38,9.7556
131,W1039NRX,1.5,37.48522833719999,Hunter,"Hunter, 131",4703,0.2795,1314.49,8132,0.3009,2446.92,10001,0.355,3550.36,12665,0.3921,4965.95,18751,0.3833,7187.26,10.07965
132,Channel 0317R2X,1.0,40.11978719979999,Hunter,"Hunter, 132",4286,0.2836,1215.51,6938,0.3123,2166.74,8456,0.3474,2937.61,11343,0.3995,4531.53,16584,0.3827,6346.7,10.18455
133,Channel 0518R2X,1.0,34.3614593091,Hunter,"Hunter, 133",4195,0.2765,1159.92,7562,0.297,2245.91,9477,0.3505,3321.69,13298,0.3945,5246.06,18985,0.3862,7332.01,10.05125
134,PB-0578R2,1.0,38.90783076319999,Hunter,"Hunter, 134",5853,0.3159,1848.96,8630,0.3513,3031.72,9520,0.4016,3823.23,11209,0.4393,4924.11,18310,0.4154,7605.97,11.34725
135,Stine 07BA00,1.5,31.07455246349999,Hunter,"Hunter, 135",2884,0.2725,785.89,5684,0.2697,1532.97,6553,0.3199,2096.3,9613,0.3613,3473.18,16623,0.3783,6288.48,9.384400000000001
136,GH0391,2.0,43.14807232399999,Hunter,"Hunter, 136",3866,0.2696,1042.27,5638,0.2572,1450.09,6483,0.2997,1942.96,9296,0.3931,3654.26,16187,0.37,5989.19,9.39335
137,NKS12-R3,1.5,44.42841450739999,Hunter,"Hunter, 137",4548,0.2762,1256.16,6706,0.2939,1970.89,7403,0.3198,2367.48,9829,0.4146,4075.1,15987,0.3981,6364.42,10.081349999999999
138,Legend 02R21,1.5,35.50712385499999,Hunter,"Hunter, 138",3122,0.2691,840.13,6294,0.2855,1796.94,6701,0.2988,2002.26,10415,0.3873,4033.73,16230,0.3658,5936.93,9.50295
139,PB-0863R2,1.5,40.8739819698,Hunter,"Hunter, 139",5729,0.3054,1749.64,7186,0.3093,2222.63,8037,0.3414,2743.83,10681,0.42200000000000004,4507.38,15001,0.4169,6253.92,10.570250000000001
140,W1048NRX,1.0,36.27105607229999,Hunter,"Hunter, 140",2932,0.2668,782.26,5111,0.2846,1454.59,5797,0.2964,1718.23,9614,0.3862,3712.93,15336,0.3772,5784.74,9.5229
201,Integra 30808N,3.0,34.2664226366,Hunter,"Hunter, 201",2318,0.2304,534.07,2845,0.20199999999999999,574.69,3035,0.2274,690.16,6984,0.2837,1981.36,14491,0.336,4868.98,7.434900000000001
202,Thunder SB8807NR2X,3.5,38.01544149059998,Hunter,"Hunter, 202",2842,0.2295,652.24,4038,0.2065,833.85,4564,0.2482,1132.78,8597,0.3216,2764.8,14918,0.3374,5033.33,7.885149999999999
203,GH0391,3.0,39.47152528549999,Hunter,"Hunter, 203",3082,0.2376,732.28,3397,0.2013,683.82,4812,0.2622,1261.71,8598,0.3285,2824.44,15516,0.3521,5463.18,8.08945
204,REA RX0327,3.0,40.30382292089999,Hunter,"Hunter, 204",4168,0.2725,1135.78,4414,0.2435,1074.81,5192,0.2945,1529.04,9078,0.3811,3459.63,14574,0.3738,5447.76,9.2103
205,Dahlman 6703XN,2.0,32.4117540208,Hunter,"Hunter, 205",3934,0.2619,1030.31,4867,0.2396,1166.13,4949,0.2775,1373.35,8218,0.3574,2937.11,14558,0.3602,5243.79,8.791450000000001
206,PB-0578R2,2.0,37.994401286099986,Hunter,"Hunter, 206",4665,0.2902,1353.78,5792,0.2818,1632.19,5821,0.321,1868.54,8298,0.3972,3295.97,15254,0.3821,5828.55,9.8461
207,REA RX0228,2.0,38.84011586349999,Hunter,"Hunter, 207",3864,0.268,1035.55,7071,0.2894,2046.35,7485,0.3006,2249.99,10859,0.3771,4094.93,17518,0.3677,6441.37,9.4617
208,PB-0863R2,3.0,30.05516980199999,Hunter,"Hunter, 208",3850,0.2329,896.66,4785,0.2103,1006.29,4750,0.2676,1271.1,9374,0.3557,3334.33,14849,0.3563,5290.7,8.39745
209,Thunder SB8703R2X,3.0,36.61501767629999,Hunter,"Hunter, 209",3266,0.2327,760.0,3408,0.2014,686.37,5364,0.2666,1430.04,8757,0.3374,2954.61,15555,0.3634,5652.69,8.222399999999999
210,Channel 0518R2X,3.0,40.582041509099994,Hunter,"Hunter, 210",3512,0.2522,885.73,4699,0.2137,1004.18,6768,0.2831,1916.02,11864,0.3597,4267.48,17056,0.3747,6390.88,8.706
211,Integra 20775N,3.0,40.469969386,Hunter,"Hunter, 211",3887,0.2543,988.46,4339,0.2209,958.49,5587,0.2777,1551.51,9271,0.3656,3389.48,14864,0.3766,5597.78,8.7882
212,Legend 04X765,2.5,41.05356570559999,Hunter,"Hunter, 212",3078,0.2619,806.13,4331,0.2575,1115.23,5208,0.3036,1581.15,9355,0.363,3395.86,15184,0.3749,5692.48,9.16965
213,Legend 007X756N,1.5,34.3728637098,Hunter,"Hunter, 213",2956,0.2608,770.92,5372,0.2705,1453.13,6878,0.2913,2003.56,10516,0.3439,3616.45,16679,0.3844,6411.41,9.076799999999999
214,Stine 07BA00,3.0,31.355393453999998,Hunter,"Hunter, 214",2621,0.2323,608.86,3251,0.2069,672.63,4619,0.2485,1147.82,8890,0.3066,2725.67,16061,0.3407,5471.98,7.7971
215,PFS 18X07N,2.5,31.254969675999995,Hunter,"Hunter, 215",2249,0.24600000000000002,553.25,3226,0.226,729.08,4977,0.2455,1221.85,8790,0.3266,2870.81,15764,0.3338,5262.02,8.08505
216,NKS08-M2,2.0,34.020282737,Hunter,"Hunter, 216",3296,0.268,883.33,4396,0.2395,1052.84,5749,0.2599,1494.17,8664,0.3689,3196.15,14083,0.3805,5358.58,8.911900000000001
217,GH1253X,2.0,33.825167874399995,Hunter,"Hunter, 217",2780,0.2341,650.8,3370,0.2187,737.02,4871,0.2674,1302.51,8710,0.3452,3006.69,15755,0.3562,5611.93,8.37125
218,PFS 17X04N,2.0,23.58259303679999,Hunter,"Hunter, 218",2952,0.2601,767.82,3024,0.231,698.54,4887,0.2611,1276.0,6684,0.3536,2363.46,12885,0.34,4380.9,8.50675
219,Channel 0317R2X,2.0,35.330955340799996,Hunter,"Hunter, 219",3132,0.2478,776.11,3326,0.2146,713.76,3734,0.2551,952.54,7051,0.3535,2492.53,13903,0.3523,4898.03,8.37865
220,W1048NRX,2.5,31.064245812599992,Hunter,"Hunter, 220",2845,0.2506,712.96,3121,0.2237,698.17,4389,0.252,1106.03,7054,0.3467,2445.62,12906,0.3561,4595.83,8.396550000000001
221,PFS 15R07N,3.5,21.925722672,Hunter,"Hunter, 221",2142,0.2278,487.95,1952,0.209,407.97,1691,0.2202,372.36,4397,0.3033,1333.61,9224,0.2855,2633.45,7.3347
222,W1050NRX,3.0,31.002405907199993,Hunter,"Hunter, 222",3312,0.2421,801.84,3906,0.2249,878.46,3077,0.2445,752.33,7030,0.3292,2314.28,12284,0.3377,4148.31,8.097100000000001
223,Channel 0218R2X,2.0,36.6028814424,Hunter,"Hunter, 223",2457,0.2463,605.16,3673,0.2377,873.07,4184,0.2558,1070.27,8881,0.3389,3009.77,14517,0.3708,5382.9,8.50235
224,PB-1257R2,2.5,45.78787599119999,Hunter,"Hunter, 224",3625,0.2555,926.19,3988,0.2401,957.52,5558,0.2757,1532.34,8599,0.353,3035.45,15136,0.3832,5800.12,8.839
225,Thunder 3503R2Y,1.5,38.41248133029999,Hunter,"Hunter, 225",4032,0.2818,1136.22,5735,0.2816,1614.98,7892,0.3033,2393.64,10678,0.3802,4059.78,16931,0.3982,6741.92,9.65835
226,Channel 1318R2X,1.5,44.860074123199986,Hunter,"Hunter, 226",2798,0.2737,765.81,4740,0.2779,1317.25,5834,0.2897,1690.11,9907,0.3836,3800.33,16298,0.3977,6481.71,9.5518
227,Dahlman 68008XN,1.5,29.646115700599992,Hunter,"Hunter, 227",2697,0.2938,792.38,4859,0.258,1253.62,6705,0.2743,1839.18,9989,0.3676,3671.96,16020,0.3602,5770.4,9.10265
228,W1074NRX,2.0,44.67622136039999,Hunter,"Hunter, 228",4122,0.3033,1250.2,6232,0.2745,1710.68,7647,0.2712,2073.87,10690,0.3724,3980.96,17214,0.3623,6236.63,9.27975
229,W1039NRX,1.5,35.245086912,Hunter,"Hunter, 229",4133,0.3261,1347.77,6979,0.2633,1837.57,9164,0.2813,2577.83,12579,0.36700000000000005,4616.49,20441,0.3783,7732.83,9.3905
230,Dyna-Gro S11XT78,2.0,36.11887542409999,Hunter,"Hunter, 230",3205,0.3148,1008.93,4225,0.2107,890.21,5656,0.2571,1454.16,10470,0.3457,3619.48,15286,0.382,5839.25,8.7184
231,Legend 02R21,2.0,35.647717144199994,Hunter,"Hunter, 231",3126,0.2933,916.86,4183,0.2416,1010.61,5257,0.2563,1347.37,9815,0.3542,3476.47,16082,0.3852,6194.79,8.91285
232,Dahlman 6806XN,2.0,35.62405453739999,Hunter,"Hunter, 232",2892,0.2817,814.68,3852,0.2209,850.91,5195,0.2576,1338.23,9974,0.3357,3348.27,16218,0.3826,6205.01,8.578050000000001
233,Dyna-Gro S05XT88,2.5,41.155697094400004,Hunter,"Hunter, 233",2131,0.2566,546.81,2767,0.2006,555.06,3338,0.2519,840.84,7232,0.3197,2312.07,16163,0.3734,6035.26,8.14035
234,Dyna-Gro S07RY45,3.0,49.286872163899986,Hunter,"Hunter, 234",3274,0.2531,828.65,3814,0.2127,811.24,4553,0.2667,1214.29,8299,0.3352,2781.82,14848,0.3951,5866.44,8.518899999999999
235,PFS 18X11N,3.5,28.662247277999995,Hunter,"Hunter, 235",1796,0.2343,420.8,2222,0.19399999999999998,431.07,1235,0.2125,262.44,4623,0.2817,1302.3,10519,0.309,3250.37,7.16555
236,REA RX0628,1.5,42.4934678553,Hunter,"Hunter, 236",4188,0.3002,1257.24,6233,0.293,1826.27,7836,0.3067,2403.3,12165,0.3662,4454.82,17059,0.4062,6929.37,9.752749999999999
237,PB-0777R2,2.5,51.72035985479999,Hunter,"Hunter, 237",5876,0.3333,1958.47,7276,0.2451,1783.35,9411,0.3197,3008.7,11878,0.4062,4824.84,18138,0.4411,8000.67,10.1398
238,Integra 20915N,3.0,45.3946376184,Hunter,"Hunter, 238",3278,0.2876,942.75,4448,0.2294,1020.37,6535,0.266,1738.31,10222,0.3698,3780.1,17434,0.3945,6877.71,9.0354
239,NKS12-R3,2.0,52.59654715349999,Hunter,"Hunter, 239",5312,0.3581,1902.23,7526,0.3107,2338.33,9388,0.3339,3134.65,10642,0.4232,4503.69,16287,0.4348,7081.59,10.848
240,REA RX0516,2.0,42.4418126286,Hunter,"Hunter, 240",2975,0.3116,927.01,4265,0.2452,1045.78,5820,0.2654,1544.63,9993,0.355,3547.52,16909,0.3955,6687.51,9.1174
301,Dahlman 6806XN,3.0,38.152578900799995,Hunter,"Hunter, 301",3272,0.2654,868.39,4233,0.2225,941.84,4131,0.2363,976.16,8321,0.3139,2611.96,14018,0.3738,5239.93,8.1877
302,PFS 18X11N,4.0,18.975703042799996,Hunter,"Hunter, 302",1232,0.2403,296.05,2088,0.2037,425.33,1169,0.2283,266.88,3617,0.2863,1035.55,8624,0.322,2776.93,7.4413
303,Dahlman 6703XN,2.5,30.328997390999994,Hunter,"Hunter, 303",3841,0.266,1021.71,3861,0.2322,896.52,3513,0.2305,809.75,7855,0.3282,2578.01,14274,0.4009,5722.45,8.47115
304,Dyna-Gro S11XT78,3.5,32.6417122752,Hunter,"Hunter, 304",3542,0.2549,902.86,4005,0.2196,879.5,2255,0.2307,520.23,5064,0.3098,1568.83,11360,0.3695,4197.52,8.04175
305,Channel 1318R2X,3.5,46.722487973699984,Hunter,"Hunter, 305",4298,0.252,1083.1,3785,0.2161,817.94,3164,0.2289,724.24,6973,0.3273,2282.26,12295,0.4324,5316.36,8.452
306,PFS 17X04N,3.5,26.489434507199995,Hunter,"Hunter, 306",2237,0.2362,528.38,2378,0.2049,487.25,1994,0.2339,466.4,4835,0.3181,1538.01,10288,0.4208,4329.19,8.2119
307,Channel 0317R2X,3.0,43.597194293099996,Hunter,"Hunter, 307",4154,0.2737,1136.95,4003,0.2219,888.27,4783,0.2514,1202.45,7849,0.3553,2788.75,12026,0.4901,5893.94,9.21275
308,Dahlman 68008XN,3.0,20.621108020799998,Hunter,"Hunter, 308",3323,0.2545,845.7,3301,0.2134,704.43,3815,0.2485,948.03,7798,0.3227,2516.41,11551,0.434,5013.13,8.523449999999999
309,W1039NRX,3.0,38.66854163549999,Hunter,"Hunter, 309",4810,0.2565,1233.77,4629,0.1999,925.34,5251,0.2302,1208.78,9165,0.3131,2869.56,14034,0.4331,6078.13,8.26175
310,Thunder 3503R2Y,2.5,37.109513303799986,Hunter,"Hunter, 310",4273,0.2608,1114.4,4411,0.2461,1085.55,5142,0.2753,1415.59,9191,0.3451,3171.81,13282,0.4526,6011.43,9.180800000000001
311,Legend 04X765,3.0,40.22368718549998,Hunter,"Hunter, 311",3327,0.2539,844.73,4087,0.2222,908.13,4979,0.2584,1286.57,8270,0.3344,2765.49,13820,0.434,5997.88,8.726299999999998
312,PB-1257R2,3.0,42.946777536599996,Hunter,"Hunter, 312",4579,0.2656,1216.18,5227,0.2446,1278.52,4524,0.2155,974.92,8194,0.287,2351.68,14512,0.4049,5875.91,8.15805
313,Integra 20915N,3.0,36.189517656599996,Hunter,"Hunter, 313",2183,0.2407,525.45,3384,0.2248,760.72,2050,0.2297,470.88,6166,0.2855,1760.39,11244,0.32899999999999996,3699.28,7.61635
314,Integra 30808N,3.5,29.961820411599994,Hunter,"Hunter, 314",2626,0.239,627.61,3432,0.2119,727.24,2404,0.19899999999999998,478.4,5991,0.2644,1584.02,13189,0.3475,4583.18,7.28055
315,PFS 18X07N,1.5,41.178465238399994,Hunter,"Hunter, 315",3467,0.2705,937.82,5312,0.2707,1437.96,6708,0.2788,1870.19,10752,0.3751,4033.08,17146,0.3974,6813.82,9.362749999999998
316,PB-0578R2,2.0,46.18233408599998,Hunter,"Hunter, 316",5840,0.3037,1773.61,7349,0.2535,1862.97,7368,0.295,2173.56,11201,0.4209,4714.5,16183,0.4337,7018.57,10.02075
317,PB-0777R2,3.0,42.902623600199995,Hunter,"Hunter, 317",4917,0.2614,1285.3,5554,0.218,1210.77,5891,0.2348,1383.21,9037,0.3474,3139.45,16123,0.3985,6425.02,8.5257
318,NKS12-R3,2.0,48.866149388699995,Hunter,"Hunter, 318",4153,0.2555,1061.09,4436,0.2095,929.34,4973,0.2576,1281.04,8846,0.3871,3424.29,14750,0.4226,6233.35,9.010349999999999
319,Channel 0218R2X,1.5,38.61334921499999,Hunter,"Hunter, 319",3464,0.2765,957.8,6099,0.2806,1711.38,7805,0.2958,2308.72,10906,0.4114,4486.73,15720,0.4386,6894.79,10.041
320,W1074NRX,3.0,44.582363752499994,Hunter,"Hunter, 320",4055,0.2575,1044.16,4138,0.2016,834.22,4779,0.253,1209.09,7757,0.3598,2790.97,13460,0.4205,5659.93,8.7128
321,REA RX0516,2.0,41.69766023639999,Hunter,"Hunter, 321",2382,0.2424,577.4,2996,0.2251,674.4,3468,0.2706,938.44,6280,0.3841,2412.15,12609,0.4245,5352.52,9.11635
322,Dyna-Gro S05XT88,2.0,41.57829011,Hunter,"Hunter, 322",2589,0.2574,666.41,3875,0.2455,951.31,3573,0.2922,1044.03,7439,0.4002,2977.09,13560,0.4395,5959.62,9.63155
323,NKS08-M2,2.0,37.514257720799996,Hunter,"Hunter, 323",3334,0.2636,878.84,4520,0.254,1148.08,5116,0.3035,1552.71,8299,0.3856,3200.09,13357,0.4334,5788.92,9.62645
324,W1050NRX,2.0,42.314189049999996,Hunter,"Hunter, 324",3521,0.273,961.23,5052,0.2653,1340.3,6395,0.3221,2059.83,9743,0.4068,3963.45,15959,0.4297,6857.58,9.9909
325,GH1253X,2.5,41.68381639169999,Hunter,"Hunter, 325",3270,0.2413,789.05,4341,0.2153,934.62,5547,0.2792,1548.72,9366,0.3823,3580.62,16533,0.4171,6895.91,9.04415
326,Channel 0518R2X,2.5,42.55479954319999,Hunter,"Hunter, 326",3024,0.2491,753.28,5321,0.2439,1297.79,6752,0.2832,1912.17,10523,0.3736,3931.39,17208,0.4097,7050.12,9.176649999999999
327,GH0391,2.5,42.352589964299995,Hunter,"Hunter, 327",3664,0.2449,897.31,5491,0.215,1180.56,6414,0.2956,1895.98,10549,0.3811,4020.22,17256,0.4011,6921.38,9.0572
328,Legend 02R21,1.5,36.03514150879999,Hunter,"Hunter, 328",3276,0.2753,901.88,5510,0.2911,1603.96,6963,0.3129,2178.72,9911,0.3651,3618.51,16801,0.3903,6557.43,9.586599999999999
329,Legend 007X756N,1.0,34.556675815199995,Hunter,"Hunter, 329",3455,0.2773,958.07,6422,0.3127,2008.16,7198,0.3378,2431.48,9636,0.3975,3830.31,16166,0.4016,6492.27,10.18765
330,Integra 20775N,1.5,44.14417862399999,Hunter,"Hunter, 330",3801,0.2714,1031.59,6551,0.2697,1766.8,7588,0.33399999999999996,2534.39,10768,0.3908,4208.13,16836,0.4049,6816.9,9.82655
331,W1048NRX,1.5,40.11092388659999,Hunter,"Hunter, 331",2830,0.2565,725.9,4222,0.2565,1082.94,5372,0.2963,1591.72,9490,0.3782,3589.12,16228,0.3913,6350.02,9.305
332,Thunder SB8703R2X,1.5,38.26251651039999,Hunter,"Hunter, 332",3289,0.254,835.41,6128,0.2848,1745.25,7108,0.3122,2219.12,10217,0.3879,3963.17,16447,0.4161,6843.6,9.768
333,Thunder SB8807NR2X,2.0,43.35566900839999,Hunter,"Hunter, 333",3771,0.2637,994.41,5038,0.2532,1275.62,6946,0.3033,2106.72,10978,0.3828,4202.38,16147,0.4033,6512.09,9.44765
334,PFS 15R07N,3.0,34.5948937712,Hunter,"Hunter, 334",3902,0.2514,980.96,4149,0.2242,930.21,4493,0.2879,1293.53,7763,0.3734,2898.7,12856,0.4102,5273.53,9.08455
335,REA RX0628,2.0,40.492330955999996,Hunter,"Hunter, 335",2836,0.2565,727.43,3994,0.2517,1005.29,5121,0.301,1541.42,8804,0.36200000000000004,3187.05,14972,0.4183,6262.79,9.30505
336,PB-0863R2,2.0,37.73982497599999,Hunter,"Hunter, 336",4336,0.2601,1127.79,5234,0.2463,1289.13,6251,0.3248,2030.32,7815,0.44799999999999995,3501.12,12725,0.4787,6091.46,10.405249999999999
337,REA RX0228,2.0,41.02183260489999,Hunter,"Hunter, 337",4648,0.2816,1308.88,6848,0.2941,2014.0,7922,0.3201,2535.83,10599,0.4142,4390.11,15266,0.4521,6901.76,10.3727
338,Stine 07BA00,3.5,30.181411028999996,Hunter,"Hunter, 338",2057,0.2299,472.9,2390,0.2085,498.32,1997,0.2461,491.46,5548,0.3485,1933.48,12319,0.3888,4789.63,8.3604
339,Dyna-Gro S07RY45,2.0,43.61646590069999,Hunter,"Hunter, 339",3106,0.2576,800.11,4631,0.2499,1157.29,5793,0.2947,1707.2,8781,0.40700000000000003,3573.87,14824,0.4401,6524.04,9.7321
340,REA RX0327,2.0,44.3281127016,Hunter,"Hunter, 340",4309,0.2809,1210.4,5870,0.2894,1698.78,7047,0.3027,2133.13,9960,0.4122,4105.51,16217,0.405,6567.88,9.99215
401,Channel 0218R2X,2.0,36.61906308759999,Hunter,"Hunter, 401",2917,0.2595,756.96,4557,0.2629,1198.04,4907,0.285,1398.5,8862,0.3554,3149.55,15728,0.3529,5550.41,8.922049999999999
402,Channel 0518R2X,2.0,42.22067703,Hunter,"Hunter, 402",2670,0.2471,659.76,4269,0.2303,983.15,4449,0.2636,1172.76,8626,0.3459,2983.73,16065,0.3655,5871.76,8.52985
403,W1048NRX,3.0,40.30382292089999,Hunter,"Hunter, 403",4119,0.2778,1144.26,4699,0.2855,1341.56,4638,0.2925,1356.62,7804,0.3724,2906.21,12859,0.3996,5138.46,9.552900000000001
404,PB-0578R2,2.0,43.88736615689999,Hunter,"Hunter, 404",5201,0.3032,1576.94,6831,0.3268,2232.37,7886,0.3833,3022.7,9915,0.4387,4349.71,16103,0.4958,7983.87,11.43375
405,Integra 20775N,3.0,41.15114346559999,Hunter,"Hunter, 405",3741,0.2503,936.37,3772,0.221,833.61,3976,0.2718,1080.68,7414,0.3769,2794.34,12403,0.4662,5782.28,9.2788
406,Dyna-Gro S11XT78,3.0,44.1566401171,Hunter,"Hunter, 406",3106,0.257,798.24,3819,0.2423,925.34,4348,0.2931,1274.4,7354,0.3765,2768.78,12343,0.4615,5696.29,9.534500000000001
407,Thunder 3503R2Y,2.5,38.60054213399999,Hunter,"Hunter, 407",3636,0.261,949.0,4609,0.2487,1146.26,4376,0.2913,1274.73,7387,0.3736,2759.78,13625,0.4434,6041.32,9.4685
408,PB-1257R2,3.0,36.61934768939999,Hunter,"Hunter, 408",3424,0.2435,833.74,3482,0.2096,729.83,3570,0.2434,868.94,7468,0.3199,2389.01,12572,0.4474,5624.71,8.471300000000001
409,Thunder SB8703R2X,3.0,31.993917920999994,Hunter,"Hunter, 409",4045,0.2434,984.55,5661,0.2462,1393.74,5006,0.2819,1411.19,9324,0.3533,3294.17,14636,0.4624,6767.69,9.26275
410,Dahlman 6806XN,3.0,16.834033840399997,Hunter,"Hunter, 410",3446,0.2381,820.49,4553,0.2414,1099.09,4671,0.2554,1192.97,9543,0.3265,3115.79,19092,0.4212,8041.55,8.644200000000001
411,PFS 15R07N,3.5,24.295601860599994,Hunter,"Hunter, 411",3637,0.2289,832.51,4052,0.2213,896.71,3442,0.2411,829.87,7282,0.3133,2281.45,13113,0.4063,5327.81,8.218
412,Dyna-Gro S05XT88,3.0,27.12596676159999,Hunter,"Hunter, 412",1857,0.2269,421.35,2452,0.2264,555.13,1982,0.2365,468.74,5582,0.3015,1682.97,12361,0.3209,3966.64,7.69645
413,REA RX0516,3.0,27.345598036399995,Hunter,"Hunter, 413",1399,0.2211,309.32,2562,0.2206,565.18,1796,0.2323,417.21,4696,0.2693,1264.63,10553,0.2549,2689.96,7.024850000000001
414,Dyna-Gro S07RY45,3.5,40.005539905799985,Hunter,"Hunter, 414",2203,0.2207,486.2,2668,0.1917,511.46,1916,0.2266,434.17,4861,0.2887,1403.37,10839,0.2979,3228.94,7.17425
415,Channel 0317R2X,2.5,28.519234873499997,Hunter,"Hunter, 415",2675,0.2511,671.69,3328,0.2253,749.8,2764,0.2534,700.4,6315,0.3509,2215.93,11177,0.3212,3590.05,8.27575
416,Integra 20915N,3.0,26.595733279499992,Hunter,"Hunter, 416",1661,0.2326,386.35,2148,0.2168,465.69,1376,0.2222,305.75,3394,0.3007,1020.58,7771,0.2684,2085.74,7.309300000000001
417,PB-0863R2,3.0,20.415706835999995,Hunter,"Hunter, 417",3609,0.2577,930.04,4574,0.2509,1147.62,5265,0.28300000000000003,1490.0,7703,0.3782,2913.27,13019,0.3499,4555.35,8.99325
418,Integra 30808N,3.0,29.73604986939999,Hunter,"Hunter, 418",2277,0.2292,521.89,3328,0.231,768.77,3923,0.2357,924.65,6723,0.3297,2216.57,13403,0.3959,5306.25,8.33175
419,NKS12-R3,3.0,36.95635687799999,Hunter,"Hunter, 419",3438,0.2609,896.97,3694,0.2372,876.22,3662,0.2374,869.36,6053,0.3693,2235.37,11273,0.4155,4683.93,8.923
420,Legend 04X765,3.0,22.805304863599996,Hunter,"Hunter, 420",2652,0.2483,658.49,3196,0.2206,705.04,2881,0.2319,668.1,6862,0.3276,2247.99,14697,0.3899,5730.36,8.27285
421,GH1253X,3.0,26.379496897599996,Hunter,"Hunter, 421",3026,0.2442,738.95,2964,0.2007,594.87,3597,0.2395,861.48,5892,0.3344,1970.28,13580,0.3776,5127.81,8.1618
422,Legend 007X756N,3.0,19.620041517999997,Hunter,"Hunter, 422",1937,0.2485,481.34,2142,0.2117,453.46,1891,0.2342,442.87,3420,0.2957,1011.29,8298,0.3252,2698.51,7.649749999999999
423,Dahlman 6703XN,3.5,8.124405612399999,Hunter,"Hunter, 423",1581,0.2333,368.85,1295,0.1963,254.21,679,0.2165,147.0,1955,0.2659,519.83,5264,0.2841,1495.5,6.9475999999999996
424,PB-0777R2,3.5,27.538883315999996,Hunter,"Hunter, 424",3065,0.2336,715.98,3082,0.2129,656.16,1489,0.2144,319.24,3483,0.2682,934.14,9086,0.2902,2636.76,7.094049999999999
425,Thunder SB8807NR2X,3.5,20.560528494799996,Hunter,"Hunter, 425",2265,0.2282,516.87,2356,0.2181,513.84,2301,0.2284,525.55,5254,0.2759,1449.58,9308,0.2767,2575.52,7.17735
426,Stine 07BA00,4.0,0.8095701487999998,Hunter,"Hunter, 426",739,0.2063,152.46,952,0.2387,227.24,113,0.2021,22.84,654,0.2659,173.9,2902,0.2728,791.67,6.9795
427,Channel 1318R2X,3.0,33.8649308116,Hunter,"Hunter, 427",2433,0.2237,544.26,2959,0.2008,594.17,2926,0.2382,696.97,5074,0.2972,1507.99,10191,0.2847,2901.38,7.3112
428,REA RX0327,3.5,28.994133634199997,Hunter,"Hunter, 428",2671,0.2444,652.79,3127,0.2196,686.69,2365,0.23,543.95,4528,0.2891,1309.04,9571,0.2954,2827.27,7.4598
429,W1074NRX,1.5,43.71825170159999,Hunter,"Hunter, 429",4613,0.2831,1305.94,6113,0.2444,1494.02,7801,0.2924,2281.01,11167,0.3601,4021.24,17423,0.4021,7005.79,9.2205
430,PFS 18X07N,2.5,22.466364448499995,Hunter,"Hunter, 430",1986,0.2351,466.91,2584,0.2102,543.16,2804,0.2432,681.93,5151,0.2879,1482.97,10835,0.3171,3435.78,7.533000000000001
431,W1050NRX,3.0,30.98179260539999,Hunter,"Hunter, 431",2996,0.2464,738.21,2973,0.2122,630.87,2428,0.2202,534.65,5683,0.28300000000000003,1608.29,10315,0.3265,3367.85,7.472500000000001
432,Dahlman 68008XN,3.0,17.66157456,Hunter,"Hunter, 432",2874,0.2557,734.88,4134,0.2461,1017.38,4323,0.2423,1047.46,7250,0.3155,2287.38,11569,0.3396,3928.83,8.1771
433,PFS 17X04N,3.5,18.928459143999998,Hunter,"Hunter, 433",2688,0.2473,664.74,2094,0.20600000000000002,431.36,1212,0.2119,256.82,3366,0.2757,928.01,7527,0.3294,2479.39,7.34625
434,PFS 18X11N,4.0,10.788949307499998,Hunter,"Hunter, 434",1218,0.2443,297.56,959,0.212,203.31,280,0.2113,59.16,1059,0.2472,261.78,4621,0.2775,1282.33,6.88245
435,NKS08-M2,3.0,29.895142275599994,Hunter,"Hunter, 435",2733,0.255,696.92,2246,0.2079,466.94,1808,0.2311,417.83,3948,0.282,1113.34,8698,0.361,3139.98,7.703399999999999
436,Legend 02R21,2.0,34.549032223999994,Hunter,"Hunter, 436",2165,0.2691,582.6,2961,0.2309,683.69,2959,0.2359,698.03,5812,0.3113,1809.28,12098,0.4119,4983.17,8.424600000000002
437,REA RX0628,2.5,45.23778136919999,Hunter,"Hunter, 437",2749,0.2662,731.78,2474,0.2273,562.34,2717,0.249,676.53,5680,0.3294,1870.99,12131,0.4108,4983.41,8.60095
438,GH0391,3.0,42.94067892659999,Hunter,"Hunter, 438",2285,0.2579,589.3,3278,0.1986,651.01,3830,0.2331,892.77,7682,0.3331,2558.87,14145,0.4138,5853.2,8.33835
439,REA RX0228,2.5,41.0082327046,Hunter,"Hunter, 439",4100,0.2929,1200.89,5243,0.2694,1412.46,7347,0.2757,2025.57,9904,0.3711,3675.37,16881,0.4173,7044.44,9.49435
440,W1039NRX,2.5,45.05274954179999,Hunter,"Hunter, 440",4603,0.2991,1376.76,5847,0.2358,1378.72,6717,0.2694,1809.56,10928,0.3566,3896.92,17580,0.3915,6882.57,9.0211
101,Dyna-Gro S11XT78,3.0,0.4041752133999999,Leonard,"Leonard, 101",582,0.2084,121.29,1270,0.1887,239.65,477,0.2189,104.42,1317,0.2313,304.62,1531,0.086,131.67,5.5445
103,Thunder SB8807NR2X,3.0,9.196703879999998,Leonard,"Leonard, 103",618,0.2148,132.75,495,0.19899999999999998,98.51,221,0.2124,46.94,611,0.2109,128.86,333,0.1375,45.79,5.6956
104,W1050NRX,3.0,5.853445877999999,Leonard,"Leonard, 104",888,0.2173,192.96,1148,0.201,230.75,639,0.2244,143.39,1427,0.2354,335.92,2903,0.1035,300.46,5.810599999999999
105,REA RX0516,4.0,0.6072385976999999,Leonard,"Leonard, 105",146,0.2131,31.11,583,0.2011,117.24,169,0.2166,36.61,301,0.2102,63.27,488,0.0969,47.29,5.51695
106,Channel 0218R2X,3.0,14.752131016,Leonard,"Leonard, 106",991,0.2271,225.06,1822,0.2087,380.25,3168,0.2462,779.96,4958,0.255,1264.29,6994,0.1199,838.58,6.2585500000000005
107,Channel 0518R2X,4.0,12.666203108999998,Leonard,"Leonard, 107",483,0.2216,107.03,1255,0.1833,230.04,1113,0.2194,244.19,1800,0.2288,411.84,3520,0.0876,308.35,5.55295
108,Legend 04X765,3.0,15.145938592399995,Leonard,"Leonard, 108",1580,0.2195,346.81,3127,0.2128,665.43,4665,0.2512,1171.85,5796,0.2604,1509.28,8260,0.1255,1036.63,6.3534999999999995
109,PFS 18X07N,3.0,2.2220692108999995,Leonard,"Leonard, 109",1435,0.2096,300.78,1789,0.1996,357.08,1362,0.22699999999999998,309.17,2772,0.2285,633.4,3985,0.0738,294.09,5.5813
110,Integra 20775N,3.5,3.0974433615999994,Leonard,"Leonard, 110",1613,0.2164,349.05,1507,0.2025,305.17,1260,0.2236,281.74,2025,0.2271,459.88,4795,0.0951,456.0,5.70395
111,PB-1257R2,3.0,21.112676315499996,Leonard,"Leonard, 111",2937,0.2241,658.18,2889,0.2257,652.05,3447,0.2462,848.65,4190,0.254,1064.26,7135,0.1377,982.49,6.43805
112,Dahlman 68008XN,3.0,2.6200035133999995,Leonard,"Leonard, 112",3067,0.2149,659.1,2587,0.20199999999999999,522.57,2212,0.2211,489.07,3438,0.2236,768.74,3982,0.0669,266.4,5.51195
113,REA RX0228,2.5,18.645097394699995,Leonard,"Leonard, 113",2529,0.2212,559.41,3861,0.233,899.61,5737,0.2473,1418.76,8157,0.2653,2164.05,6233,0.1267,789.72,6.51535
114,PFS 18X11N,4.0,1.9454565899999996,Leonard,"Leonard, 114",293,0.2103,61.62,673,0.2027,136.42,51,0.2341,11.94,200,0.2147,42.94,1341,0.1266,169.77,5.7969
115,W1048NRX,3.5,6.899723409599998,Leonard,"Leonard, 115",1529,0.2176,332.71,2708,0.2048,554.6,3545,0.2456,870.65,4294,0.2652,1138.77,6560,0.1174,770.14,6.261
116,REA RX0327,3.5,1.0112511814999998,Leonard,"Leonard, 116",620,0.2029,125.8,1485,0.2102,312.15,1765,0.2319,409.3,2579,0.23,593.17,3139,0.0657,206.23,5.62185
117,Dyna-Gro S07RY45,3.5,2.0107117169999995,Leonard,"Leonard, 117",2436,0.2037,496.21,1882,0.2013,378.85,1868,0.2461,459.71,3578,0.2606,932.43,4768,0.0825,393.36,5.9741
118,Thunder SB8703R2X,3.0,4.9905332204,Leonard,"Leonard, 118",1513,0.2116,320.15,1654,0.2147,355.11,2459,0.2365,581.55,3260,0.2489,811.41,4992,0.1054,526.16,6.0609
119,Dyna-Gro S05XT88,3.5,0.7986739655999998,Leonard,"Leonard, 119",768,0.214,164.35,1252,0.1996,249.9,821,0.235,192.94,1623,0.2272,368.75,3200,0.0695,222.4,5.611
120,PFS 17X04N,3.5,10.3232187905,Leonard,"Leonard, 120",2684,0.2254,604.97,2735,0.2008,549.19,3944,0.2566,1012.03,7316,0.276,2019.22,9056,0.1258,1139.24,6.4551
121,GH1253X,3.5,2.0212826409999995,Leonard,"Leonard, 121",1041,0.2049,213.3,831,0.1798,149.41,172,0.2027,34.86,288,0.2104,60.6,2107,0.0982,206.91,5.27735
122,PB-0777R2,3.5,1.6165382239999995,Leonard,"Leonard, 122",1828,0.2057,376.02,1424,0.1887,268.71,606,0.2124,128.71,810,0.2119,171.64,2549,0.0809,206.21,5.31725
123,W1039NRX,3.0,15.431678799599995,Leonard,"Leonard, 123",3296,0.2141,705.67,3269,0.205,670.14,3882,0.2385,925.86,7245,0.2585,1872.83,9616,0.1091,1049.11,6.11415
124,Legend 007X756N,3.5,8.437467592399999,Leonard,"Leonard, 124",1575,0.2222,349.96,1830,0.2175,398.02,1741,0.2407,419.06,5394,0.2629,1418.08,6555,0.10300000000000001,675.16,6.2446
125,Legend 02R21,2.5,15.872526987799995,Leonard,"Leonard, 125",1944,0.2252,437.79,2789,0.2422,675.5,4136,0.2659,1099.76,5195,0.2878,1495.12,7389,0.1383,1021.9,6.93145
126,PB-0863R2,3.0,0.8059109827999997,Leonard,"Leonard, 126",2909,0.2025,589.07,1901,0.2019,383.81,1540,0.2258,347.73,2517,0.2255,567.58,4626,0.0689,318.73,5.5127500000000005
127,Dahlman 6806XN,3.5,0.8842984499999998,Leonard,"Leonard, 127",529,0.2047,108.29,437,0.1984,86.7,91,0.2282,20.77,177,0.2111,37.36,443,0.1142,50.59,5.6233
128,Integra 20915N,3.5,6.203302804999999,Leonard,"Leonard, 128",1571,0.2059,323.47,1175,0.1862,218.78,984,0.2304,226.71,2101,0.2362,496.26,3982,0.0936,372.72,5.6587
129,Channel 0317R2X,3.5,1.6176766311999997,Leonard,"Leonard, 129",1297,0.2132,276.52,2369,0.1974,467.64,3001,0.235,705.24,4011,0.2421,971.06,6052,0.0739,447.24,5.7347
130,Dahlman 6703XN,3.0,0.4046631021999999,Leonard,"Leonard, 130",1802,0.21899999999999997,394.64,1739,0.2091,363.62,1877,0.2258,423.83,2925,0.2398,701.42,3773,0.0679,256.19,5.7349499999999995
131,NKS08-M2,3.5,11.446968997799997,Leonard,"Leonard, 131",2563,0.2224,570.01,2134,0.2177,464.57,2552,0.2387,609.16,3692,0.2607,962.5,6075,0.095,577.12,6.1781
132,Stine 07BA00,3.5,,Leonard,"Leonard, 132",1385,0.2102,291.13,1275,0.2075,264.56,326,0.2201,71.75,282,0.2075,58.52,1573,0.1055,165.95,5.5876
133,NKS12-R3,3.5,14.415487743999998,Leonard,"Leonard, 133",1109,0.2186,242.43,1671,0.2156,360.27,1803,0.2455,442.64,2286,0.2403,549.33,4820,0.1058,509.96,6.07745
134,Channel 1318R2X,3.5,11.182777212599996,Leonard,"Leonard, 134",1966,0.2176,427.8,2229,0.2062,459.62,3234,0.2524,816.26,5522,0.2596,1433.51,7755,0.1045,810.4,6.1982
135,PFS 15R07N,3.5,2.1869615459999996,Leonard,"Leonard, 135",1212,0.2087,252.94,875,0.1928,168.7,428,0.2232,95.53,681,0.2442,166.3,3555,0.11599999999999999,412.38,5.8492
136,GH0391,3.5,17.139899460599995,Leonard,"Leonard, 136",1350,0.2166,292.41,2856,0.2176,621.47,3098,0.2486,770.16,5157,0.2777,1432.1,8401,0.15,1260.15,6.619699999999999
137,REA RX0628,3.0,12.1873809092,Leonard,"Leonard, 137",2146,0.2224,477.27,3159,0.2218,700.67,3235,0.249,805.52,4993,0.2504,1250.25,6628,0.1073,711.18,6.2405
138,PB-0578R2,3.0,20.239457007,Leonard,"Leonard, 138",3341,0.2255,753.4,3838,0.2306,885.04,4617,0.2668,1231.82,6113,0.2794,1707.97,8660,0.1636,1416.78,6.9215
139,Thunder 3503R2Y,3.0,14.399184126599998,Leonard,"Leonard, 139",2185,0.2231,487.47,3087,0.2299,709.7,4209,0.2473,1040.89,6233,0.2621,1633.67,8512,0.1233,1049.53,6.4602
140,W1074NRX,3.0,1.4123364325,Leonard,"Leonard, 140",2624,0.2041,535.56,2311,0.2025,467.98,2571,0.2285,587.47,3419,0.2255,770.98,3775,0.0475,179.31,5.4309
201,GH1253X,4.0,,Leonard,"Leonard, 201",820,0.1986,162.85,637,0.1902,121.16,114,0.2256,25.72,572,0.2583,147.75,2580,0.0998,257.48,5.8369
202,REA RX0327,3.5,5.800997831999999,Leonard,"Leonard, 202",1349,0.2109,284.5,2101,0.2123,446.04,3243,0.2362,766.0,3968,0.245,972.16,6071,0.0811,492.36,5.8881499999999996
203,REA RX0228,3.0,26.407225244399992,Leonard,"Leonard, 203",3972,0.2307,916.34,6255,0.2514,1572.51,8699,0.2776,2414.84,11705,0.3154,3691.76,12552,0.174,2184.05,7.4769
205,Dyna-Gro S05XT88,3.5,8.989839028799999,Leonard,"Leonard, 205",1247,0.2173,270.97,2067,0.2121,438.41,2192,0.2403,526.74,5186,0.2486,1289.24,7071,0.0957,676.69,6.0368
206,Legend 007X756N,3.0,11.519867715999998,Leonard,"Leonard, 206",2742,0.2171,595.29,3038,0.2112,641.63,4126,0.2497,1030.26,6584,0.2626,1728.96,7792,0.1057,823.61,6.24385
207,Dyna-Gro S11XT78,3.0,7.9998516675,Leonard,"Leonard, 207",1505,0.2041,307.17,2095,0.1874,392.6,1702,0.2178,370.7,3781,0.2287,864.71,5880,0.0826,485.69,5.475
208,W1050NRX,3.5,5.811365468999999,Leonard,"Leonard, 208",1121,0.2128,238.55,1604,0.1962,314.7,1559,0.2344,365.43,2717,0.2414,655.88,4231,0.0693,293.21,5.6934000000000005
209,REA RX0628,3.0,17.8475211789,Leonard,"Leonard, 209",2608,0.21899999999999997,571.15,3392,0.2111,716.05,4003,0.2452,981.54,7948,0.2693,2140.4,9393,0.1397,1312.2,6.44965
210,PFS 15R07N,3.0,7.719254621399998,Leonard,"Leonard, 210",2132,0.2148,457.95,1639,0.2031,332.88,869,0.2279,198.05,2942,0.2375,698.72,5127,0.0874,448.1,5.7698
211,REA RX0516,3.5,0.40445981519999996,Leonard,"Leonard, 211",1389,0.2089,290.16,937,0.2105,197.24,642,0.2258,144.96,1134,0.2214,251.07,2384,0.0633,150.91,5.533449999999999
212,PB-1257R2,3.0,6.100033008999999,Leonard,"Leonard, 212",3056,0.2117,646.96,2350,0.2037,478.7,1718,0.2185,375.38,2680,0.2289,613.45,3694,0.0661,244.17,5.5343
213,PFS 18X07N,3.5,7.781826359999998,Leonard,"Leonard, 213",749,0.2037,152.57,682,0.1976,134.76,218,0.2205,48.07,323,0.2118,68.41,1238,0.0764,94.58,5.38835
214,Legend 02R21,3.0,8.220113132,Leonard,"Leonard, 214",2473,0.21100000000000002,521.8,2751,0.1972,542.5,2761,0.2307,636.96,3870,0.2347,908.29,5716,0.0798,456.14,5.67125
215,Stine 07BA00,4.0,,Leonard,"Leonard, 215",1027,0.196,201.29,848,0.1856,157.39,54,0.2161,11.67,219,0.2181,47.76,780,0.0995,77.61,5.42125
216,Channel 0218R2X,3.0,11.099470199999997,Leonard,"Leonard, 216",1325,0.2152,285.14,2405,0.2257,542.81,3483,0.2461,857.17,5317,0.2622,1394.12,6735,0.1213,816.96,6.3855
217,PB-0777R2,3.5,0.4046631021999999,Leonard,"Leonard, 217",2554,0.2104,537.36,1491,0.1954,291.34,1090,0.218,237.62,2415,0.22399999999999998,540.96,3123,0.0654,204.24,5.4296999999999995
218,GH0391,3.0,19.5422639118,Leonard,"Leonard, 218",2451,0.2154,527.95,3408,0.2198,749.08,4804,0.2573,1236.07,6786,0.2896,1965.23,9105,0.1592,1449.52,6.818250000000001
219,Legend 04X765,3.5,12.029711512,Leonard,"Leonard, 219",1451,0.2185,317.04,2449,0.2176,532.9,3143,0.2502,786.38,5777,0.2716,1569.03,7787,0.1109,863.58,6.3918
220,Thunder SB8703R2X,3.0,5.496067331999998,Leonard,"Leonard, 220",1857,0.2121,393.87,2014,0.2022,407.23,1897,0.2251,427.01,3433,0.2275,781.01,4197,0.0702,294.63,5.57175
221,Integra 20915N,3.5,4.301227660799999,Leonard,"Leonard, 221",1199,0.2092,250.83,1065,0.19399999999999998,206.61,446,0.2088,93.12,1080,0.2366,255.53,2892,0.0788,227.89,5.5329999999999995
222,Channel 1318R2X,3.0,10.423988156399998,Leonard,"Leonard, 222",1698,0.2152,365.41,2263,0.1959,443.32,2450,0.2266,555.17,3555,0.2339,831.51,5387,0.0694,373.86,5.598650000000001
223,Dahlman 6703XN,3.0,7.6801828599999995,Leonard,"Leonard, 223",3040,0.225,684.0,2902,0.2078,603.04,3457,0.2416,835.21,6395,0.2592,1657.58,7171,0.0946,678.38,6.126100000000001
224,Dahlman 68008XN,3.0,10.5120520848,Leonard,"Leonard, 224",2834,0.2095,593.72,3296,0.2009,662.17,4190,0.2437,1021.1,7083,0.2618,1854.33,7684,0.1092,839.09,6.124599999999999
225,W1039NRX,2.5,20.255110105999997,Leonard,"Leonard, 225",2912,0.217,631.9,3558,0.2255,802.33,5373,0.2579,1385.7,8174,0.2785,2276.46,9923,0.1349,1338.61,6.6547
226,NKS08-M2,3.5,5.2474270022999985,Leonard,"Leonard, 226",1697,0.2124,360.44,1725,0.2102,362.6,1484,0.22899999999999998,339.84,4207,0.251,1055.96,4383,0.0833,365.1,5.8999
227,W1074NRX,3.5,2.0131511609999997,Leonard,"Leonard, 227",1622,0.2065,334.94,1244,0.19899999999999998,247.56,583,0.2178,126.98,1309,0.2165,283.4,1939,0.0721,139.8,5.4098999999999995
228,NKS12-R3,3.5,9.004597664999999,Leonard,"Leonard, 228",1514,0.2059,311.73,1698,0.1994,338.58,1033,0.2297,237.28,1695,0.2382,403.75,4219,0.0975,411.35,5.7761499999999995
229,Integra 20775N,3.5,2.3418662399999994,Leonard,"Leonard, 229",1534,0.2074,318.15,1516,0.1891,286.68,584,0.2235,130.52,1010,0.2349,237.25,2165,0.0776,168.0,5.555199999999999
230,W1048NRX,3.5,2.1686250585999995,Leonard,"Leonard, 230",823,0.2185,179.83,1763,0.2145,378.16,1560,0.2255,351.78,2162,0.2311,499.64,4136,0.0713,294.9,5.713800000000001
231,PB-0578R2,3.5,9.921970909899999,Leonard,"Leonard, 231",2549,0.2133,543.7,2109,0.21100000000000002,445.0,1600,0.2267,362.72,3124,0.24100000000000002,752.88,5047,0.1038,523.88,5.918550000000001
232,Dyna-Gro S07RY45,3.5,6.8709989564999985,Leonard,"Leonard, 232",1799,0.2185,393.08,1811,0.2117,383.39,1810,0.2343,424.08,2388,0.2333,557.12,4400,0.0852,374.88,5.8311
233,Channel 0317R2X,3.0,14.0114345028,Leonard,"Leonard, 233",1985,0.2178,432.33,3036,0.2153,653.65,4005,0.2536,1015.67,5873,0.2719,1596.87,7554,0.1196,903.46,6.438649999999999
234,PFS 17X04N,3.0,6.283824785699999,Leonard,"Leonard, 234",1853,0.215,398.4,2114,0.1987,420.05,1978,0.2412,477.09,3863,0.26,1004.38,4885,0.0934,456.26,6.02515
235,Thunder 3503R2Y,3.0,12.358995794599998,Leonard,"Leonard, 235",1586,0.2239,355.11,2208,0.2093,462.13,1967,0.2295,451.43,3233,0.2358,762.34,6163,0.0909,560.22,5.8591999999999995
236,Thunder SB8807NR2X,3.5,1.2141112788,Leonard,"Leonard, 236",936,0.2121,198.53,1430,0.188,268.84,1008,0.212,213.7,1534,0.1997,306.34,3099,0.0497,154.02,5.0825
237,Dahlman 6806XN,3.5,2.8283726884,Leonard,"Leonard, 237",1954,0.2245,438.67,1864,0.1996,372.05,1516,0.2323,352.17,2289,0.2173,497.4,3176,0.0638,202.63,5.53045
238,PB-0863R2,3.0,7.288936699799998,Leonard,"Leonard, 238",2329,0.2146,499.8,1891,0.2011,380.28,1525,0.2317,353.34,2615,0.23800000000000002,622.37,4455,0.0754,335.91,5.7209
239,Channel 0518R2X,2.5,16.841514801999995,Leonard,"Leonard, 239",2887,0.22699999999999998,655.35,3291,0.2107,693.41,5063,0.25,1265.75,6301,0.257,1619.36,7982,0.1079,861.26,6.248049999999999
240,PFS 18X11N,3.5,0.4047444169999999,Leonard,"Leonard, 240",104,0.2085,21.68,126,0.20600000000000002,25.96,39,0.2264,8.83,377,0.2334,87.99,997,0.0802,79.96,5.686399999999999
301,Channel 0317R2X,4.0,7.279951414399998,Leonard,"Leonard, 301",886,0.2205,195.36,1704,0.1872,318.99,1657,0.2219,367.69,2812,0.2345,659.41,4208,0.0825,347.16,5.60775
302,PB-0863R2,4.0,2.983135081499999,Leonard,"Leonard, 302",676,0.2128,143.85,620,0.1969,122.08,35,0.2077,7.27,330,0.21600000000000003,71.28,1438,0.0843,121.22,5.4229
303,REA RX0516,4.0,0.20245352329999994,Leonard,"Leonard, 303",505,0.2206,111.4,475,0.2002,95.1,163,0.2116,34.49,242,0.1992,48.21,1067,0.0932,99.44,5.4071
304,Dahlman 68008XN,4.0,0.6072995837999998,Leonard,"Leonard, 304",263,0.2209,58.1,766,0.2069,158.49,225,0.2169,48.8,436,0.2005,87.42,837,0.0963,80.6,5.5069
305,PB-0578R2,4.0,13.309118575199998,Leonard,"Leonard, 305",1825,0.2263,413.0,2262,0.2146,485.43,2412,0.265,639.18,3697,0.2802,1035.9,5354,0.1287,689.06,6.6427000000000005
306,W1050NRX,4.0,1.0123692599999998,Leonard,"Leonard, 306",146,0.2197,32.08,651,0.1902,123.82,9,0.2349,2.11,295,0.2394,70.62,640,0.1126,72.06,5.88525
307,PB-1257R2,4.0,13.779687322799997,Leonard,"Leonard, 307",907,0.2261,205.07,1352,0.1938,262.02,995,0.2274,226.26,1383,0.2508,346.86,2632,0.1106,291.1,5.9742
308,W1074NRX,3.5,13.572009323599998,Leonard,"Leonard, 308",2138,0.2289,489.39,2276,0.2162,492.07,2565,0.2597,666.13,3417,0.27699999999999997,946.51,4999,0.1132,565.89,6.53125
309,REA RX0327,3.5,16.616272805999998,Leonard,"Leonard, 309",2318,0.2272,526.65,3554,0.2175,773.0,5034,0.2539,1278.13,7076,0.2641,1868.77,8594,0.1158,995.19,6.4108
310,Dahlman 6703XN,3.0,13.687842256199998,Leonard,"Leonard, 310",2719,0.2315,629.45,3020,0.2144,647.49,4327,0.2492,1078.29,6323,0.2646,1673.07,7988,0.1353,1080.78,6.4835
311,Thunder 3503R2Y,2.5,11.245836839999997,Leonard,"Leonard, 311",1436,0.2311,331.86,2505,0.2295,574.9,4532,0.2547,1154.3,5153,0.2523,1300.1,8718,0.1281,1116.78,6.4759
312,Stine 07BA00,3.5,0.8096514635999998,Leonard,"Leonard, 312",724,0.2111,152.84,837,0.2094,175.27,296,0.2193,64.91,862,0.2257,194.55,1787,0.0966,172.62,5.7002500000000005
313,PFS 15R07N,3.0,14.175446454399998,Leonard,"Leonard, 313",2902,0.2211,641.63,2483,0.2127,528.13,2724,0.23399999999999999,637.42,4477,0.2534,1134.47,5807,0.1025,595.22,6.09365
314,W1048NRX,3.5,9.536152512599998,Leonard,"Leonard, 314",807,0.2174,175.44,1908,0.1981,377.97,2133,0.2298,490.16,4180,0.2499,1044.58,5521,0.1065,587.99,5.95285
315,Integra 20775N,3.5,5.1700762988,Leonard,"Leonard, 315",1146,0.214,245.24,1436,0.1968,282.6,854,0.2178,186.0,1837,0.2291,420.86,3859,0.0885,341.52,5.6084000000000005
316,REA RX0628,3.0,18.081321557599995,Leonard,"Leonard, 316",2193,0.2267,497.15,3246,0.2288,742.68,4834,0.2467,1192.55,9090,0.2897,2633.37,9958,0.1401,1395.12,6.76895
317,Dahlman 6806XN,3.5,1.0116577555,Leonard,"Leonard, 317",1407,0.2168,305.04,1235,0.2177,268.86,1149,0.2437,280.01,2401,0.2535,608.65,4374,0.1023,447.46,6.162100000000001
319,Dyna-Gro S05XT88,3.5,13.300336576799996,Leonard,"Leonard, 319",1359,0.2181,296.4,3088,0.2126,656.51,2976,0.2435,724.66,4543,0.2589,1176.18,6850,0.1141,781.58,6.23525
320,Dyna-Gro S11XT78,3.5,12.295895509799998,Leonard,"Leonard, 320",1542,0.2235,344.64,2012,0.1958,393.95,2356,0.2361,556.25,4423,0.2413,1067.27,6238,0.08199999999999999,511.52,5.80565
321,Legend 007X756N,3.0,10.207975390199998,Leonard,"Leonard, 321",2233,0.2285,510.24,2838,0.1997,566.75,3601,0.2502,900.97,6375,0.2829,1803.49,8873,0.1378,1222.7,6.54035
322,NKS08-M2,3.0,21.795375047599997,Leonard,"Leonard, 322",2283,0.2361,539.02,2886,0.2089,602.89,3625,0.2624,951.2,6001,0.3096,1857.91,8697,0.14,1217.58,6.922250000000001
323,NKS12-R3,3.5,17.007559623599995,Leonard,"Leonard, 323",1345,0.2213,297.65,1565,0.1897,296.88,649,0.2342,152.0,1572,0.235,369.42,4155,0.1073,445.83,5.82285
324,Legend 02R21,2.5,23.216676436799997,Leonard,"Leonard, 324",2381,0.2379,566.44,3926,0.2344,920.25,5320,0.2715,1444.38,8507,0.2949,2508.71,10196,0.1583,1614.03,7.11915
325,Channel 0218R2X,2.5,23.43449845729999,Leonard,"Leonard, 325",3037,0.2347,712.78,4388,0.2412,1058.39,6294,0.2773,1745.33,8733,0.2918,2548.29,11836,0.165,1952.94,7.1911499999999995
326,Legend 04X765,3.0,13.128599719199997,Leonard,"Leonard, 326",1861,0.2167,403.28,2668,0.2215,590.96,4174,0.2568,1071.88,6388,0.2771,1770.11,8749,0.1328,1161.87,6.59975
327,GH1253X,3.5,10.646953337999998,Leonard,"Leonard, 327",1059,0.2134,225.99,726,0.1935,140.48,276,0.2203,60.8,1491,0.2452,365.59,3891,0.1029,400.38,5.7991
328,PFS 17X04N,3.5,5.989953098499999,Leonard,"Leonard, 328",1081,0.212,229.17,1670,0.2021,337.51,2043,0.2315,472.95,3603,0.2481,893.9,4919,0.0812,399.42,5.825699999999999
329,Thunder SB8703R2X,3.5,5.9151638111999985,Leonard,"Leonard, 329",1336,0.2137,285.5,1608,0.2051,329.8,1491,0.2287,340.99,2809,0.2474,694.95,4763,0.0905,431.05,5.8774999999999995
330,GH0391,3.0,14.757009903999997,Leonard,"Leonard, 330",1618,0.2132,344.96,2379,0.2107,501.26,2502,0.2365,591.72,5222,0.2706,1413.07,7825,0.1372,1073.59,6.373900000000001
331,W1039NRX,3.0,16.0394052861,Leonard,"Leonard, 331",2749,0.2172,597.08,3466,0.2214,767.37,3802,0.2508,953.54,5859,0.2639,1546.19,8912,0.1335,1189.75,6.466
332,Dyna-Gro S07RY45,3.0,13.676132925,Leonard,"Leonard, 332",2010,0.2168,435.77,2433,0.19899999999999998,484.17,2163,0.2274,491.87,3316,0.2358,781.91,6101,0.1024,624.74,5.809799999999999
333,PFS 18X11N,3.0,6.266220131499999,Leonard,"Leonard, 333",1306,0.2271,296.59,1441,0.2039,293.82,736,0.225,165.6,1746,0.2347,409.79,4403,0.0883,388.78,5.79035
334,PB-0777R2,3.5,4.067122351599999,Leonard,"Leonard, 334",2334,0.2128,496.68,2338,0.1829,427.62,1229,0.2143,263.37,2689,0.2174,584.59,3829,0.0608,232.8,5.2619
335,REA RX0228,2.5,26.797190696499992,Leonard,"Leonard, 335",3717,0.2514,934.45,4999,0.2362,1180.76,7241,0.2792,2021.69,9823,0.2974,2921.36,10271,0.1608,1651.58,7.2597000000000005
336,PFS 18X07N,3.5,13.212516592799998,Leonard,"Leonard, 336",1910,0.2325,444.08,2171,0.1926,418.13,1638,0.22699999999999998,371.83,3293,0.2368,779.78,5631,0.0797,448.79,5.7233
337,Channel 1318R2X,3.0,23.737985619599993,Leonard,"Leonard, 337",2646,0.2279,603.02,3500,0.2083,729.05,4754,0.252,1198.01,6881,0.2691,1851.68,8802,0.1227,1080.01,6.41785
338,Thunder SB8807NR2X,3.0,19.323750715499997,Leonard,"Leonard, 338",2510,0.2327,584.08,2903,0.2156,625.89,4253,0.2459,1045.81,5850,0.2542,1487.07,8508,0.1148,976.72,6.29225
339,Integra 20915N,3.5,10.340559171599997,Leonard,"Leonard, 339",809,0.2109,170.62,898,0.2031,182.38,674,0.237,159.74,2508,0.2643,662.86,5456,0.10300000000000001,561.97,6.0966499999999995
340,Channel 0518R2X,2.5,25.620524883099996,Leonard,"Leonard, 340",2506,0.2235,560.09,4164,0.2261,941.48,5412,0.2592,1402.79,8024,0.2854,2290.05,11242,0.1553,1745.88,6.84895
401,PB-0777R2,3.5,3.412904128199999,Leonard,"Leonard, 401",1897,0.2051,389.07,1786,0.1877,335.23,1211,0.2099,254.19,2077,0.2194,455.69,2731,0.0507,138.46,5.2036
402,Channel 0518R2X,2.5,20.808579292199997,Leonard,"Leonard, 402",3042,0.2189,665.89,4563,0.2118,966.44,6447,0.256,1650.43,10061,0.29600000000000004,2978.06,10459,0.1309,1369.08,6.682799999999999
403,REA RX0516,3.5,1.6180018903999998,Leonard,"Leonard, 403",1125,0.2074,233.32,1372,0.2052,281.53,1067,0.2252,240.29,1950,0.2467,481.06,3127,0.0689,215.45,5.7201
404,Dahlman 68008XN,3.0,2.8252420685999997,Leonard,"Leonard, 404",1656,0.2018,334.18,1905,0.1892,360.43,1075,0.2141,230.16,2177,0.223,485.47,3494,0.063,220.12,5.31355
405,W1050NRX,3.0,13.840795394999997,Leonard,"Leonard, 405",2383,0.2238,533.32,2803,0.2058,576.86,2582,0.2451,632.85,5543,0.2608,1445.61,6455,0.1287,830.76,6.31085
406,Integra 20915N,3.5,12.824157107999996,Leonard,"Leonard, 406",715,0.2217,158.52,1045,0.1996,208.58,873,0.2304,201.14,1783,0.2326,414.73,4436,0.0887,393.47,5.755700000000001
407,Channel 0317R2X,2.5,21.764190821799996,Leonard,"Leonard, 407",2929,0.2297,672.79,3062,0.1981,606.58,4074,0.249,1014.43,6138,0.2595,1592.81,8382,0.1429,1197.79,6.36645
408,Integra 20775N,3.0,5.4068649963999995,Leonard,"Leonard, 408",1751,0.228,399.23,878,0.1844,161.9,428,0.218,93.3,960,0.2408,231.17,2816,0.0863,243.02,5.6675
409,Legend 007X756N,3.0,10.4663328385,Leonard,"Leonard, 409",1008,0.2131,214.8,1858,0.2099,389.99,1717,0.2411,413.97,3648,0.2461,897.77,5031,0.0936,470.9,5.9796000000000005
410,Dyna-Gro S05XT88,3.0,9.577623060599999,Leonard,"Leonard, 410",1836,0.2151,394.92,2925,0.2033,594.65,2679,0.2361,632.51,5410,0.2556,1382.8,6916,0.1004,694.37,6.027200000000001
411,NKS08-M2,3.5,9.285255697199997,Leonard,"Leonard, 411",1456,0.2079,302.7,991,0.1972,195.43,788,0.2202,173.52,1857,0.2274,422.28,4108,0.0735,301.94,5.5112000000000005
412,REA RX0327,3.0,14.747252128,Leonard,"Leonard, 412",1767,0.214,378.14,3090,0.2232,689.69,3476,0.2481,862.4,6159,0.2796,1722.06,7643,0.1379,1053.97,6.59765
413,PB-0578R2,3.0,16.2201884152,Leonard,"Leonard, 413",3010,0.2308,694.71,3289,0.2308,759.1,3686,0.2661,980.84,5490,0.2873,1577.28,7504,0.154,1155.62,6.955350000000001
414,PFS 17X04N,3.5,5.651846160099999,Leonard,"Leonard, 414",1477,0.2205,325.68,1684,0.19399999999999998,326.7,1596,0.222,354.31,2991,0.2433,727.71,4806,0.0922,443.11,5.7714
415,PFS 15R07N,3.0,2.4184647815999996,Leonard,"Leonard, 415",1862,0.2127,396.05,1325,0.191,253.08,339,0.2135,72.38,1082,0.2198,237.82,2700,0.0738,199.26,5.39395
416,Thunder 3503R2Y,3.0,9.525784875599998,Leonard,"Leonard, 416",1673,0.2222,371.74,2953,0.2257,666.49,2987,0.2384,712.1,4464,0.2566,1145.46,6828,0.1211,826.87,6.325349999999999
417,GH0391,3.0,13.477643498199996,Leonard,"Leonard, 417",1781,0.2181,388.44,2317,0.2121,491.44,2796,0.2397,670.2,4133,0.2559,1057.63,7834,0.1393,1091.28,6.3130999999999995
418,Dyna-Gro S11XT78,3.0,7.000309817199999,Leonard,"Leonard, 418",1799,0.2148,386.43,2269,0.1966,446.09,2104,0.2309,485.81,3702,0.239,884.78,6077,0.08900000000000001,540.85,5.764050000000001
419,REA RX0628,3.0,17.865268133999997,Leonard,"Leonard, 419",1969,0.2235,440.07,2977,0.2163,643.93,2715,0.2322,630.42,5750,0.2497,1435.78,8625,0.1354,1167.82,6.25165
420,Dahlman 6703XN,3.0,8.855588293999999,Leonard,"Leonard, 420",1248,0.2191,273.44,2240,0.2076,465.02,2093,0.2365,494.99,4047,0.2441,987.87,6076,0.1005,610.64,5.9818500000000006
421,Thunder SB8807NR2X,3.5,9.196703879999998,Leonard,"Leonard, 421",1266,0.2118,268.14,1156,0.1828,211.32,498,0.214,106.57,1270,0.2094,265.94,1890,0.0727,137.4,5.2511
422,Legend 02R21,3.0,10.671957638999999,Leonard,"Leonard, 422",1848,0.2219,410.07,2588,0.1977,511.65,2705,0.2238,605.38,3351,0.2255,755.65,5795,0.0853,494.31,5.63405
423,NKS12-R3,3.5,12.385667048999997,Leonard,"Leonard, 423",638,0.2198,140.23,1081,0.1985,214.58,708,0.2286,161.85,1802,0.2434,438.61,2952,0.0952,281.03,5.84995
424,Dyna-Gro S07RY45,3.5,8.762482848,Leonard,"Leonard, 424",1366,0.2218,302.98,1404,0.2046,287.26,990,0.2276,225.32,2138,0.2373,507.35,4281,0.091,389.57,5.8223
425,Legend 04X765,3.0,3.987271217999999,Leonard,"Leonard, 425",822,0.2129,175.0,1843,0.2068,381.13,2018,0.2389,482.1,2962,0.242,716.8,5178,0.0878,454.63,5.8847499999999995
426,PB-0863R2,3.5,3.3487467509999993,Leonard,"Leonard, 426",2349,0.2083,489.3,1893,0.201,380.49,1646,0.2281,375.45,2192,0.2307,505.69,4342,0.0721,313.06,5.600349999999999
427,Stine 07BA00,3.5,,Leonard,"Leonard, 427",969,0.2106,204.07,866,0.2066,178.92,13,0.2121,2.76,110,0.2409,26.5,922,0.1119,103.17,5.838550000000001
428,W1039NRX,3.0,6.889071170799999,Leonard,"Leonard, 428",2208,0.2071,457.28,2155,0.1907,410.96,1312,0.2011,263.84,3256,0.2348,764.51,4726,0.0742,350.67,5.423400000000001
429,PFS 18X11N,4.0,1.2137453621999998,Leonard,"Leonard, 429",385,0.213,82.0,427,0.2034,86.85,43,0.214,9.2,493,0.2176,107.28,1927,0.0644,124.1,5.4139
430,Channel 1318R2X,3.5,3.8498085485999987,Leonard,"Leonard, 430",1419,0.21600000000000003,306.5,1810,0.2066,373.95,1867,0.2352,439.12,3394,0.2455,833.23,4872,0.071,345.91,5.8195
431,REA RX0228,2.5,21.984919846399997,Leonard,"Leonard, 431",2529,0.2221,561.69,3857,0.2253,868.98,5081,0.2506,1273.3,6837,0.2717,1857.61,10170,0.1527,1552.96,6.6682500000000005
432,PFS 18X07N,3.5,9.4025929536,Leonard,"Leonard, 432",971,0.2137,207.5,995,0.1957,194.72,629,0.2175,136.81,1797,0.23399999999999999,420.5,3966,0.0817,324.02,5.6036
434,W1074NRX,3.5,9.232279104999998,Leonard,"Leonard, 434",1644,0.2146,352.8,2161,0.2036,439.98,2274,0.2322,528.02,3187,0.2223,708.47,4738,0.0716,339.24,5.5953
435,GH1253X,3.5,9.118438384999997,Leonard,"Leonard, 435",2637,0.2172,572.76,1691,0.1907,322.47,1253,0.2182,273.4,2166,0.2271,491.9,4794,0.0927,444.4,5.58875
436,Channel 0218R2X,2.5,17.698654108799996,Leonard,"Leonard, 436",3880,0.2535,983.58,5542,0.2414,1337.84,6610,0.2707,1789.33,8421,0.2925,2463.14,9333,0.1551,1447.55,7.18745
437,Thunder SB8703R2X,3.5,8.267885577,Leonard,"Leonard, 437",1237,0.2187,270.53,1795,0.2017,362.05,1343,0.2192,294.39,2784,0.2197,611.64,4512,0.0594,268.01,5.44605
438,PB-1257R2,2.5,20.752390765399998,Leonard,"Leonard, 438",3396,0.2377,807.23,3533,0.2185,771.96,3750,0.2358,884.25,4121,0.2413,994.4,7008,0.13,911.04,6.248349999999999
439,Dahlman 6806XN,3.5,0.8097327783999998,Leonard,"Leonard, 439",1204,0.2071,249.35,1310,0.1928,252.57,822,0.2231,183.39,1517,0.2116,321.0,2838,0.0619,175.67,5.31095
440,W1048NRX,3.5,5.489968722,Leonard,"Leonard, 440",1417,0.2174,308.06,2479,0.209,518.11,1969,0.2265,445.98,3628,0.237,859.84,5932,0.0929,551.08,5.83435
