,PlotNumber,Location,Cultivar,Jun-25,Jul-03,Jul-08,Jul-14,Jul-24
0,101,Hunter,Channel 1318R2X,0.2964,0.29600000000000004,0.32,0.36,0.379
1,102,Hunter,W1050NRX,0.2888,0.27,0.315,0.374,0.402
2,103,Hunter,REA RX0228,0.2857,0.297,0.295,0.366,0.415
3,104,Hunter,Dahlman 6806XN,0.2602,0.24,0.259,0.33399999999999996,0.379
4,105,Hunter,Dahlman 6703XN,0.2629,0.25,0.281,0.368,0.405
5,106,Hunter,Dyna-Gro S11XT78,0.2757,0.22,0.259,0.33799999999999997,0.389
6,107,Hunter,Integra 30808N,0.2466,0.23600000000000002,0.218,0.302,0.365
7,108,Hunter,Thunder SB8807NR2X,0.2667,0.267,0.244,0.307,0.387
8,109,Hunter,PB-1257R2,0.2906,0.311,0.245,0.314,0.39
9,110,Hunter,PFS 18X07N,0.251,0.204,0.23,0.29,0.355
10,111,Hunter,Integra 20915N,0.2517,0.244,0.243,0.303,0.34
11,112,Hunter,GH1253X,0.2351,0.207,0.25,0.316,0.364
12,113,Hunter,Thunder 3503R2Y,0.2607,0.244,0.27699999999999997,0.316,0.374
13,114,Hunter,Dyna-Gro S07RY45,0.2646,0.25,0.281,0.32299999999999995,0.349
14,115,Hunter,PB-0777R2,0.3047,0.322,0.337,0.41600000000000004,0.397
15,116,Hunter,Integra 20775N,0.2768,0.295,0.318,0.418,0.41
16,117,Hunter,REA RX0516,0.2639,0.28300000000000003,0.318,0.39799999999999996,0.414
17,118,Hunter,Dyna-Gro S05XT88,0.253,0.262,0.29600000000000004,0.40299999999999997,0.39799999999999996
18,119,Hunter,Channel 0218R2X,0.2853,0.321,0.313,0.405,0.40700000000000003
19,120,Hunter,Legend 04X765,0.2784,0.29100000000000004,0.327,0.415,0.42700000000000005
20,121,Hunter,REA RX0628,0.2817,0.295,0.304,0.408,0.41100000000000003
21,122,Hunter,Dahlman 68008XN,0.2715,0.29600000000000004,0.34,0.409,0.408
22,123,Hunter,PFS 18X11N,0.259,0.265,0.3,0.379,0.406
23,124,Hunter,REA RX0327,0.2868,0.305,0.361,0.42200000000000004,0.38799999999999996
24,125,Hunter,Thunder SB8703R2X,0.2807,0.29100000000000004,0.32899999999999996,0.40299999999999997,0.38
25,126,Hunter,PFS 15R07N,0.2764,0.247,0.311,0.40299999999999997,0.40399999999999997
26,127,Hunter,W1074NRX,0.2955,0.297,0.37,0.409,0.387
27,128,Hunter,PFS 17X04N,0.3003,0.309,0.344,0.4,0.37
28,129,Hunter,Legend 007X756N,0.2694,0.312,0.337,0.38299999999999995,0.371
29,130,Hunter,NKS08-M2,0.2741,0.28600000000000003,0.32799999999999996,0.374,0.401
30,131,Hunter,W1039NRX,0.2795,0.301,0.355,0.392,0.38299999999999995
31,132,Hunter,Channel 0317R2X,0.2836,0.312,0.34700000000000003,0.4,0.38299999999999995
32,133,Hunter,Channel 0518R2X,0.2765,0.297,0.35100000000000003,0.395,0.386
33,134,Hunter,PB-0578R2,0.3159,0.35100000000000003,0.402,0.439,0.415
34,135,Hunter,Stine 07BA00,0.2725,0.27,0.32,0.361,0.37799999999999995
35,136,Hunter,GH0391,0.2696,0.257,0.3,0.39299999999999996,0.37
36,137,Hunter,NKS12-R3,0.2762,0.294,0.32,0.415,0.39799999999999996
37,138,Hunter,Legend 02R21,0.2691,0.28600000000000003,0.299,0.387,0.366
38,139,Hunter,PB-0863R2,0.3054,0.309,0.341,0.42200000000000004,0.41700000000000004
39,140,Hunter,W1048NRX,0.2668,0.285,0.29600000000000004,0.386,0.377
40,201,Hunter,Integra 30808N,0.2304,0.20199999999999999,0.22699999999999998,0.284,0.336
41,202,Hunter,Thunder SB8807NR2X,0.2295,0.207,0.248,0.322,0.337
42,203,Hunter,GH0391,0.2376,0.201,0.262,0.32899999999999996,0.35200000000000004
43,204,Hunter,REA RX0327,0.2725,0.244,0.295,0.381,0.374
44,205,Hunter,Dahlman 6703XN,0.2619,0.24,0.278,0.35700000000000004,0.36
45,206,Hunter,PB-0578R2,0.2902,0.282,0.321,0.397,0.382
46,207,Hunter,REA RX0228,0.268,0.289,0.301,0.377,0.368
47,208,Hunter,PB-0863R2,0.2329,0.21,0.268,0.35600000000000004,0.35600000000000004
48,209,Hunter,Thunder SB8703R2X,0.2327,0.201,0.267,0.337,0.363
49,210,Hunter,Channel 0518R2X,0.2522,0.214,0.28300000000000003,0.36,0.375
50,211,Hunter,Integra 20775N,0.2543,0.221,0.278,0.366,0.377
51,212,Hunter,Legend 04X765,0.2619,0.258,0.304,0.363,0.375
52,213,Hunter,Legend 007X756N,0.2608,0.271,0.29100000000000004,0.344,0.384
53,214,Hunter,Stine 07BA00,0.2323,0.207,0.249,0.307,0.341
54,215,Hunter,PFS 18X07N,0.24600000000000002,0.226,0.24600000000000002,0.327,0.33399999999999996
55,216,Hunter,NKS08-M2,0.268,0.24,0.26,0.369,0.381
56,217,Hunter,GH1253X,0.2341,0.21899999999999997,0.267,0.345,0.35600000000000004
57,218,Hunter,PFS 17X04N,0.2601,0.231,0.261,0.354,0.34
58,219,Hunter,Channel 0317R2X,0.2478,0.215,0.255,0.354,0.35200000000000004
59,220,Hunter,W1048NRX,0.2506,0.22399999999999998,0.252,0.34700000000000003,0.35600000000000004
60,221,Hunter,PFS 15R07N,0.2278,0.209,0.22,0.303,0.28600000000000003
61,222,Hunter,W1050NRX,0.2421,0.225,0.245,0.32899999999999996,0.33799999999999997
62,223,Hunter,Channel 0218R2X,0.2463,0.23800000000000002,0.256,0.33899999999999997,0.371
63,224,Hunter,PB-1257R2,0.2555,0.24,0.276,0.353,0.38299999999999995
64,225,Hunter,Thunder 3503R2Y,0.2818,0.282,0.303,0.38,0.39799999999999996
65,226,Hunter,Channel 1318R2X,0.2737,0.278,0.29,0.384,0.39799999999999996
66,227,Hunter,Dahlman 68008XN,0.2938,0.258,0.27399999999999997,0.368,0.36
67,228,Hunter,W1074NRX,0.3033,0.275,0.271,0.37200000000000005,0.36200000000000004
68,229,Hunter,W1039NRX,0.3261,0.263,0.281,0.36700000000000005,0.37799999999999995
69,230,Hunter,Dyna-Gro S11XT78,0.3148,0.21100000000000002,0.257,0.34600000000000003,0.382
70,231,Hunter,Legend 02R21,0.2933,0.242,0.256,0.354,0.385
71,232,Hunter,Dahlman 6806XN,0.2817,0.221,0.258,0.336,0.38299999999999995
72,233,Hunter,Dyna-Gro S05XT88,0.2566,0.201,0.252,0.32,0.373
73,234,Hunter,Dyna-Gro S07RY45,0.2531,0.213,0.267,0.335,0.395
74,235,Hunter,PFS 18X11N,0.2343,0.19399999999999998,0.213,0.282,0.309
75,236,Hunter,REA RX0628,0.3002,0.293,0.307,0.366,0.406
76,237,Hunter,PB-0777R2,0.3333,0.245,0.32,0.406,0.441
77,238,Hunter,Integra 20915N,0.2876,0.22899999999999998,0.266,0.37,0.395
78,239,Hunter,NKS12-R3,0.3581,0.311,0.33399999999999996,0.423,0.435
79,240,Hunter,REA RX0516,0.3116,0.245,0.265,0.355,0.396
80,301,Hunter,Dahlman 6806XN,0.2654,0.223,0.23600000000000002,0.314,0.374
81,302,Hunter,PFS 18X11N,0.2403,0.204,0.228,0.28600000000000003,0.322
82,303,Hunter,Dahlman 6703XN,0.266,0.23199999999999998,0.231,0.32799999999999996,0.401
83,304,Hunter,Dyna-Gro S11XT78,0.2549,0.22,0.231,0.31,0.37
84,305,Hunter,Channel 1318R2X,0.252,0.21600000000000003,0.22899999999999998,0.327,0.43200000000000005
85,306,Hunter,PFS 17X04N,0.2362,0.205,0.23399999999999999,0.318,0.42100000000000004
86,307,Hunter,Channel 0317R2X,0.2737,0.222,0.251,0.355,0.49
87,308,Hunter,Dahlman 68008XN,0.2545,0.213,0.249,0.32299999999999995,0.434
88,309,Hunter,W1039NRX,0.2565,0.2,0.23,0.313,0.433
89,310,Hunter,Thunder 3503R2Y,0.2608,0.24600000000000002,0.275,0.345,0.45299999999999996
90,311,Hunter,Legend 04X765,0.2539,0.222,0.258,0.33399999999999996,0.434
91,312,Hunter,PB-1257R2,0.2656,0.245,0.21600000000000003,0.287,0.405
92,313,Hunter,Integra 20915N,0.2407,0.225,0.23,0.28600000000000003,0.32899999999999996
93,314,Hunter,Integra 30808N,0.239,0.212,0.19899999999999998,0.264,0.348
94,315,Hunter,PFS 18X07N,0.2705,0.271,0.27899999999999997,0.375,0.397
95,316,Hunter,PB-0578R2,0.3037,0.254,0.295,0.42100000000000004,0.434
96,317,Hunter,PB-0777R2,0.2614,0.218,0.235,0.34700000000000003,0.39899999999999997
97,318,Hunter,NKS12-R3,0.2555,0.21,0.258,0.387,0.423
98,319,Hunter,Channel 0218R2X,0.2765,0.281,0.29600000000000004,0.41100000000000003,0.439
99,320,Hunter,W1074NRX,0.2575,0.20199999999999999,0.253,0.36,0.42100000000000004
100,321,Hunter,REA RX0516,0.2424,0.225,0.271,0.384,0.425
101,322,Hunter,Dyna-Gro S05XT88,0.2574,0.24600000000000002,0.292,0.4,0.44
102,323,Hunter,NKS08-M2,0.2636,0.254,0.304,0.386,0.433
103,324,Hunter,W1050NRX,0.273,0.265,0.322,0.40700000000000003,0.43
104,325,Hunter,GH1253X,0.2413,0.215,0.27899999999999997,0.382,0.41700000000000004
105,326,Hunter,Channel 0518R2X,0.2491,0.244,0.28300000000000003,0.374,0.41
106,327,Hunter,GH0391,0.2449,0.215,0.29600000000000004,0.381,0.401
107,328,Hunter,Legend 02R21,0.2753,0.29100000000000004,0.313,0.365,0.39
108,329,Hunter,Legend 007X756N,0.2773,0.313,0.33799999999999997,0.39799999999999996,0.402
109,330,Hunter,Integra 20775N,0.2714,0.27,0.33399999999999996,0.391,0.405
110,331,Hunter,W1048NRX,0.2565,0.257,0.29600000000000004,0.37799999999999995,0.391
111,332,Hunter,Thunder SB8703R2X,0.254,0.285,0.312,0.38799999999999996,0.41600000000000004
112,333,Hunter,Thunder SB8807NR2X,0.2637,0.253,0.303,0.38299999999999995,0.40299999999999997
113,334,Hunter,PFS 15R07N,0.2514,0.22399999999999998,0.28800000000000003,0.373,0.41
114,335,Hunter,REA RX0628,0.2565,0.252,0.301,0.36200000000000004,0.418
115,336,Hunter,PB-0863R2,0.2601,0.24600000000000002,0.325,0.44799999999999995,0.479
116,337,Hunter,REA RX0228,0.2816,0.294,0.32,0.414,0.452
117,338,Hunter,Stine 07BA00,0.2299,0.209,0.24600000000000002,0.349,0.389
118,339,Hunter,Dyna-Gro S07RY45,0.2576,0.25,0.295,0.40700000000000003,0.44
119,340,Hunter,REA RX0327,0.2809,0.289,0.303,0.41200000000000003,0.405
120,401,Hunter,Channel 0218R2X,0.2595,0.263,0.285,0.355,0.353
121,402,Hunter,Channel 0518R2X,0.2471,0.23,0.264,0.34600000000000003,0.366
122,403,Hunter,W1048NRX,0.2778,0.28600000000000003,0.293,0.37200000000000005,0.4
123,404,Hunter,PB-0578R2,0.3032,0.327,0.38299999999999995,0.439,0.496
124,405,Hunter,Integra 20775N,0.2503,0.221,0.272,0.377,0.466
125,406,Hunter,Dyna-Gro S11XT78,0.257,0.242,0.293,0.377,0.462
126,407,Hunter,Thunder 3503R2Y,0.261,0.249,0.29100000000000004,0.374,0.44299999999999995
127,408,Hunter,PB-1257R2,0.2435,0.21,0.243,0.32,0.447
128,409,Hunter,Thunder SB8703R2X,0.2434,0.24600000000000002,0.282,0.353,0.462
129,410,Hunter,Dahlman 6806XN,0.2381,0.24100000000000002,0.255,0.327,0.42100000000000004
130,411,Hunter,PFS 15R07N,0.2289,0.221,0.24100000000000002,0.313,0.406
131,412,Hunter,Dyna-Gro S05XT88,0.2269,0.226,0.237,0.302,0.321
132,413,Hunter,REA RX0516,0.2211,0.221,0.23199999999999998,0.26899999999999996,0.255
133,414,Hunter,Dyna-Gro S07RY45,0.2207,0.192,0.22699999999999998,0.289,0.298
134,415,Hunter,Channel 0317R2X,0.2511,0.225,0.253,0.35100000000000003,0.321
135,416,Hunter,Integra 20915N,0.2326,0.217,0.222,0.301,0.268
136,417,Hunter,PB-0863R2,0.2577,0.251,0.28300000000000003,0.37799999999999995,0.35
137,418,Hunter,Integra 30808N,0.2292,0.231,0.23600000000000002,0.33,0.396
138,419,Hunter,NKS12-R3,0.2609,0.237,0.237,0.369,0.41600000000000004
139,420,Hunter,Legend 04X765,0.2483,0.221,0.23199999999999998,0.32799999999999996,0.39
140,421,Hunter,GH1253X,0.2442,0.201,0.24,0.33399999999999996,0.37799999999999995
141,422,Hunter,Legend 007X756N,0.2485,0.212,0.23399999999999999,0.29600000000000004,0.325
142,423,Hunter,Dahlman 6703XN,0.2333,0.196,0.217,0.266,0.284
143,424,Hunter,PB-0777R2,0.2336,0.213,0.214,0.268,0.29
144,425,Hunter,Thunder SB8807NR2X,0.2282,0.218,0.228,0.276,0.27699999999999997
145,426,Hunter,Stine 07BA00,0.2063,0.239,0.20199999999999999,0.266,0.273
146,427,Hunter,Channel 1318R2X,0.2237,0.201,0.23800000000000002,0.297,0.285
147,428,Hunter,REA RX0327,0.2444,0.22,0.23,0.289,0.295
148,429,Hunter,W1074NRX,0.2831,0.244,0.292,0.36,0.402
149,430,Hunter,PFS 18X07N,0.2351,0.21,0.243,0.28800000000000003,0.317
150,431,Hunter,W1050NRX,0.2464,0.212,0.22,0.28300000000000003,0.327
151,432,Hunter,Dahlman 68008XN,0.2557,0.24600000000000002,0.242,0.316,0.34
152,433,Hunter,PFS 17X04N,0.2473,0.20600000000000002,0.212,0.276,0.32899999999999996
153,434,Hunter,PFS 18X11N,0.2443,0.212,0.21100000000000002,0.247,0.278
154,435,Hunter,NKS08-M2,0.255,0.20800000000000002,0.231,0.282,0.361
155,436,Hunter,Legend 02R21,0.2691,0.231,0.23600000000000002,0.311,0.41200000000000003
156,437,Hunter,REA RX0628,0.2662,0.22699999999999998,0.249,0.32899999999999996,0.41100000000000003
157,438,Hunter,GH0391,0.2579,0.19899999999999998,0.233,0.33299999999999996,0.414
158,439,Hunter,REA RX0228,0.2929,0.26899999999999996,0.276,0.371,0.41700000000000004
159,440,Hunter,W1039NRX,0.2991,0.23600000000000002,0.26899999999999996,0.35700000000000004,0.392
160,101,Leonard,Dyna-Gro S11XT78,0.2084,0.18899999999999997,0.21899999999999997,0.231,0.204
161,103,Leonard,Thunder SB8807NR2X,0.2148,0.19899999999999998,0.212,0.21100000000000002,0.22399999999999998
162,104,Leonard,W1050NRX,0.2173,0.201,0.22399999999999998,0.235,0.22699999999999998
163,105,Leonard,REA RX0516,0.2131,0.201,0.217,0.21,0.209
164,106,Leonard,Channel 0218R2X,0.2271,0.209,0.24600000000000002,0.255,0.257
165,107,Leonard,Channel 0518R2X,0.2216,0.183,0.21899999999999997,0.22899999999999998,0.214
166,108,Leonard,Legend 04X765,0.2195,0.213,0.251,0.26,0.23399999999999999
167,109,Leonard,PFS 18X07N,0.2096,0.2,0.22699999999999998,0.22899999999999998,0.191
168,110,Leonard,Integra 20775N,0.2164,0.203,0.22399999999999998,0.22699999999999998,0.209
169,111,Leonard,PB-1257R2,0.2241,0.226,0.24600000000000002,0.254,0.255
170,112,Leonard,Dahlman 68008XN,0.2149,0.20199999999999999,0.221,0.22399999999999998,0.19
171,113,Leonard,REA RX0228,0.2212,0.233,0.247,0.265,0.25
172,114,Leonard,PFS 18X11N,0.2103,0.203,0.23399999999999999,0.215,0.22699999999999998
173,115,Leonard,W1048NRX,0.2176,0.205,0.24600000000000002,0.265,0.226
174,116,Leonard,REA RX0327,0.2029,0.21,0.23199999999999998,0.23,0.18100000000000002
175,117,Leonard,Dyna-Gro S07RY45,0.2037,0.201,0.24600000000000002,0.261,0.20600000000000002
176,118,Leonard,Thunder SB8703R2X,0.2116,0.215,0.237,0.249,0.22699999999999998
177,119,Leonard,Dyna-Gro S05XT88,0.214,0.2,0.235,0.22699999999999998,0.192
178,120,Leonard,PFS 17X04N,0.2254,0.201,0.257,0.276,0.24100000000000002
179,121,Leonard,GH1253X,0.2049,0.18,0.203,0.21,0.214
180,122,Leonard,PB-0777R2,0.2057,0.18899999999999997,0.212,0.212,0.203
181,123,Leonard,W1039NRX,0.2141,0.205,0.239,0.259,0.225
182,124,Leonard,Legend 007X756N,0.2222,0.218,0.24100000000000002,0.263,0.23
183,125,Leonard,Legend 02R21,0.2252,0.242,0.266,0.28800000000000003,0.26
184,126,Leonard,PB-0863R2,0.2025,0.20199999999999999,0.226,0.226,0.18600000000000003
185,127,Leonard,Dahlman 6806XN,0.2047,0.198,0.228,0.21100000000000002,0.22
186,128,Leonard,Integra 20915N,0.2059,0.18600000000000003,0.23,0.23600000000000002,0.212
187,129,Leonard,Channel 0317R2X,0.2132,0.19699999999999998,0.235,0.242,0.18899999999999997
188,130,Leonard,Dahlman 6703XN,0.21899999999999997,0.209,0.226,0.24,0.19
189,131,Leonard,NKS08-M2,0.2224,0.218,0.239,0.261,0.21100000000000002
190,133,Leonard,NKS12-R3,0.2186,0.21600000000000003,0.24600000000000002,0.24,0.235
191,134,Leonard,Channel 1318R2X,0.2176,0.20600000000000002,0.252,0.26,0.21899999999999997
192,135,Leonard,PFS 15R07N,0.2087,0.193,0.223,0.244,0.237
193,136,Leonard,GH0391,0.2166,0.218,0.249,0.278,0.261
194,137,Leonard,REA RX0628,0.2224,0.222,0.249,0.25,0.22
195,138,Leonard,PB-0578R2,0.2255,0.231,0.267,0.27899999999999997,0.26899999999999996
196,139,Leonard,Thunder 3503R2Y,0.2231,0.23,0.247,0.262,0.23800000000000002
197,140,Leonard,W1074NRX,0.2041,0.203,0.22899999999999998,0.226,0.17
198,202,Leonard,REA RX0327,0.2109,0.212,0.23600000000000002,0.245,0.193
199,203,Leonard,REA RX0228,0.2307,0.251,0.278,0.315,0.28300000000000003
200,205,Leonard,Dyna-Gro S05XT88,0.2173,0.212,0.24,0.249,0.212
201,206,Leonard,Legend 007X756N,0.2171,0.21100000000000002,0.25,0.263,0.23
202,207,Leonard,Dyna-Gro S11XT78,0.2041,0.187,0.218,0.22899999999999998,0.19699999999999998
203,208,Leonard,W1050NRX,0.2128,0.196,0.23399999999999999,0.24100000000000002,0.182
204,209,Leonard,REA RX0628,0.21899999999999997,0.21100000000000002,0.245,0.26899999999999996,0.24600000000000002
205,210,Leonard,PFS 15R07N,0.2148,0.203,0.228,0.23800000000000002,0.214
206,211,Leonard,REA RX0516,0.2089,0.21100000000000002,0.226,0.221,0.188
207,212,Leonard,PB-1257R2,0.2117,0.204,0.21899999999999997,0.22899999999999998,0.192
208,213,Leonard,PFS 18X07N,0.2037,0.198,0.221,0.212,0.196
209,214,Leonard,Legend 02R21,0.21100000000000002,0.19699999999999998,0.231,0.235,0.193
210,216,Leonard,Channel 0218R2X,0.2152,0.226,0.24600000000000002,0.262,0.244
211,217,Leonard,PB-0777R2,0.2104,0.195,0.218,0.22399999999999998,0.193
212,218,Leonard,GH0391,0.2154,0.22,0.257,0.29,0.259
213,219,Leonard,Legend 04X765,0.2185,0.218,0.25,0.272,0.21899999999999997
214,220,Leonard,Thunder SB8703R2X,0.2121,0.20199999999999999,0.225,0.228,0.188
215,221,Leonard,Integra 20915N,0.2092,0.19399999999999998,0.209,0.237,0.203
216,222,Leonard,Channel 1318R2X,0.2152,0.196,0.22699999999999998,0.23399999999999999,0.182
217,223,Leonard,Dahlman 6703XN,0.225,0.20800000000000002,0.242,0.259,0.209
218,224,Leonard,Dahlman 68008XN,0.2095,0.201,0.244,0.262,0.22399999999999998
219,225,Leonard,W1039NRX,0.217,0.226,0.258,0.27899999999999997,0.247
220,226,Leonard,NKS08-M2,0.2124,0.21,0.22899999999999998,0.251,0.214
221,227,Leonard,W1074NRX,0.2065,0.19899999999999998,0.218,0.217,0.19
222,228,Leonard,NKS12-R3,0.2059,0.19899999999999998,0.23,0.23800000000000002,0.226
223,229,Leonard,Integra 20775N,0.2074,0.18899999999999997,0.22399999999999998,0.235,0.2
224,230,Leonard,W1048NRX,0.2185,0.215,0.226,0.231,0.193
225,231,Leonard,PB-0578R2,0.2133,0.21100000000000002,0.22699999999999998,0.24100000000000002,0.225
226,232,Leonard,Dyna-Gro S07RY45,0.2185,0.212,0.23399999999999999,0.233,0.214
227,233,Leonard,Channel 0317R2X,0.2178,0.215,0.254,0.272,0.221
228,234,Leonard,PFS 17X04N,0.215,0.19899999999999998,0.24100000000000002,0.26,0.21
229,235,Leonard,Thunder 3503R2Y,0.2239,0.209,0.23,0.23600000000000002,0.207
230,236,Leonard,Thunder SB8807NR2X,0.2121,0.188,0.212,0.2,0.175
231,237,Leonard,Dahlman 6806XN,0.2245,0.2,0.23199999999999998,0.217,0.182
232,238,Leonard,PB-0863R2,0.2146,0.201,0.23199999999999998,0.23800000000000002,0.192
233,239,Leonard,Channel 0518R2X,0.22699999999999998,0.21100000000000002,0.25,0.257,0.228
234,240,Leonard,PFS 18X11N,0.2085,0.20600000000000002,0.226,0.233,0.201
235,301,Leonard,Channel 0317R2X,0.2205,0.187,0.222,0.235,0.204
236,302,Leonard,PB-0863R2,0.2128,0.19699999999999998,0.20800000000000002,0.21600000000000003,0.205
237,303,Leonard,REA RX0516,0.2206,0.2,0.212,0.19899999999999998,0.207
238,304,Leonard,Dahlman 68008XN,0.2209,0.207,0.217,0.201,0.214
239,305,Leonard,PB-0578R2,0.2263,0.215,0.265,0.28,0.258
240,306,Leonard,W1050NRX,0.2197,0.19,0.235,0.239,0.21600000000000003
241,307,Leonard,PB-1257R2,0.2261,0.19399999999999998,0.22699999999999998,0.251,0.23199999999999998
242,308,Leonard,W1074NRX,0.2289,0.21600000000000003,0.26,0.27699999999999997,0.225
243,309,Leonard,REA RX0327,0.2272,0.218,0.254,0.264,0.231
244,310,Leonard,Dahlman 6703XN,0.2315,0.214,0.249,0.265,0.253
245,311,Leonard,Thunder 3503R2Y,0.2311,0.23,0.255,0.252,0.253
246,312,Leonard,Stine 07BA00,0.2111,0.209,0.21899999999999997,0.226,0.215
247,313,Leonard,PFS 15R07N,0.2211,0.213,0.23399999999999999,0.253,0.221
248,314,Leonard,W1048NRX,0.2174,0.198,0.23,0.25,0.228
249,315,Leonard,Integra 20775N,0.214,0.19699999999999998,0.218,0.22899999999999998,0.213
250,316,Leonard,REA RX0628,0.2267,0.22899999999999998,0.247,0.29,0.254
251,317,Leonard,Dahlman 6806XN,0.2168,0.218,0.244,0.254,0.21600000000000003
252,319,Leonard,Dyna-Gro S05XT88,0.2181,0.213,0.244,0.259,0.233
253,320,Leonard,Dyna-Gro S11XT78,0.2235,0.196,0.23600000000000002,0.24100000000000002,0.19899999999999998
254,321,Leonard,Legend 007X756N,0.2285,0.2,0.25,0.28300000000000003,0.265
255,322,Leonard,NKS08-M2,0.2361,0.209,0.262,0.31,0.267
256,323,Leonard,NKS12-R3,0.2213,0.19,0.23399999999999999,0.235,0.235
257,324,Leonard,Legend 02R21,0.2379,0.23399999999999999,0.272,0.295,0.268
258,325,Leonard,Channel 0218R2X,0.2347,0.24100000000000002,0.27699999999999997,0.292,0.28300000000000003
259,326,Leonard,Legend 04X765,0.2167,0.222,0.257,0.27699999999999997,0.24100000000000002
260,327,Leonard,GH1253X,0.2134,0.19399999999999998,0.22,0.245,0.22399999999999998
261,328,Leonard,PFS 17X04N,0.212,0.20199999999999999,0.23199999999999998,0.248,0.20199999999999999
262,329,Leonard,Thunder SB8703R2X,0.2137,0.205,0.22899999999999998,0.247,0.215
263,330,Leonard,GH0391,0.2132,0.21100000000000002,0.237,0.271,0.247
264,331,Leonard,W1039NRX,0.2172,0.221,0.251,0.264,0.249
265,332,Leonard,Dyna-Gro S07RY45,0.2168,0.19899999999999998,0.22699999999999998,0.23600000000000002,0.221
266,333,Leonard,PFS 18X11N,0.2271,0.204,0.225,0.235,0.214
267,334,Leonard,PB-0777R2,0.2128,0.183,0.214,0.217,0.185
268,335,Leonard,REA RX0228,0.2514,0.23600000000000002,0.27899999999999997,0.297,0.282
269,336,Leonard,PFS 18X07N,0.2325,0.193,0.22699999999999998,0.237,0.201
270,337,Leonard,Channel 1318R2X,0.2279,0.20800000000000002,0.252,0.26899999999999996,0.23199999999999998
271,338,Leonard,Thunder SB8807NR2X,0.2327,0.21600000000000003,0.24600000000000002,0.254,0.228
272,339,Leonard,Integra 20915N,0.2109,0.203,0.237,0.264,0.22699999999999998
273,340,Leonard,Channel 0518R2X,0.2235,0.226,0.259,0.285,0.267
274,401,Leonard,PB-0777R2,0.2051,0.188,0.21,0.21899999999999997,0.174
275,402,Leonard,Channel 0518R2X,0.2189,0.212,0.256,0.29600000000000004,0.24100000000000002
276,403,Leonard,REA RX0516,0.2074,0.205,0.225,0.247,0.192
277,404,Leonard,Dahlman 68008XN,0.2018,0.18899999999999997,0.214,0.223,0.182
278,405,Leonard,W1050NRX,0.2238,0.20600000000000002,0.245,0.261,0.247
279,406,Leonard,Integra 20915N,0.2217,0.2,0.23,0.233,0.21600000000000003
280,407,Leonard,Channel 0317R2X,0.2297,0.198,0.249,0.26,0.251
281,408,Leonard,Integra 20775N,0.228,0.184,0.218,0.24100000000000002,0.215
282,409,Leonard,Legend 007X756N,0.2131,0.21,0.24100000000000002,0.24600000000000002,0.226
283,410,Leonard,Dyna-Gro S05XT88,0.2151,0.203,0.23600000000000002,0.256,0.21100000000000002
284,411,Leonard,NKS08-M2,0.2079,0.19699999999999998,0.22,0.22699999999999998,0.193
285,412,Leonard,REA RX0327,0.214,0.223,0.248,0.28,0.24100000000000002
286,413,Leonard,PB-0578R2,0.2308,0.231,0.266,0.287,0.266
287,414,Leonard,PFS 17X04N,0.2205,0.19399999999999998,0.222,0.243,0.212
288,415,Leonard,PFS 15R07N,0.2127,0.191,0.214,0.22,0.19899999999999998
289,416,Leonard,Thunder 3503R2Y,0.2222,0.226,0.23800000000000002,0.257,0.23800000000000002
290,417,Leonard,GH0391,0.2181,0.212,0.24,0.256,0.249
291,418,Leonard,Dyna-Gro S11XT78,0.2148,0.19699999999999998,0.231,0.239,0.205
292,419,Leonard,REA RX0628,0.2235,0.21600000000000003,0.23199999999999998,0.25,0.25
293,420,Leonard,Dahlman 6703XN,0.2191,0.20800000000000002,0.237,0.244,0.22399999999999998
294,421,Leonard,Thunder SB8807NR2X,0.2118,0.183,0.214,0.209,0.19
295,422,Leonard,Legend 02R21,0.2219,0.198,0.22399999999999998,0.226,0.204
296,423,Leonard,NKS12-R3,0.2198,0.19899999999999998,0.22899999999999998,0.243,0.22699999999999998
297,424,Leonard,Dyna-Gro S07RY45,0.2218,0.205,0.228,0.237,0.213
298,425,Leonard,Legend 04X765,0.2129,0.207,0.239,0.242,0.21
299,426,Leonard,PB-0863R2,0.2083,0.201,0.228,0.231,0.188
300,428,Leonard,W1039NRX,0.2071,0.191,0.201,0.235,0.191
301,429,Leonard,PFS 18X11N,0.213,0.203,0.214,0.218,0.192
302,430,Leonard,Channel 1318R2X,0.21600000000000003,0.207,0.235,0.24600000000000002,0.18600000000000003
303,431,Leonard,REA RX0228,0.2221,0.225,0.251,0.272,0.268
304,432,Leonard,PFS 18X07N,0.2137,0.196,0.218,0.23399999999999999,0.203
305,434,Leonard,W1074NRX,0.2146,0.204,0.23199999999999998,0.222,0.19399999999999998
306,435,Leonard,GH1253X,0.2172,0.191,0.218,0.22699999999999998,0.215
307,436,Leonard,Channel 0218R2X,0.2535,0.24100000000000002,0.271,0.293,0.28300000000000003
308,437,Leonard,Thunder SB8703R2X,0.2187,0.20199999999999999,0.21899999999999997,0.22,0.18100000000000002
309,438,Leonard,PB-1257R2,0.2377,0.21899999999999997,0.23600000000000002,0.24100000000000002,0.242
310,439,Leonard,Dahlman 6806XN,0.2071,0.193,0.223,0.212,0.183
311,440,Leonard,W1048NRX,0.2174,0.209,0.22699999999999998,0.237,0.213
