Canopy,PlotNumber,DGCI,pixel_DGCI,Location,date,alt,Plot_Loc,YLD3,IDC1,Cultivar
1679.94,101,0.2097,352.28,Amenia,06-23,100Ft,"Amenia, 101",38.95596912,1.0,Thunder 3601R2Y
1642.14,102,0.2203,361.76,Amenia,06-23,100Ft,"Amenia, 102",55.82100249,1.0,NKS08-M2
1000.08,103,0.2261,226.12,Amenia,06-23,100Ft,"Amenia, 103",40.82656963,1.0,REA 64G94
763.0200000000002,104,0.2091,159.55,Amenia,06-23,100Ft,"Amenia, 104",42.93374742,1.0,PFS 15R07N
907.2,105,0.2155,195.5,Amenia,06-23,100Ft,"Amenia, 105",38.20573555,1.0,Thunder 3606R2Yn
1086.48,106,0.2065,224.36,Amenia,06-23,100Ft,"Amenia, 106",44.75185574,1.0,NKS06-Q9
1177.2,107,0.2096,246.74,Amenia,06-23,100Ft,"Amenia, 107",46.84169721,1.0,NKS12-R3
3403.620000000001,108,0.2368,805.98,Amenia,06-23,100Ft,"Amenia, 108",42.69970716,1.0,Legacy 0334
3641.22,109,0.2237,814.54,Amenia,06-23,100Ft,"Amenia, 109",51.54297975,1.5,Legacy 0935N
2310.120000000001,110,0.2276,525.78,Amenia,06-23,100Ft,"Amenia, 110",54.77405818,1.0,Integra 20775N
2458.620000000001,111,0.2235,549.5,Amenia,06-23,100Ft,"Amenia, 111",57.32183208,1.5,PFS 16R09N
2273.94,112,0.2286,519.82,Amenia,06-23,100Ft,"Amenia, 112",60.80987457,1.0,PB-0987R2
1423.44,113,0.2286,325.4,Amenia,06-23,100Ft,"Amenia, 113",36.37382462,1.0,PFS 17X03
2373.3,114,0.2371,562.71,Amenia,06-23,100Ft,"Amenia, 114",48.53177654,1.0,W1037RX
1723.68,115,0.2227,383.86,Amenia,06-23,100Ft,"Amenia, 115",48.94694203,1.0,Dahlman 6703XN
1684.2600000000002,116,0.2211,372.39,Amenia,06-23,100Ft,"Amenia, 116",44.25580758,1.5,Dyna S04XT77
1858.14,117,0.2123,394.48,Amenia,06-23,100Ft,"Amenia, 117",57.89423251,1.0,Legacy 0837N
2795.04,118,0.22699999999999998,634.47,Amenia,06-23,100Ft,"Amenia, 118",31.0915641,1.5,Dyna S03RY36
2419.74,119,0.2175,526.29,Amenia,06-23,100Ft,"Amenia, 119",36.09369513,1.0,Legend 03R650
2564.46,120,0.2191,561.87,Amenia,06-23,100Ft,"Amenia, 120",31.57867228,1.5,PB-0397R2
2729.7000000000007,121,0.2218,605.45,Amenia,06-23,100Ft,"Amenia, 121",45.50501897,2.0,PB-X16061R2
2788.5600000000004,122,0.231,644.16,Amenia,06-23,100Ft,"Amenia, 122",53.72071089999999,1.0,Integra 20915N
2170.8,123,0.2194,476.27,Amenia,06-23,100Ft,"Amenia, 123",41.52132096,1.5,Channel 0807R2
2291.2200000000007,124,0.2265,518.96,Amenia,06-23,100Ft,"Amenia, 124",42.11939364,1.0,Dahlman 6707XN
1664.8200000000004,125,0.2109,351.11,Amenia,06-23,100Ft,"Amenia, 125",39.4144452,1.0,Channel 0507R2
1871.64,126,0.225,421.12,Amenia,06-23,100Ft,"Amenia, 126",45.01510195,1.0,Dyna S06XT87
4084.56,127,0.2512,1026.04,Amenia,06-23,100Ft,"Amenia, 127",49.49596562,1.0,W1048NRX
2047.68,128,0.2241,458.89,Amenia,06-23,100Ft,"Amenia, 128",0.0,,Integra 30607N
2358.7200000000007,129,0.2142,505.24,Amenia,06-23,100Ft,"Amenia, 129",52.81535657,1.5,Legend 08R765N
1981.8,130,0.2223,440.55,Amenia,06-23,100Ft,"Amenia, 130",12.39386474,2.0,PFS 17X09N
2326.32,131,0.2435,566.46,Amenia,06-23,100Ft,"Amenia, 131",19.72307899,1.5,Legend 004R752
1338.66,132,0.2187,292.76,Amenia,06-23,100Ft,"Amenia, 132",33.111939500000005,1.0,REA R0216
5165.64,133,0.2395,1237.17,Amenia,06-23,100Ft,"Amenia, 133",38.96490911,1.0,Thunder 3503R2Y
2814.48,134,0.2309,649.86,Amenia,06-23,100Ft,"Amenia, 134",42.90913227,2.0,Legend 11R760N
964.98,135,0.2093,201.97,Amenia,06-23,100Ft,"Amenia, 135",38.42953711,1.5,Legacy 0635N
2495.88,136,0.2212,552.09,Amenia,06-23,100Ft,"Amenia, 136",53.92213231,1.0,Channel 0709R2
1618.92,137,0.2221,359.56,Amenia,06-23,100Ft,"Amenia, 137",47.83935082,1.0,W3031NR2
2824.2000000000007,138,0.2278,643.35,Amenia,06-23,100Ft,"Amenia, 138",65.51822452,1.5,REA R0815
1834.92,139,0.2229,409.0,Amenia,06-23,100Ft,"Amenia, 139",52.68548522,1.0,Dyna S06RY47
2941.38,140,0.2625,772.11,Amenia,06-23,100Ft,"Amenia, 140",29.99629556,1.0,Dahlman 67009X
1816.56,201,0.2122,385.47,Amenia,06-23,100Ft,"Amenia, 201",62.66697449,1.5,Legend 11R760N
2486.1600000000008,202,0.2316,575.79,Amenia,06-23,100Ft,"Amenia, 202",48.42063083,1.0,Dahlman 6703XN
2410.56,203,0.2395,577.33,Amenia,06-23,100Ft,"Amenia, 203",41.32017138,1.0,Thunder 3601R2Y
1875.96,204,0.23,431.47,Amenia,06-23,100Ft,"Amenia, 204",57.44034724,1.5,Dahlman 6707XN
2634.120000000001,205,0.222,584.77,Amenia,06-23,100Ft,"Amenia, 205",58.21746116,1.5,NKS08-M2
4399.38,206,0.2419,1064.21,Amenia,06-23,100Ft,"Amenia, 206",32.06445154,1.0,PB-0397R2
1775.5200000000002,207,0.221,392.39,Amenia,06-23,100Ft,"Amenia, 207",43.15256555,1.5,Dyna S04XT77
2165.94,208,0.2242,485.6,Amenia,06-23,100Ft,"Amenia, 208",51.77620454,1.5,Legacy 0935N
1623.7800000000002,209,0.2132,346.19,Amenia,06-23,100Ft,"Amenia, 209",59.14885018,1.5,PFS 16R09N
1780.92,210,0.2207,393.05,Amenia,06-23,100Ft,"Amenia, 210",52.41003714,1.0,Dyna S06RY47
1810.62,211,0.2318,419.7,Amenia,06-23,100Ft,"Amenia, 211",63.12110139,1.0,REA R0815
2028.78,212,0.2395,485.89,Amenia,06-23,100Ft,"Amenia, 212",38.94702914,1.0,PFS 17X03
2673.0,213,0.2229,595.81,Amenia,06-23,100Ft,"Amenia, 213",52.34993389,1.5,PFS 17X09N
2461.32,214,0.2324,572.01,Amenia,06-23,100Ft,"Amenia, 214",66.83385152,1.0,PFS 15R07N
2116.8,215,0.2313,489.62,Amenia,06-23,100Ft,"Amenia, 215",66.23910113,1.0,NKS06-Q9
1522.26,216,0.2331,354.84,Amenia,06-23,100Ft,"Amenia, 216",41.60244525,1.0,W1037RX
5083.56,217,0.2699,1372.05,Amenia,06-23,100Ft,"Amenia, 217",46.63200028,1.0,Thunder 3503R2Y
2512.080000000001,218,0.2307,579.54,Amenia,06-23,100Ft,"Amenia, 218",54.23494105,1.5,Legacy 0635N
2175.120000000001,219,0.2472,537.69,Amenia,06-23,100Ft,"Amenia, 219",0.0,,Integra 30607N
1794.96,220,0.2247,403.33,Amenia,06-23,100Ft,"Amenia, 220",56.83508633,1.0,Legacy 0837N
2816.100000000001,221,0.2329,655.87,Amenia,06-23,100Ft,"Amenia, 221",72.68096181,1.0,Integra 20915N
1055.7,222,0.21899999999999997,231.2,Amenia,06-23,100Ft,"Amenia, 222",69.65619762,1.0,NKS12-R3
1293.84,223,0.2132,275.85,Amenia,06-23,100Ft,"Amenia, 223",43.72393909,1.5,Legacy 0334
957.42,224,0.2046,195.89,Amenia,06-23,100Ft,"Amenia, 224",46.27817636,1.0,W3031NR2
1472.5800000000004,225,0.2093,308.21,Amenia,06-23,100Ft,"Amenia, 225",27.36190049,1.5,REA R0216
2476.44,226,0.2462,609.7,Amenia,06-23,100Ft,"Amenia, 226",41.54040903,1.0,W1048NRX
1970.46,227,0.2289,451.04,Amenia,06-23,100Ft,"Amenia, 227",22.64436893,1.5,Dahlman 67009X
2457.54,228,0.2209,542.87,Amenia,06-23,100Ft,"Amenia, 228",31.56417501,1.0,Legend 004R752
1690.2,229,0.2202,372.18,Amenia,06-23,100Ft,"Amenia, 229",52.10480926,1.0,Dyna S06XT87
1085.94,230,0.2128,231.09,Amenia,06-23,100Ft,"Amenia, 230",48.38172983,1.5,Channel 0507R2
2854.98,231,0.2461,702.61,Amenia,06-23,100Ft,"Amenia, 231",26.35784393,1.0,Dyna S03RY36
2723.2200000000007,232,0.2341,637.51,Amenia,06-23,100Ft,"Amenia, 232",51.28589488,1.0,REA 64G94
784.08,233,0.2083,163.32,Amenia,06-23,100Ft,"Amenia, 233",38.68831333,1.5,Channel 0807R2
1807.92,234,0.2259,408.41,Amenia,06-23,100Ft,"Amenia, 234",38.21011493,1.5,Integra 20775N
1204.2,235,0.2258,271.91,Amenia,06-23,100Ft,"Amenia, 235",56.32822563,1.0,PB-0987R2
1634.5800000000004,236,0.2248,367.45,Amenia,06-23,100Ft,"Amenia, 236",48.4317454,1.0,Thunder 3606R2Yn
922.32,237,0.2083,192.12,Amenia,06-23,100Ft,"Amenia, 237",41.09467847,1.5,Legend 08R765N
1648.62,238,0.2103,346.7,Amenia,06-23,100Ft,"Amenia, 238",44.24058545,1.0,Channel 0709R2
2714.580000000001,239,0.22399999999999998,608.07,Amenia,06-23,100Ft,"Amenia, 239",38.97384909,1.0,PB-X16061R2
1420.2,240,0.2164,307.33,Amenia,06-23,100Ft,"Amenia, 240",20.05491539,1.0,Legend 03R650
1480.14,301,0.2245,332.29,Amenia,06-23,100Ft,"Amenia, 301",47.85034458,1.0,REA 64G94
2438.640000000001,302,0.22699999999999998,553.57,Amenia,06-23,100Ft,"Amenia, 302",14.69282929,1.5,Legend 03R650
4661.8200000000015,303,0.2428,1131.89,Amenia,06-23,100Ft,"Amenia, 303",26.34878314,1.5,Channel 0709R2
5176.980000000001,304,0.2618,1355.33,Amenia,06-23,100Ft,"Amenia, 304",20.03884759,2.0,Dyna S03RY36
2378.1600000000008,305,0.2068,491.8,Amenia,06-23,100Ft,"Amenia, 305",45.76279851,1.0,W3031NR2
2705.4,306,0.2189,592.21,Amenia,06-23,100Ft,"Amenia, 306",71.50438777,1.0,NKS12-R3
3664.44,307,0.2063,755.97,Amenia,06-23,100Ft,"Amenia, 307",32.85292166,2.0,REA R0216
5416.740000000002,308,0.2259,1223.64,Amenia,06-23,100Ft,"Amenia, 308",53.65293618,1.0,Thunder 3503R2Y
3491.100000000001,309,0.2183,762.11,Amenia,06-23,100Ft,"Amenia, 309",72.92756637,1.0,Integra 20915N
3900.42,310,0.2368,923.62,Amenia,06-23,100Ft,"Amenia, 310",68.45186735,1.0,Dyna S04XT77
6056.64,311,0.2927,1772.78,Amenia,06-23,100Ft,"Amenia, 311",55.135825399999995,1.0,Dahlman 67009X
5724.0,312,0.2919,1670.84,Amenia,06-23,100Ft,"Amenia, 312",71.60296919,1.0,Legend 11R760N
4514.4000000000015,313,0.2565,1157.94,Amenia,06-23,100Ft,"Amenia, 313",46.331333,1.0,Dahlman 6703XN
3649.86,314,0.231,843.12,Amenia,06-23,100Ft,"Amenia, 314",64.20259752,1.0,PB-0987R2
1466.1,315,0.21100000000000002,309.35,Amenia,06-23,100Ft,"Amenia, 315",32.15288487,1.5,PFS 17X03
1828.98,316,0.2105,385.0,Amenia,06-23,100Ft,"Amenia, 316",55.75056993,1.5,Legacy 0635N
3551.0400000000004,317,0.2752,977.25,Amenia,06-23,100Ft,"Amenia, 317",67.36010232,1.5,Dyna S06RY47
5712.120000000001,318,0.2838,1621.1,Amenia,06-23,100Ft,"Amenia, 318",66.23149007,1.0,PB-0397R2
3939.84,319,0.221,870.7,Amenia,06-23,100Ft,"Amenia, 319",78.09442259999999,1.0,REA R0815
3323.7000000000007,320,0.2188,727.23,Amenia,06-23,100Ft,"Amenia, 320",79.2007453,1.0,Integra 20775N
3354.48,321,0.209,701.09,Amenia,06-23,100Ft,"Amenia, 321",65.48062223,1.5,Thunder 3606R2Yn
4572.18,322,0.2259,1032.86,Amenia,06-23,100Ft,"Amenia, 322",69.36145006,1.5,PB-X16061R2
3985.2,323,0.2319,924.17,Amenia,06-23,100Ft,"Amenia, 323",66.81083711,1.0,W1037RX
3277.8,324,0.2396,785.36,Amenia,06-23,100Ft,"Amenia, 324",77.04264587,1.0,NKS08-M2
3797.28,325,0.2504,950.84,Amenia,06-23,100Ft,"Amenia, 325",63.69827384,1.0,Dyna S06XT87
5371.38,326,0.2452,1317.06,Amenia,06-23,100Ft,"Amenia, 326",63.53747498,1.5,Legacy 0935N
2750.2200000000007,327,0.2119,582.77,Amenia,06-23,100Ft,"Amenia, 327",23.91967541,2.0,PFS 17X09N
2044.98,328,0.21100000000000002,431.49,Amenia,06-23,100Ft,"Amenia, 328",42.0469073,2.0,PFS 16R09N
3031.02,329,0.23199999999999998,703.2,Amenia,06-23,100Ft,"Amenia, 329",24.71675328,1.5,Legend 004R752
2117.88,330,0.2124,449.84,Amenia,06-23,100Ft,"Amenia, 330",53.36540705,2.0,Channel 0807R2
2328.48,331,0.2353,547.89,Amenia,06-23,100Ft,"Amenia, 331",70.26254582,1.5,PFS 15R07N
2474.82,332,0.25,618.71,Amenia,06-23,100Ft,"Amenia, 332",68.41260392,1.5,Legacy 0837N
3268.620000000001,333,0.242,791.01,Amenia,06-23,100Ft,"Amenia, 333",71.33972298,1.5,Legacy 0334
3500.28,334,0.2323,813.12,Amenia,06-23,100Ft,"Amenia, 334",68.67572932,1.5,Dahlman 6707XN
5115.42,335,0.2386,1220.54,Amenia,06-23,100Ft,"Amenia, 335",72.16845321,1.5,NKS06-Q9
3128.76,336,0.21899999999999997,685.2,Amenia,06-23,100Ft,"Amenia, 336",68.32622437,1.5,Channel 0507R2
4419.3600000000015,337,0.2394,1057.99,Amenia,06-23,100Ft,"Amenia, 337",71.20876433,1.0,Thunder 3601R2Y
6032.34,338,0.2717,1638.99,Amenia,06-23,100Ft,"Amenia, 338",76.3326422,1.0,W1048NRX
2410.56,339,0.2411,581.19,Amenia,06-23,100Ft,"Amenia, 339",0.0,,Integra 30607N
1149.12,340,0.2131,244.88,Amenia,06-23,100Ft,"Amenia, 340",62.63103335,1.5,Legend 08R765N
1121.5800000000004,401,0.2065,231.61,Amenia,06-23,100Ft,"Amenia, 401",53.10862420000001,2.0,PB-X16061R2
2995.38,402,0.235,703.91,Amenia,06-23,100Ft,"Amenia, 402",52.93677118,1.5,W1048NRX
1132.92,403,0.2145,243.01,Amenia,06-23,100Ft,"Amenia, 403",64.18785863,1.5,Legacy 0837N
2086.02,404,0.2321,484.17,Amenia,06-23,100Ft,"Amenia, 404",59.41855975,1.5,Channel 0507R2
2554.2000000000007,405,0.2327,594.36,Amenia,06-23,100Ft,"Amenia, 405",65.53326544,1.5,Dahlman 6703XN
3233.5200000000004,406,0.2233,722.05,Amenia,06-23,100Ft,"Amenia, 406",77.65763202,1.5,Integra 20915N
2565.54,407,0.2185,560.57,Amenia,06-23,100Ft,"Amenia, 407",69.68821242,2.0,Legend 08R765N
3891.24,408,0.2145,834.67,Amenia,06-23,100Ft,"Amenia, 408",0.0,,Integra 30607N
3785.4,409,0.2388,903.95,Amenia,06-23,100Ft,"Amenia, 409",67.24412418,1.0,Thunder 3601R2Y
2328.48,410,0.2215,515.76,Amenia,06-23,100Ft,"Amenia, 410",67.92531452,1.0,Legacy 0635N
2202.120000000001,411,0.228,502.08,Amenia,06-23,100Ft,"Amenia, 411",61.86285941,1.5,Dyna S06RY47
3577.5000000000005,412,0.2333,834.63,Amenia,06-23,100Ft,"Amenia, 412",70.16577656,1.5,Legacy 0935N
3409.5600000000004,413,0.2266,772.61,Amenia,06-23,100Ft,"Amenia, 413",58.38031379999999,1.0,Channel 0709R2
1949.4,414,0.2257,439.98,Amenia,06-23,100Ft,"Amenia, 414",58.94008953,1.0,Dahlman 6707XN
5230.980000000001,415,0.2494,1304.61,Amenia,06-23,100Ft,"Amenia, 415",43.83097725,1.0,PB-0397R2
2508.3,416,0.2319,581.67,Amenia,06-23,100Ft,"Amenia, 416",42.11939364,1.0,PFS 17X03
3653.64,417,0.2421,884.55,Amenia,06-23,100Ft,"Amenia, 417",56.44858315,1.0,W3031NR2
5526.9000000000015,418,0.2713,1499.45,Amenia,06-23,100Ft,"Amenia, 418",67.42195732,1.0,Legacy 0334
2066.04,419,0.2363,488.21,Amenia,06-23,100Ft,"Amenia, 419",74.18432842,1.0,Channel 0807R2
4026.24,420,0.2364,951.8,Amenia,06-23,100Ft,"Amenia, 420",74.64183801,1.0,PFS 15R07N
2723.2200000000007,421,0.2212,602.38,Amenia,06-23,100Ft,"Amenia, 421",55.80819657,1.0,W1037RX
3261.600000000001,422,0.2192,714.94,Amenia,06-23,100Ft,"Amenia, 422",63.91011516,1.0,PB-0987R2
6796.440000000001,423,0.2593,1762.32,Amenia,06-23,100Ft,"Amenia, 423",52.37397519,1.0,Thunder 3503R2Y
3476.5200000000004,424,0.2494,867.04,Amenia,06-23,100Ft,"Amenia, 424",43.89150334,1.0,REA R0216
4558.14,425,0.2629,1198.34,Amenia,06-23,100Ft,"Amenia, 425",59.20321493,1.0,REA 64G94
1800.36,426,0.2333,420.02,Amenia,06-23,100Ft,"Amenia, 426",56.62390947,1.5,PFS 17X09N
1692.36,427,0.2166,366.57,Amenia,06-23,100Ft,"Amenia, 427",71.52903312,1.0,NKS12-R3
1150.2,428,0.2162,248.67,Amenia,06-23,100Ft,"Amenia, 428",52.35594421,1.5,Dyna S06XT87
1602.72,429,0.231,370.23,Amenia,06-23,100Ft,"Amenia, 429",46.54112054,1.0,NKS08-M2
1546.5600000000004,430,0.2202,340.55,Amenia,06-23,100Ft,"Amenia, 430",34.9836273,1.0,Dyna S04XT77
1908.36,431,0.2211,421.94,Amenia,06-23,100Ft,"Amenia, 431",53.0720186,2.0,PFS 16R09N
3694.68,432,0.2504,925.15,Amenia,06-23,100Ft,"Amenia, 432",38.91126922,1.0,Legend 004R752
3834.0000000000014,433,0.2445,937.41,Amenia,06-23,100Ft,"Amenia, 433",64.9322933,1.0,REA R0815
3505.140000000001,434,0.2404,842.64,Amenia,06-23,100Ft,"Amenia, 434",52.009127299999996,1.0,Integra 20775N
3217.86,435,0.2263,728.2,Amenia,06-23,100Ft,"Amenia, 435",57.57816188,1.0,Thunder 3606R2Yn
6059.88,436,0.2349,1423.47,Amenia,06-23,100Ft,"Amenia, 436",58.94685492,1.5,Dyna S03RY36
4598.64,437,0.2318,1065.96,Amenia,06-23,100Ft,"Amenia, 437",68.67572932,2.0,Legend 11R760N
7245.72,438,0.2593,1878.82,Amenia,06-23,100Ft,"Amenia, 438",67.1745373,1.0,NKS06-Q9
5917.3200000000015,439,0.26,1538.5,Amenia,06-23,100Ft,"Amenia, 439",53.7515176,1.0,Legend 03R650
2509.38,440,0.2387,598.99,Amenia,06-23,100Ft,"Amenia, 440",34.74052625,1.0,Dahlman 67009X
2731.0,101,0.1868,510.15,Colfax,06-23,100Ft,"Colfax, 101",,,Integra 20915N
3821.0,102,0.19,725.99,Colfax,06-23,100Ft,"Colfax, 102",79.31793155,2.0,Legend 08R765N
7923.0,103,0.2487,1970.45,Colfax,06-23,100Ft,"Colfax, 103",84.84317231,2.0,W1048NRX
7476.0,104,0.2178,1628.27,Colfax,06-23,100Ft,"Colfax, 104",81.10043095,2.0,Legend 03R650
3626.0,105,0.1826,662.11,Colfax,06-23,100Ft,"Colfax, 105",83.90809857,2.0,PB-X16061R2
7777.0,106,0.2456,1910.03,Colfax,06-23,100Ft,"Colfax, 106",80.61471209999999,1.5,NKS06-Q9
5491.0,107,0.2436,1337.61,Colfax,06-23,100Ft,"Colfax, 107",76.84795965,1.5,REA 64G94
7625.0,108,0.2305,1757.56,Colfax,06-23,100Ft,"Colfax, 108",76.5167575,1.5,Dahlman 6707XN
4569.0,109,0.1842,841.61,Colfax,06-23,100Ft,"Colfax, 109",78.33936601,2.5,PFS 16R09N
7582.0,110,0.2534,1921.28,Colfax,06-23,100Ft,"Colfax, 110",84.05515523,1.5,NKS08-M2
6776.0,111,0.2148,1455.48,Colfax,06-23,100Ft,"Colfax, 111",87.39774179999999,2.0,Integra 30607N
9366.0,112,0.2564,2401.44,Colfax,06-23,100Ft,"Colfax, 112",67.75053185,1.5,W3031NR2
6188.0,113,0.2242,1387.35,Colfax,06-23,100Ft,"Colfax, 113",85.57211302,2.0,Dyna S06RY47
8461.0,114,0.2518,2130.48,Colfax,06-23,100Ft,"Colfax, 114",82.70860072,2.0,Legacy 0334
7369.0,115,0.2286,1684.55,Colfax,06-23,100Ft,"Colfax, 115",87.8233574,2.0,Legacy 0837N
9904.0,116,0.243,2406.67,Colfax,06-23,100Ft,"Colfax, 116",78.86187168,1.5,PB-0397R2
9355.0,117,0.2531,2367.75,Colfax,06-23,100Ft,"Colfax, 117",84.42489594,1.5,Channel 0709R2
9299.0,118,0.2435,2264.31,Colfax,06-23,100Ft,"Colfax, 118",74.96881179,1.5,Dyna S03RY36
7119.0,119,0.233,1658.73,Colfax,06-23,100Ft,"Colfax, 119",73.15919041,2.0,Dahlman 67009X
5312.0,120,0.1884,1000.78,Colfax,06-23,100Ft,"Colfax, 120",90.11283833,2.5,Legend 11R760N
6225.0,121,0.2108,1312.23,Colfax,06-23,100Ft,"Colfax, 121",82.15972815,2.0,REA R0815
4546.0,122,0.1843,837.83,Colfax,06-23,100Ft,"Colfax, 122",75.36096287,2.5,Channel 0807R2
7306.0,123,0.2307,1685.49,Colfax,06-23,100Ft,"Colfax, 123",77.98678039,2.0,Dyna S04XT77
7580.0,124,0.2081,1577.4,Colfax,06-23,100Ft,"Colfax, 124",88.93330442,2.0,Legacy 0935N
7755.0,125,0.2324,1802.26,Colfax,06-23,100Ft,"Colfax, 125",85.31943774,1.5,Thunder 3606R2Yn
7992.0,126,0.2491,1990.81,Colfax,06-23,100Ft,"Colfax, 126",75.35229471,2.0,W1037RX
6010.0,127,0.2035,1223.03,Colfax,06-23,100Ft,"Colfax, 127",79.58613099,2.0,Channel 0507R2
7121.0,128,0.2221,1581.57,Colfax,06-23,100Ft,"Colfax, 128",81.85954411,2.0,PB-0987R2
6280.0,129,0.2248,1411.74,Colfax,06-23,100Ft,"Colfax, 129",72.79621509,2.0,REA R0216
6827.0,130,0.221,1508.77,Colfax,06-23,100Ft,"Colfax, 130",67.39543941,2.0,Legend 004R752
7501.0,131,0.2343,1757.48,Colfax,06-23,100Ft,"Colfax, 131",72.65148404,2.0,PFS 17X03
7137.0,132,0.2448,1747.14,Colfax,06-23,100Ft,"Colfax, 132",91.58832790000001,1.5,NKS12-R3
5029.0,133,0.212,1066.15,Colfax,06-23,100Ft,"Colfax, 133",91.14730895,2.0,Integra 20775N
6011.0,134,0.2113,1270.12,Colfax,06-23,100Ft,"Colfax, 134",77.81634689,2.0,Thunder 3601R2Y
2116.0,135,0.1586,335.6,Colfax,06-23,100Ft,"Colfax, 135",61.94791004,3.0,PFS 17X09N
6755.0,136,0.1997,1348.97,Colfax,06-23,100Ft,"Colfax, 136",84.30813254,2.5,PFS 15R07N
9351.0,137,0.2579,2411.62,Colfax,06-23,100Ft,"Colfax, 137",84.77488414,1.5,Thunder 3503R2Y
6239.0,138,0.2167,1351.99,Colfax,06-23,100Ft,"Colfax, 138",77.16351683,2.0,Dyna S06XT87
7801.0,139,0.2424,1890.96,Colfax,06-23,100Ft,"Colfax, 139",82.12191444,2.0,Dahlman 6703XN
8375.0,140,0.2331,1952.21,Colfax,06-23,100Ft,"Colfax, 140",87.65186681,2.0,Legacy 0635N
5072.0,201,0.1821,923.61,Colfax,06-23,100Ft,"Colfax, 201",82.12339437,2.5,Integra 30607N
5697.0,202,0.2037,1160.48,Colfax,06-23,100Ft,"Colfax, 202",81.61595982,2.0,Dahlman 6707XN
6272.0,203,0.1973,1237.47,Colfax,06-23,100Ft,"Colfax, 203",86.63204447,2.5,PFS 16R09N
7245.0,204,0.2187,1584.48,Colfax,06-23,100Ft,"Colfax, 204",86.04756298,2.0,PFS 15R07N
6820.0,205,0.235,1602.7,Colfax,06-23,100Ft,"Colfax, 205",82.57395735,2.0,NKS08-M2
8536.0,206,0.2224,1898.41,Colfax,06-23,100Ft,"Colfax, 206",68.52737395,2.0,Legend 004R752
9953.0,207,0.2467,2455.41,Colfax,06-23,100Ft,"Colfax, 207",90.90626168,2.0,NKS06-Q9
5976.0,208,0.2299,1373.88,Colfax,06-23,100Ft,"Colfax, 208",75.63224298,2.5,W1037RX
4821.0,209,0.205,988.3,Colfax,06-23,100Ft,"Colfax, 209",79.12801735,2.0,Legacy 0635N
8440.0,210,0.2249,1898.16,Colfax,06-23,100Ft,"Colfax, 210",79.7361475,2.0,Thunder 3606R2Yn
6629.0,211,0.22899999999999998,1518.04,Colfax,06-23,100Ft,"Colfax, 211",82.59908595,2.0,PB-X16061R2
8652.0,212,0.2399,2075.61,Colfax,06-23,100Ft,"Colfax, 212",92.64140335,2.0,Legacy 0334
7327.0,213,0.2126,1557.72,Colfax,06-23,100Ft,"Colfax, 213",80.43319423,2.5,PFS 17X03
6240.0,214,0.2127,1327.25,Colfax,06-23,100Ft,"Colfax, 214",71.58587449,2.0,Dahlman 67009X
7914.0,215,0.233,1843.96,Colfax,06-23,100Ft,"Colfax, 215",76.42007885,2.5,Legend 03R650
6656.0,216,0.2069,1377.13,Colfax,06-23,100Ft,"Colfax, 216",81.69934931,2.0,Channel 0507R2
8159.0,217,0.2304,1879.83,Colfax,06-23,100Ft,"Colfax, 217",93.75246786,2.5,REA R0815
6902.0,218,0.2234,1541.91,Colfax,06-23,100Ft,"Colfax, 218",70.25263935,2.0,Thunder 3601R2Y
10097.0,219,0.2393,2416.21,Colfax,06-23,100Ft,"Colfax, 219",76.05094218,2.0,PB-0397R2
5633.0,220,0.1956,1101.81,Colfax,06-23,100Ft,"Colfax, 220",76.84143588,2.5,Legend 08R765N
9565.0,221,0.2513,2403.68,Colfax,06-23,100Ft,"Colfax, 221",79.02801641,2.0,W1048NRX
8052.0,222,0.2429,1955.83,Colfax,06-23,100Ft,"Colfax, 222",90.84283613,2.0,PB-0987R2
6013.0,223,0.2079,1250.1,Colfax,06-23,100Ft,"Colfax, 223",87.5704707,2.5,Legend 11R760N
5263.0,224,0.1934,1017.86,Colfax,06-23,100Ft,"Colfax, 224",83.47218387,2.5,Channel 0807R2
7282.0,225,0.2258,1644.28,Colfax,06-23,100Ft,"Colfax, 225",76.58247844,2.5,REA R0216
7202.0,226,0.2094,1508.1,Colfax,06-23,100Ft,"Colfax, 226",82.44686465,2.0,Legacy 0935N
6832.0,227,0.2429,1659.49,Colfax,06-23,100Ft,"Colfax, 227",83.94884193,2.0,Dahlman 6703XN
6703.0,228,0.2412,1616.76,Colfax,06-23,100Ft,"Colfax, 228",91.32589716,1.5,NKS12-R3
2575.0,229,0.1623,417.92,Colfax,06-23,100Ft,"Colfax, 229",81.82260628,3.0,PFS 17X09N
6800.0,230,0.2304,1566.72,Colfax,06-23,100Ft,"Colfax, 230",73.19307778,2.5,W3031NR2
9428.0,231,0.2427,2288.18,Colfax,06-23,100Ft,"Colfax, 231",91.27334456,2.5,Channel 0709R2
5421.0,232,0.2069,1121.6,Colfax,06-23,100Ft,"Colfax, 232",75.49306922,2.5,Dyna S06XT87
5717.0,233,0.2193,1253.74,Colfax,06-23,100Ft,"Colfax, 233",77.9239891,2.5,Dyna S04XT77
8326.0,234,0.2293,1909.15,Colfax,06-23,100Ft,"Colfax, 234",82.09355416,2.5,Dyna S03RY36
6273.0,235,0.2106,1321.09,Colfax,06-23,100Ft,"Colfax, 235",86.53237576,3.0,Integra 20775N
6997.0,236,0.2063,1443.48,Colfax,06-23,100Ft,"Colfax, 236",78.72016090000001,2.5,Dyna S06RY47
6596.0,237,0.2069,1364.71,Colfax,06-23,100Ft,"Colfax, 237",91.3469182,2.5,Integra 20915N
9254.0,238,0.2467,2282.96,Colfax,06-23,100Ft,"Colfax, 238",75.0638293,2.0,Thunder 3503R2Y
8616.0,239,0.2498,2152.28,Colfax,06-23,100Ft,"Colfax, 239",78.90747767,1.5,REA 64G94
6736.0,240,0.2265,1525.7,Colfax,06-23,100Ft,"Colfax, 240",91.52508357,2.5,Legacy 0837N
6633.0,301,0.2292,1520.28,Colfax,06-23,100Ft,"Colfax, 301",85.64695516,1.5,Thunder 3503R2Y
3830.0,302,0.2356,902.35,Colfax,06-23,100Ft,"Colfax, 302",86.79151441,1.5,Dyna S06RY47
5041.0,303,0.2607,1314.19,Colfax,06-23,100Ft,"Colfax, 303",90.24165258,1.0,Legacy 0334
4768.0,304,0.278,1325.5,Colfax,06-23,100Ft,"Colfax, 304",95.24994496,1.0,Legend 11R760N
4146.0,305,0.2513,1041.89,Colfax,06-23,100Ft,"Colfax, 305",81.38161753,1.0,Dyna S06XT87
4457.0,306,0.2608,1162.39,Colfax,06-23,100Ft,"Colfax, 306",80.69604781,1.0,Dahlman 67009X
3420.0,307,0.2538,868.0,Colfax,06-23,100Ft,"Colfax, 307",96.07447703,1.0,NKS08-M2
7272.0,308,0.2709,1969.98,Colfax,06-23,100Ft,"Colfax, 308",67.68375381,1.0,REA 64G94
7749.0,309,0.2956,2290.6,Colfax,06-23,100Ft,"Colfax, 309",85.60165119999999,1.0,PB-X16061R2
8318.0,310,0.2861,2379.78,Colfax,06-23,100Ft,"Colfax, 310",91.07273863,1.0,Integra 20915N
10079.0,311,0.3082,3106.35,Colfax,06-23,100Ft,"Colfax, 311",78.01369094,1.0,W1048NRX
5705.0,312,0.2432,1387.46,Colfax,06-23,100Ft,"Colfax, 312",70.48825015,1.0,Channel 0507R2
7652.0,313,0.2664,2038.49,Colfax,06-23,100Ft,"Colfax, 313",90.60112441,1.5,NKS12-R3
6275.0,314,0.2335,1465.21,Colfax,06-23,100Ft,"Colfax, 314",73.37912604,1.5,Dyna S04XT77
5396.0,315,0.2145,1157.44,Colfax,06-23,100Ft,"Colfax, 315",82.42442408,2.5,Legend 08R765N
6708.0,316,0.2181,1463.01,Colfax,06-23,100Ft,"Colfax, 316",79.30074624,2.0,Thunder 3606R2Yn
4293.0,317,0.2059,883.93,Colfax,06-23,100Ft,"Colfax, 317",82.11397115,2.0,Legacy 0635N
8271.0,318,0.2786,2304.3,Colfax,06-23,100Ft,"Colfax, 318",70.02868678,1.5,REA R0216
5179.0,319,0.2446,1266.78,Colfax,06-23,100Ft,"Colfax, 319",77.33222878,2.0,PFS 17X09N
10430.0,320,0.297,3097.71,Colfax,06-23,100Ft,"Colfax, 320",78.64767456,1.0,Legacy 0935N
7472.0,321,0.2791,2085.44,Colfax,06-23,100Ft,"Colfax, 321",77.91501892,1.0,Dyna S03RY36
8126.0,322,0.29100000000000004,2364.67,Colfax,06-23,100Ft,"Colfax, 322",85.43426817,1.0,PFS 15R07N
8742.0,323,0.2905,2539.55,Colfax,06-23,100Ft,"Colfax, 323",80.26683809,1.0,Channel 0807R2
8045.0,324,0.284,2284.78,Colfax,06-23,100Ft,"Colfax, 324",71.01939378,1.0,PFS 17X03
7881.0,325,0.2692,2121.57,Colfax,06-23,100Ft,"Colfax, 325",81.02401828,1.5,Dahlman 6703XN
3541.0,326,0.1782,631.01,Colfax,06-23,100Ft,"Colfax, 326",72.16845321,2.5,PFS 16R09N
6722.0,327,0.2204,1481.53,Colfax,06-23,100Ft,"Colfax, 327",69.79050876,,W3031NR2
8444.0,328,0.2613,2206.42,Colfax,06-23,100Ft,"Colfax, 328",74.01398553,2.0,Channel 0709R2
6628.0,329,0.2077,1376.64,Colfax,06-23,100Ft,"Colfax, 329",86.26550523,2.5,Integra 20775N
8429.0,330,0.2288,1928.56,Colfax,06-23,100Ft,"Colfax, 330",79.97689275,2.0,NKS06-Q9
5415.0,331,0.2087,1130.11,Colfax,06-23,100Ft,"Colfax, 331",65.98793598,2.5,Thunder 3601R2Y
7529.0,332,0.2478,1865.69,Colfax,06-23,100Ft,"Colfax, 332",83.73150374,2.0,PB-0987R2
6240.0,333,0.2364,1475.14,Colfax,06-23,100Ft,"Colfax, 333",76.54312440000001,2.0,Integra 30607N
9611.0,334,0.2623,2520.97,Colfax,06-23,100Ft,"Colfax, 334",67.05659599,1.5,Legend 004R752
7092.0,335,0.2894,2052.42,Colfax,06-23,100Ft,"Colfax, 335",85.95840479,1.5,REA R0815
6117.0,336,0.2607,1594.7,Colfax,06-23,100Ft,"Colfax, 336",75.0638293,2.0,W1037RX
7908.0,337,0.256,2024.45,Colfax,06-23,100Ft,"Colfax, 337",86.38939646,2.0,Legacy 0837N
8511.0,338,0.2535,2157.54,Colfax,06-23,100Ft,"Colfax, 338",73.87034178,1.5,Legend 03R650
7894.0,339,0.244,1926.14,Colfax,06-23,100Ft,"Colfax, 339",70.88891837,2.0,Dahlman 6707XN
9967.0,340,0.2455,2446.9,Colfax,06-23,100Ft,"Colfax, 340",74.02002606,2.0,PB-0397R2
7256.0,401,0.223,1618.09,Colfax,06-23,100Ft,"Colfax, 401",85.34888531,2.5,PFS 15R07N
3195.0,402,0.1669,533.25,Colfax,06-23,100Ft,"Colfax, 402",74.42262725,3.0,Legend 11R760N
7856.0,403,0.2366,1858.73,Colfax,06-23,100Ft,"Colfax, 403",68.03214126,2.0,Channel 0709R2
6379.0,404,0.2285,1457.6,Colfax,06-23,100Ft,"Colfax, 404",68.89137617,2.0,Dahlman 6703XN
7576.0,405,0.2318,1756.12,Colfax,06-23,100Ft,"Colfax, 405",87.17714172,2.5,Dyna S06RY47
8160.0,406,0.2419,1973.9,Colfax,06-23,100Ft,"Colfax, 406",77.62199291,2.0,Dyna S03RY36
6803.0,407,0.2308,1570.13,Colfax,06-23,100Ft,"Colfax, 407",53.68685375,2.5,Legend 004R752
4872.0,408,0.1995,971.96,Colfax,06-23,100Ft,"Colfax, 408",73.81093318,3.0,Integra 30607N
5088.0,409,0.1945,989.62,Colfax,06-23,100Ft,"Colfax, 409",57.69489509,2.5,W3031NR2
6241.0,410,0.2204,1375.52,Colfax,06-23,100Ft,"Colfax, 410",89.55505597,2.5,Integra 20915N
8114.0,411,0.233,1890.56,Colfax,06-23,100Ft,"Colfax, 411",79.14619934,2.5,Thunder 3606R2Yn
5199.0,412,0.2209,1148.46,Colfax,06-23,100Ft,"Colfax, 412",71.07647676,2.5,PFS 17X03
5678.0,413,0.2329,1322.41,Colfax,06-23,100Ft,"Colfax, 413",88.59183337,2.0,NKS12-R3
6520.0,414,0.2163,1410.28,Colfax,06-23,100Ft,"Colfax, 414",82.79887641,2.5,Legacy 0635N
8513.0,415,0.2448,2083.98,Colfax,06-23,100Ft,"Colfax, 415",90.70698466,2.0,Integra 20775N
5099.0,416,0.2056,1048.35,Colfax,06-23,100Ft,"Colfax, 416",80.37774218,2.5,REA R0815
4805.0,417,0.2008,964.84,Colfax,06-23,100Ft,"Colfax, 417",70.91338251,2.5,Dyna S06XT87
9742.0,418,0.237,2308.85,Colfax,06-23,100Ft,"Colfax, 418",73.74995405,2.0,PB-0397R2
5364.0,419,0.2025,1086.21,Colfax,06-23,100Ft,"Colfax, 419",58.40082139,3.0,Thunder 3601R2Y
3160.0,420,0.1767,558.37,Colfax,06-23,100Ft,"Colfax, 420",69.60017172,3.0,Legacy 0837N
8550.0,421,0.2387,2040.88,Colfax,06-23,100Ft,"Colfax, 421",72.33085281,2.0,W1048NRX
4731.0,422,0.1997,944.78,Colfax,06-23,100Ft,"Colfax, 422",62.18892711,3.0,W1037RX
4062.0,423,0.2012,817.27,Colfax,06-23,100Ft,"Colfax, 423",76.18289751,2.5,NKS08-M2
4822.0,424,0.1811,873.26,Colfax,06-23,100Ft,"Colfax, 424",53.9918098,3.0,Legacy 0935N
4686.0,425,0.1861,872.06,Colfax,06-23,100Ft,"Colfax, 425",61.720907,2.5,REA R0216
5965.0,426,0.2029,1210.3,Colfax,06-23,100Ft,"Colfax, 426",72.16845321,2.5,PB-0987R2
8559.0,427,0.244,2088.4,Colfax,06-23,100Ft,"Colfax, 427",76.0523617,2.0,Dahlman 67009X
11048.0,428,0.2812,3106.7,Colfax,06-23,100Ft,"Colfax, 428",80.2760801,1.5,Thunder 3503R2Y
6693.0,429,0.2196,1469.78,Colfax,06-23,100Ft,"Colfax, 429",78.7111001,2.5,Dyna S04XT77
7436.0,430,0.2401,1785.38,Colfax,06-23,100Ft,"Colfax, 430",73.8351255,2.5,NKS06-Q9
5486.0,431,0.2187,1199.79,Colfax,06-23,100Ft,"Colfax, 431",72.4725636,2.5,Legend 03R650
7950.0,432,0.22899999999999998,1820.55,Colfax,06-23,100Ft,"Colfax, 432",72.01064442,2.0,REA 64G94
3324.0,433,0.1821,605.3,Colfax,06-23,100Ft,"Colfax, 433",63.49362075,3.0,Channel 0807R2
1825.0,434,0.1758,320.84,Colfax,06-23,100Ft,"Colfax, 434",42.96192648,3.0,Legend 08R765N
1637.0,435,0.1717,281.07,Colfax,06-23,100Ft,"Colfax, 435",33.77854197,3.5,PFS 17X09N
5825.0,436,0.2193,1277.42,Colfax,06-23,100Ft,"Colfax, 436",65.98793598,2.5,Channel 0507R2
5416.0,437,0.1907,1032.83,Colfax,06-23,100Ft,"Colfax, 437",68.1927287,2.5,Dahlman 6707XN
2483.0,438,0.17600000000000002,437.01,Colfax,06-23,100Ft,"Colfax, 438",67.75835433,3.0,PFS 16R09N
6308.0,439,0.2213,1395.96,Colfax,06-23,100Ft,"Colfax, 439",75.28430857,2.5,PB-X16061R2
7457.0,440,0.2426,1809.07,Colfax,06-23,100Ft,"Colfax, 440",82.62762745,2.0,Legacy 0334
3039.0,101,0.1597,485.33,Leonard,06-23,100Ft,"Leonard, 101",42.62359651,3.0,Channel 0507R2
2652.0,102,0.1819,482.4,Leonard,06-23,100Ft,"Leonard, 102",49.11408344,3.0,Channel 0807R2
4167.0,103,0.2156,898.41,Leonard,06-23,100Ft,"Leonard, 103",58.56246592,2.5,NKS08-M2
5057.0,104,0.2025,1024.04,Leonard,06-23,100Ft,"Leonard, 104",0.0,2.5,Dahlman 6703XN
4991.0,105,0.1958,977.24,Leonard,06-23,100Ft,"Leonard, 105",60.35254619,3.0,PB-0987R2
4417.0,106,0.1967,868.82,Leonard,06-23,100Ft,"Leonard, 106",57.06544187,2.0,Legacy 0334
4691.0,107,0.1853,869.24,Leonard,06-23,100Ft,"Leonard, 107",0.0,,Integra 30607N
3220.0,108,0.1691,544.5,Leonard,06-23,100Ft,"Leonard, 108",45.54328572,2.5,Dyna S06RY47
3465.0,109,0.1701,589.4,Leonard,06-23,100Ft,"Leonard, 109",0.0,2.5,W1037RX
4206.0,110,0.175,736.05,Leonard,06-23,100Ft,"Leonard, 110",60.75502657,3.0,Legend 11R760N
5682.0,111,0.1972,1120.49,Leonard,06-23,100Ft,"Leonard, 111",55.8062334,2.5,Legend 03R650
4915.0,112,0.1906,936.8,Leonard,06-23,100Ft,"Leonard, 112",60.19917718,2.5,Integra 20915N
5130.0,113,0.2157,1106.54,Leonard,06-23,100Ft,"Leonard, 113",0.0,2.0,Dahlman 67009X
4963.0,114,0.1623,805.49,Leonard,06-23,100Ft,"Leonard, 114",59.55507568,2.5,REA R0815
2021.0,115,0.1372,277.28,Leonard,06-23,100Ft,"Leonard, 115",0.0,3.5,PFS 17X09N
5571.0,116,0.2041,1137.04,Leonard,06-23,100Ft,"Leonard, 116",54.79121328,2.0,NKS06-Q9
3977.0,117,0.2092,831.99,Leonard,06-23,100Ft,"Leonard, 117",50.84732234,2.0,Dyna S03RY36
3767.0,118,0.1984,747.37,Leonard,06-23,100Ft,"Leonard, 118",59.83230572,2.5,NKS12-R3
4205.0,119,0.196,824.18,Leonard,06-23,100Ft,"Leonard, 119",53.647439299999995,2.0,Legacy 0635N
6843.0,120,0.1977,1352.86,Leonard,06-23,100Ft,"Leonard, 120",60.8800655,2.0,Thunder 3503R2Y
3846.0,121,0.1891,727.28,Leonard,06-23,100Ft,"Leonard, 121",0.0,,Dahlman 6707XN
3974.0,122,0.1863,740.36,Leonard,06-23,100Ft,"Leonard, 122",47.10485282,2.0,Integra 20775N
4588.0,123,0.1854,850.62,Leonard,06-23,100Ft,"Leonard, 123",48.04693356,2.5,W3031NR2
4330.0,124,0.1789,774.64,Leonard,06-23,100Ft,"Leonard, 124",32.30870029,2.5,Legend 004R752
3786.0,125,0.1774,671.64,Leonard,06-23,100Ft,"Leonard, 125",35.34062251,3.0,Legacy 0935N
4095.0,126,0.2014,824.73,Leonard,06-23,100Ft,"Leonard, 126",49.22139342,2.5,Legacy 0837N
3572.0,127,0.2024,722.97,Leonard,06-23,100Ft,"Leonard, 127",0.0,,Dyna S06XT87
4022.0,128,0.1508,606.52,Leonard,06-23,100Ft,"Leonard, 128",37.62261318,3.0,REA R0216
4878.0,129,0.1887,920.48,Leonard,06-23,100Ft,"Leonard, 129",43.10671794,2.5,REA 64G94
5592.0,130,0.2167,1211.79,Leonard,06-23,100Ft,"Leonard, 130",0.0,,W1048NRX
2869.0,131,0.1948,558.88,Leonard,06-23,100Ft,"Leonard, 131",36.58282689,2.5,Thunder 3601R2Y
2828.0,132,0.1886,533.36,Leonard,06-23,100Ft,"Leonard, 132",42.98910886,2.0,Legend 08R765N
6785.0,133,0.2106,1428.92,Leonard,06-23,100Ft,"Leonard, 133",51.80000422,2.0,PB-0397R2
4326.0,134,0.182,787.33,Leonard,06-23,100Ft,"Leonard, 134",47.53653915,2.5,Thunder 3606R2Yn
3951.0,135,0.1799,710.78,Leonard,06-23,100Ft,"Leonard, 135",,,PFS 15R07N
4221.0,136,0.1507,636.1,Leonard,06-23,100Ft,"Leonard, 136",0.0,,PFS 17X03
3927.0,137,0.1784,700.58,Leonard,06-23,100Ft,"Leonard, 137",43.15156886,2.5,PFS 16R09N
2562.0,138,0.1683,431.18,Leonard,06-23,100Ft,"Leonard, 138",0.0,,Dyna S04XT77
4398.0,139,0.188,826.82,Leonard,06-23,100Ft,"Leonard, 139",50.09711897,2.5,Channel 0709R2
3341.0,140,0.1966,656.84,Leonard,06-23,100Ft,"Leonard, 140",33.41692576,2.5,PB-X16061R2
6679.0,201,0.2135,1425.97,Leonard,06-23,100Ft,"Leonard, 201",49.32305551,1.5,Thunder 3503R2Y
3912.0,202,0.1961,767.14,Leonard,06-23,100Ft,"Leonard, 202",45.09652827,2.0,Legacy 0837N
4141.0,203,0.2017,835.24,Leonard,06-23,100Ft,"Leonard, 203",48.25143564,2.5,Legend 11R760N
4530.0,204,0.217,983.01,Leonard,06-23,100Ft,"Leonard, 204",47.68036412,2.0,Legacy 0334
4607.0,205,0.1846,850.45,Leonard,06-23,100Ft,"Leonard, 205",42.54310647,2.5,Integra 20915N
6493.0,206,0.2129,1382.36,Leonard,06-23,100Ft,"Leonard, 206",0.0,,W1048NRX
3333.0,207,0.1635,544.95,Leonard,06-23,100Ft,"Leonard, 207",37.06661278,3.0,Channel 0807R2
3550.0,208,0.1956,694.38,Leonard,06-23,100Ft,"Leonard, 208",50.55487018,1.5,NKS12-R3
4321.0,209,0.1983,856.85,Leonard,06-23,100Ft,"Leonard, 209",0.0,,Dahlman 6703XN
6006.0,210,0.2083,1251.05,Leonard,06-23,100Ft,"Leonard, 210",49.82740939,2.0,NKS06-Q9
4049.0,211,0.2029,821.54,Leonard,06-23,100Ft,"Leonard, 211",40.46151032,2.0,Legend 03R650
4437.0,212,0.2065,916.24,Leonard,06-23,100Ft,"Leonard, 212",49.91907441,2.5,Integra 20775N
4444.0,213,0.1808,803.48,Leonard,06-23,100Ft,"Leonard, 213",41.94258738,2.5,Thunder 3606R2Yn
4598.0,214,0.1718,789.94,Leonard,06-23,100Ft,"Leonard, 214",0.0,,W1037RX
4464.0,215,0.2116,944.58,Leonard,06-23,100Ft,"Leonard, 215",79.4638707,1.5,NKS08-M2
4676.0,216,0.2148,1004.4,Leonard,06-23,100Ft,"Leonard, 216",45.3633988,2.0,Legend 004R752
4908.0,217,0.2272,1115.1,Leonard,06-23,100Ft,"Leonard, 217",0.0,,PFS 17X03
3269.0,218,0.2172,710.03,Leonard,06-23,100Ft,"Leonard, 218",0.0,,Dahlman 6707XN
3492.0,219,0.2075,724.59,Leonard,06-23,100Ft,"Leonard, 219",51.73833043,2.0,Legacy 0635N
4326.0,220,0.2084,901.54,Leonard,06-23,100Ft,"Leonard, 220",0.0,,Dyna S04XT77
4747.0,221,0.213,1011.11,Leonard,06-23,100Ft,"Leonard, 221",63.3477118,1.5,REA R0815
5128.0,222,0.195,999.96,Leonard,06-23,100Ft,"Leonard, 222",52.07490865,2.0,PB-0987R2
4451.0,223,0.1969,876.4,Leonard,06-23,100Ft,"Leonard, 223",0.0,,Dahlman 67009X
4271.0,224,0.2037,870.0,Leonard,06-23,100Ft,"Leonard, 224",50.322913899999996,1.5,W3031NR2
4080.0,225,0.20800000000000002,848.64,Leonard,06-23,100Ft,"Leonard, 225",52.08686889,1.5,PFS 15R07N
3404.0,226,0.1996,679.44,Leonard,06-23,100Ft,"Leonard, 226",46.41106797,2.0,Legend 08R765N
4684.0,227,0.1962,919.0,Leonard,06-23,100Ft,"Leonard, 227",55.86582321,2.0,Dyna S06RY47
4970.0,228,0.1747,868.26,Leonard,06-23,100Ft,"Leonard, 228",53.54203209,2.5,REA R0216
3888.0,229,0.1711,665.24,Leonard,06-23,100Ft,"Leonard, 229",0.0,,PFS 17X09N
3580.0,230,0.2135,764.33,Leonard,06-23,100Ft,"Leonard, 230",0.0,,Dyna S06XT87
5362.0,231,0.2395,1284.2,Leonard,06-23,100Ft,"Leonard, 231",64.87309613,2.0,PB-0397R2
3876.0,232,0.1891,732.95,Leonard,06-23,100Ft,"Leonard, 232",54.85433679,2.5,PB-X16061R2
4308.0,233,0.2132,918.47,Leonard,06-23,100Ft,"Leonard, 233",54.20383233,2.0,Dyna S03RY36
4355.0,234,0.1907,830.5,Leonard,06-23,100Ft,"Leonard, 234",52.83963949,2.0,Legacy 0935N
4112.0,235,0.1955,803.9,Leonard,06-23,100Ft,"Leonard, 235",,,Integra 30607N
5626.0,236,0.2225,1251.79,Leonard,06-23,100Ft,"Leonard, 236",60.99604364,1.0,Channel 0709R2
2701.0,237,0.1915,517.24,Leonard,06-23,100Ft,"Leonard, 237",35.2283593,1.5,Channel 0507R2
4098.0,238,0.2134,874.51,Leonard,06-23,100Ft,"Leonard, 238",54.93286366,1.0,REA 64G94
4516.0,239,0.2007,906.36,Leonard,06-23,100Ft,"Leonard, 239",57.97801463,2.0,Thunder 3601R2Y
3203.0,240,0.1953,625.55,Leonard,06-23,100Ft,"Leonard, 240",56.77051309,2.0,PFS 16R09N
4413.0,301,0.2007,885.69,Leonard,06-23,100Ft,"Leonard, 301",46.17908149,2.5,Thunder 3606R2Yn
2464.0,302,0.1537,378.72,Leonard,06-23,100Ft,"Leonard, 302",0.0,,PFS 17X09N
5307.0,303,0.1824,968.0,Leonard,06-23,100Ft,"Leonard, 303",50.58966362,3.0,PFS 15R07N
4982.0,304,0.1945,969.0,Leonard,06-23,100Ft,"Leonard, 304",0.0,,PFS 17X03
4564.0,305,0.2015,919.65,Leonard,06-23,100Ft,"Leonard, 305",56.88075272,2.5,Legend 11R760N
4054.0,306,0.2001,811.21,Leonard,06-23,100Ft,"Leonard, 306",0.0,,Dahlman 6707XN
5232.0,307,0.2179,1140.05,Leonard,06-23,100Ft,"Leonard, 307",53.79830149,2.5,PB-X16061R2
4326.0,308,0.2319,1003.2,Leonard,06-23,100Ft,"Leonard, 308",64.52199044,2.5,NKS08-M2
5042.0,309,0.1959,987.73,Leonard,06-23,100Ft,"Leonard, 309",56.338192500000005,2.5,Legacy 0837N
5145.0,310,0.1757,903.98,Leonard,06-23,100Ft,"Leonard, 310",52.23244562,3.0,REA R0216
5341.0,311,0.1972,1053.25,Leonard,06-23,100Ft,"Leonard, 311",54.06695397,2.5,Legacy 0334
4731.0,312,0.1891,894.63,Leonard,06-23,100Ft,"Leonard, 312",0.0,,Dyna S06XT87
5829.0,313,0.1927,1123.25,Leonard,06-23,100Ft,"Leonard, 313",58.40042876,3.0,Integra 20915N
5212.0,314,0.1886,982.98,Leonard,06-23,100Ft,"Leonard, 314",51.8238039,2.5,Legend 03R650
5674.0,315,0.2065,1171.68,Leonard,06-23,100Ft,"Leonard, 315",0.0,,W1048NRX
7723.0,316,0.2093,1616.42,Leonard,06-23,100Ft,"Leonard, 316",46.88860191,2.5,NKS06-Q9
3296.0,317,0.1891,623.27,Leonard,06-23,100Ft,"Leonard, 317",0.0,,Dahlman 6703XN
4556.0,318,0.1748,796.39,Leonard,06-23,100Ft,"Leonard, 318",44.03777472,2.5,Dyna S06RY47
5080.0,319,0.2182,1108.46,Leonard,06-23,100Ft,"Leonard, 319",0.0,,Dahlman 67009X
3954.0,320,0.1855,733.47,Leonard,06-23,100Ft,"Leonard, 320",,,Integra 30607N
4481.0,321,0.2006,898.89,Leonard,06-23,100Ft,"Leonard, 321",37.12363536,3.0,Legend 004R752
3333.0,322,0.1993,664.27,Leonard,06-23,100Ft,"Leonard, 322",0.0,,W1037RX
3352.0,323,0.1923,644.59,Leonard,06-23,100Ft,"Leonard, 323",55.4939683,2.5,NKS12-R3
6546.0,324,0.2132,1395.61,Leonard,06-23,100Ft,"Leonard, 324",51.98445174,2.0,Thunder 3503R2Y
4659.0,325,0.1825,850.27,Leonard,06-23,100Ft,"Leonard, 325",66.36848924,2.5,W3031NR2
4956.0,326,0.1911,947.09,Leonard,06-23,100Ft,"Leonard, 326",49.78723988,2.5,REA 64G94
4442.0,327,0.2043,907.5,Leonard,06-23,100Ft,"Leonard, 327",39.25518668,2.5,Legacy 0635N
4071.0,328,0.2146,873.64,Leonard,06-23,100Ft,"Leonard, 328",50.52007674,2.0,Channel 0709R2
2719.0,329,0.184,500.3,Leonard,06-23,100Ft,"Leonard, 329",34.88993871,2.0,Legend 08R765N
3625.0,330,0.188,681.5,Leonard,06-23,100Ft,"Leonard, 330",43.8007142,2.5,Channel 0807R2
6857.0,331,0.2187,1499.63,Leonard,06-23,100Ft,"Leonard, 331",57.16145606,1.5,PB-0397R2
3948.0,332,0.1944,767.49,Leonard,06-23,100Ft,"Leonard, 332",0.0,,Dyna S04XT77
4633.0,333,0.1971,913.16,Leonard,06-23,100Ft,"Leonard, 333",53.76115224,2.0,PB-0987R2
4364.0,334,0.1967,858.4,Leonard,06-23,100Ft,"Leonard, 334",54.54161866,2.5,Integra 20775N
4378.0,335,0.19899999999999998,871.22,Leonard,06-23,100Ft,"Leonard, 335",49.3824037,2.5,Legacy 0935N
4561.0,336,0.204,930.44,Leonard,06-23,100Ft,"Leonard, 336",60.97746901,2.0,Thunder 3601R2Y
5013.0,337,0.2087,1046.21,Leonard,06-23,100Ft,"Leonard, 337",54.25647554,2.0,Dyna S03RY36
3459.0,338,0.1669,577.31,Leonard,06-23,100Ft,"Leonard, 338",35.96953208,2.5,PFS 16R09N
4466.0,339,0.2003,894.54,Leonard,06-23,100Ft,"Leonard, 339",56.98679419,2.0,REA R0815
3594.0,340,0.1866,670.64,Leonard,06-23,100Ft,"Leonard, 340",43.54347832,2.5,Channel 0507R2
3214.0,401,0.1939,623.19,Leonard,06-23,100Ft,"Leonard, 401",,,Integra 30607N
5438.0,402,0.2041,1109.9,Leonard,06-23,100Ft,"Leonard, 402",49.27787236,2.0,Dyna S03RY36
4018.0,403,0.1822,732.08,Leonard,06-23,100Ft,"Leonard, 403",49.3767256,3.0,Channel 0709R2
3266.0,404,0.1683,549.67,Leonard,06-23,100Ft,"Leonard, 404",41.55472508,2.5,Thunder 3601R2Y
6487.0,405,0.2171,1408.33,Leonard,06-23,100Ft,"Leonard, 405",47.87782898,2.0,Thunder 3503R2Y
3450.0,406,0.1808,623.76,Leonard,06-23,100Ft,"Leonard, 406",0.0,,W1037RX
3194.0,407,0.2048,654.13,Leonard,06-23,100Ft,"Leonard, 407",54.48507932,2.0,PB-0987R2
3094.0,408,0.2102,650.36,Leonard,06-23,100Ft,"Leonard, 408",59.88914709,2.0,NKS08-M2
2626.0,409,0.1747,458.76,Leonard,06-23,100Ft,"Leonard, 409",40.88265594,2.5,Channel 0507R2
5110.0,410,0.1876,958.64,Leonard,06-23,100Ft,"Leonard, 410",49.08176662,2.0,Integra 20915N
3048.0,411,0.1692,515.72,Leonard,06-23,100Ft,"Leonard, 411",36.44468001,2.5,Dyna S06RY47
3065.0,412,0.1798,551.09,Leonard,06-23,100Ft,"Leonard, 412",0.0,,Dyna S06XT87
3621.0,413,0.1858,672.78,Leonard,06-23,100Ft,"Leonard, 413",49.45860496,2.5,Legend 11R760N
4193.0,414,0.2187,917.01,Leonard,06-23,100Ft,"Leonard, 414",0.0,,Dahlman 67009X
4621.0,415,0.2306,1065.6,Leonard,06-23,100Ft,"Leonard, 415",60.94941076,1.5,Thunder 3606R2Yn
3940.0,416,0.2234,880.2,Leonard,06-23,100Ft,"Leonard, 416",0.0,,PFS 17X03
4596.0,417,0.2092,961.48,Leonard,06-23,100Ft,"Leonard, 417",57.98384374,2.0,W3031NR2
4789.0,418,0.2229,1067.47,Leonard,06-23,100Ft,"Leonard, 418",68.66189651,1.5,Integra 20775N
6280.0,419,0.2388,1499.66,Leonard,06-23,100Ft,"Leonard, 419",0.0,,W1048NRX
3196.0,420,0.1923,614.59,Leonard,06-23,100Ft,"Leonard, 420",63.80060038,2.0,Legend 08R765N
3206.0,421,0.2058,659.79,Leonard,06-23,100Ft,"Leonard, 421",66.37969442,1.5,Legacy 0334
2732.0,422,0.1892,516.89,Leonard,06-23,100Ft,"Leonard, 422",65.69575564,2.0,PFS 16R09N
3138.0,423,0.1861,583.98,Leonard,06-23,100Ft,"Leonard, 423",54.97427148,1.0,REA 64G94
4385.0,424,0.1955,857.27,Leonard,06-23,100Ft,"Leonard, 424",59.67461773,1.5,Legacy 0935N
6199.0,425,0.2297,1423.91,Leonard,06-23,100Ft,"Leonard, 425",50.99730865,1.5,PB-0397R2
3877.0,426,0.2139,829.29,Leonard,06-23,100Ft,"Leonard, 426",0.0,,Dahlman 6703XN
3286.0,427,0.2135,701.56,Leonard,06-23,100Ft,"Leonard, 427",0.0,,Dahlman 6707XN
4135.0,428,0.2135,882.82,Leonard,06-23,100Ft,"Leonard, 428",0.0,,Dyna S04XT77
3013.0,429,0.2146,646.59,Leonard,06-23,100Ft,"Leonard, 429",49.76283615,1.5,Legacy 0635N
3359.0,430,0.2177,731.25,Leonard,06-23,100Ft,"Leonard, 430",52.663588299999994,1.5,PB-X16061R2
5017.0,431,0.2305,1156.42,Leonard,06-23,100Ft,"Leonard, 431",54.69021565,1.5,NKS06-Q9
4155.0,432,0.2186,908.28,Leonard,06-23,100Ft,"Leonard, 432",39.45829943,1.0,Legend 004R752
3891.0,433,0.1989,773.92,Leonard,06-23,100Ft,"Leonard, 433",59.96522754,1.5,Legacy 0837N
3203.0,434,0.1796,575.26,Leonard,06-23,100Ft,"Leonard, 434",0.0,,PFS 17X09N
3449.0,435,0.203,700.15,Leonard,06-23,100Ft,"Leonard, 435",65.89660319,1.5,PFS 15R07N
3603.0,436,0.2009,723.84,Leonard,06-23,100Ft,"Leonard, 436",64.9105474,1.5,REA R0815
3827.0,437,0.1935,740.52,Leonard,06-23,100Ft,"Leonard, 437",63.05655835,1.5,Channel 0807R2
4686.0,438,0.2021,947.04,Leonard,06-23,100Ft,"Leonard, 438",52.31387193,1.0,Legend 03R650
4145.0,439,0.2242,929.31,Leonard,06-23,100Ft,"Leonard, 439",54.60444015,1.0,NKS12-R3
3799.0,440,0.2196,834.26,Leonard,06-23,100Ft,"Leonard, 440",52.10559453,1.5,REA R0216
