Canopy,PlotNumber,DGCI,pixel_DGCI,Location,date,alt,Plot_Loc,YLD3,IDC1,Cultivar
3823,101,0.2584,987.86,Amenia,07-01,100Ft,"Amenia, 101",38.95596912,1.0,Thunder 3601R2Y
4075,102,0.247,1006.52,Amenia,07-01,100Ft,"Amenia, 102",55.82100249,1.0,NKS08-M2
4915,103,0.2558,1257.26,Amenia,07-01,100Ft,"Amenia, 103",40.82656963,1.0,REA 64G94
4156,104,0.2439,1013.65,Amenia,07-01,100Ft,"Amenia, 104",42.93374742,1.0,PFS 15R07N
3993,105,0.248,990.26,Amenia,07-01,100Ft,"Amenia, 105",38.20573555,1.0,Thunder 3606R2Yn
4544,106,0.2465,1120.1,Amenia,07-01,100Ft,"Amenia, 106",44.75185574,1.0,NKS06-Q9
4277,107,0.249,1064.97,Amenia,07-01,100Ft,"Amenia, 107",46.84169721,1.0,NKS12-R3
8983,108,0.3037,2728.14,Amenia,07-01,100Ft,"Amenia, 108",42.69970716,1.0,Legacy 0334
6183,109,0.2767,1710.84,Amenia,07-01,100Ft,"Amenia, 109",51.54297975,1.5,Legacy 0935N
5580,110,0.2768,1544.54,Amenia,07-01,100Ft,"Amenia, 110",54.77405818,1.0,Integra 20775N
5363,111,0.2612,1400.82,Amenia,07-01,100Ft,"Amenia, 111",57.32183208,1.5,PFS 16R09N
7311,112,0.2695,1970.31,Amenia,07-01,100Ft,"Amenia, 112",60.80987457,1.0,PB-0987R2
7412,113,0.2749,2037.56,Amenia,07-01,100Ft,"Amenia, 113",36.37382462,1.0,PFS 17X03
8050,114,0.3011,2423.86,Amenia,07-01,100Ft,"Amenia, 114",48.53177654,1.0,W1037RX
5788,115,0.2863,1657.1,Amenia,07-01,100Ft,"Amenia, 115",48.94694203,1.0,Dahlman 6703XN
5739,116,0.2681,1538.63,Amenia,07-01,100Ft,"Amenia, 116",44.25580758,1.5,Dyna S04XT77
6591,117,0.2598,1712.34,Amenia,07-01,100Ft,"Amenia, 117",57.89423251,1.0,Legacy 0837N
7489,118,0.2656,1989.08,Amenia,07-01,100Ft,"Amenia, 118",31.0915641,1.5,Dyna S03RY36
5359,119,0.2705,1449.61,Amenia,07-01,100Ft,"Amenia, 119",36.09369513,1.0,Legend 03R650
6124,120,0.2681,1641.84,Amenia,07-01,100Ft,"Amenia, 120",31.57867228,1.5,PB-0397R2
5931,121,0.275,1631.02,Amenia,07-01,100Ft,"Amenia, 121",45.50501897,2.0,PB-X16061R2
7838,122,0.2829,2217.37,Amenia,07-01,100Ft,"Amenia, 122",53.72071089999999,1.0,Integra 20915N
6347,123,0.2617,1661.01,Amenia,07-01,100Ft,"Amenia, 123",41.52132096,1.5,Channel 0807R2
4886,124,0.2729,1333.39,Amenia,07-01,100Ft,"Amenia, 124",42.11939364,1.0,Dahlman 6707XN
5625,125,0.2664,1498.5,Amenia,07-01,100Ft,"Amenia, 125",39.4144452,1.0,Channel 0507R2
6062,126,0.2632,1595.52,Amenia,07-01,100Ft,"Amenia, 126",45.01510195,1.0,Dyna S06XT87
7296,127,0.2944,2147.94,Amenia,07-01,100Ft,"Amenia, 127",49.49596562,1.0,W1048NRX
2911,128,0.2532,737.07,Amenia,07-01,100Ft,"Amenia, 128",0.0,,Integra 30607N
5057,129,0.2914,1473.61,Amenia,07-01,100Ft,"Amenia, 129",52.81535657,1.5,Legend 08R765N
3873,130,0.2531,980.26,Amenia,07-01,100Ft,"Amenia, 130",12.39386474,2.0,PFS 17X09N
7307,131,0.2756,2013.81,Amenia,07-01,100Ft,"Amenia, 131",19.72307899,1.5,Legend 004R752
9023,132,0.2768,2497.57,Amenia,07-01,100Ft,"Amenia, 132",33.111939500000005,1.0,REA R0216
8578,133,0.3116,2672.9,Amenia,07-01,100Ft,"Amenia, 133",38.96490911,1.0,Thunder 3503R2Y
5473,134,0.2791,1527.51,Amenia,07-01,100Ft,"Amenia, 134",42.90913227,2.0,Legend 11R760N
4820,135,0.2609,1257.54,Amenia,07-01,100Ft,"Amenia, 135",38.42953711,1.5,Legacy 0635N
7716,136,0.2964,2287.02,Amenia,07-01,100Ft,"Amenia, 136",53.92213231,1.0,Channel 0709R2
6060,137,0.2648,1604.69,Amenia,07-01,100Ft,"Amenia, 137",47.83935082,1.0,W3031NR2
5453,138,0.2803,1528.48,Amenia,07-01,100Ft,"Amenia, 138",65.51822452,1.5,REA R0815
5330,139,0.2696,1436.97,Amenia,07-01,100Ft,"Amenia, 139",52.68548522,1.0,Dyna S06RY47
7951,140,0.2973,2363.83,Amenia,07-01,100Ft,"Amenia, 140",29.99629556,1.0,Dahlman 67009X
5719,201,0.2777,1588.17,Amenia,07-01,100Ft,"Amenia, 201",62.66697449,1.5,Legend 11R760N
6783,202,0.2743,1860.58,Amenia,07-01,100Ft,"Amenia, 202",48.42063083,1.0,Dahlman 6703XN
7215,203,0.2736,1974.02,Amenia,07-01,100Ft,"Amenia, 203",41.32017138,1.0,Thunder 3601R2Y
5594,204,0.2617,1463.95,Amenia,07-01,100Ft,"Amenia, 204",57.44034724,1.5,Dahlman 6707XN
5462,205,0.275,1502.05,Amenia,07-01,100Ft,"Amenia, 205",58.21746116,1.5,NKS08-M2
8581,206,0.2995,2570.01,Amenia,07-01,100Ft,"Amenia, 206",32.06445154,1.0,PB-0397R2
7069,207,0.2684,1897.32,Amenia,07-01,100Ft,"Amenia, 207",43.15256555,1.5,Dyna S04XT77
5324,208,0.2662,1417.25,Amenia,07-01,100Ft,"Amenia, 208",51.77620454,1.5,Legacy 0935N
5351,209,0.2623,1403.57,Amenia,07-01,100Ft,"Amenia, 209",59.14885018,1.5,PFS 16R09N
4560,210,0.2674,1219.34,Amenia,07-01,100Ft,"Amenia, 210",52.41003714,1.0,Dyna S06RY47
5900,211,0.2627,1549.93,Amenia,07-01,100Ft,"Amenia, 211",63.12110139,1.0,REA R0815
7098,212,0.2734,1940.59,Amenia,07-01,100Ft,"Amenia, 212",38.94702914,1.0,PFS 17X03
4586,213,0.2619,1201.07,Amenia,07-01,100Ft,"Amenia, 213",52.34993389,1.5,PFS 17X09N
7045,214,0.303,2134.63,Amenia,07-01,100Ft,"Amenia, 214",66.83385152,1.0,PFS 15R07N
8721,215,0.3121,2721.82,Amenia,07-01,100Ft,"Amenia, 215",66.23910113,1.0,NKS06-Q9
8019,216,0.2831,2270.18,Amenia,07-01,100Ft,"Amenia, 216",41.60244525,1.0,W1037RX
9945,217,0.3057,3040.19,Amenia,07-01,100Ft,"Amenia, 217",46.63200028,1.0,Thunder 3503R2Y
7135,218,0.2849,2032.76,Amenia,07-01,100Ft,"Amenia, 218",54.23494105,1.5,Legacy 0635N
806,219,0.2242,180.71,Amenia,07-01,100Ft,"Amenia, 219",0.0,,Integra 30607N
5929,220,0.2728,1617.43,Amenia,07-01,100Ft,"Amenia, 220",56.83508633,1.0,Legacy 0837N
7486,221,0.2909,2177.68,Amenia,07-01,100Ft,"Amenia, 221",72.68096181,1.0,Integra 20915N
5149,222,0.2549,1312.48,Amenia,07-01,100Ft,"Amenia, 222",69.65619762,1.0,NKS12-R3
3631,223,0.2482,901.21,Amenia,07-01,100Ft,"Amenia, 223",43.72393909,1.5,Legacy 0334
4276,224,0.2404,1027.95,Amenia,07-01,100Ft,"Amenia, 224",46.27817636,1.0,W3031NR2
5255,225,0.2603,1367.88,Amenia,07-01,100Ft,"Amenia, 225",27.36190049,1.5,REA R0216
6763,226,0.2721,1840.21,Amenia,07-01,100Ft,"Amenia, 226",41.54040903,1.0,W1048NRX
5198,227,0.2551,1326.01,Amenia,07-01,100Ft,"Amenia, 227",22.64436893,1.5,Dahlman 67009X
4472,228,0.2781,1243.66,Amenia,07-01,100Ft,"Amenia, 228",31.56417501,1.0,Legend 004R752
5974,229,0.2973,1776.07,Amenia,07-01,100Ft,"Amenia, 229",52.10480926,1.0,Dyna S06XT87
4497,230,0.2565,1153.48,Amenia,07-01,100Ft,"Amenia, 230",48.38172983,1.5,Channel 0507R2
5083,231,0.2702,1373.43,Amenia,07-01,100Ft,"Amenia, 231",26.35784393,1.0,Dyna S03RY36
6977,232,0.2934,2047.05,Amenia,07-01,100Ft,"Amenia, 232",51.28589488,1.0,REA 64G94
3397,233,0.2438,828.19,Amenia,07-01,100Ft,"Amenia, 233",38.68831333,1.5,Channel 0807R2
5540,234,0.2743,1519.62,Amenia,07-01,100Ft,"Amenia, 234",38.21011493,1.5,Integra 20775N
6334,235,0.2671,1691.81,Amenia,07-01,100Ft,"Amenia, 235",56.32822563,1.0,PB-0987R2
7009,236,0.2805,1966.02,Amenia,07-01,100Ft,"Amenia, 236",48.4317454,1.0,Thunder 3606R2Yn
4629,237,0.2488,1151.7,Amenia,07-01,100Ft,"Amenia, 237",41.09467847,1.5,Legend 08R765N
4529,238,0.2625,1188.86,Amenia,07-01,100Ft,"Amenia, 238",44.24058545,1.0,Channel 0709R2
5669,239,0.266,1507.95,Amenia,07-01,100Ft,"Amenia, 239",38.97384909,1.0,PB-X16061R2
4016,240,0.2522,1012.84,Amenia,07-01,100Ft,"Amenia, 240",20.05491539,1.0,Legend 03R650
4438,301,0.2579,1144.56,Amenia,07-01,100Ft,"Amenia, 301",47.85034458,1.0,REA 64G94
3179,302,0.2522,801.74,Amenia,07-01,100Ft,"Amenia, 302",14.69282929,1.5,Legend 03R650
5024,303,0.2329,1170.09,Amenia,07-01,100Ft,"Amenia, 303",26.34878314,1.5,Channel 0709R2
6239,304,0.272,1697.01,Amenia,07-01,100Ft,"Amenia, 304",20.03884759,2.0,Dyna S03RY36
5437,305,0.2411,1310.86,Amenia,07-01,100Ft,"Amenia, 305",45.76279851,1.0,W3031NR2
3911,306,0.2626,1027.03,Amenia,07-01,100Ft,"Amenia, 306",71.50438777,1.0,NKS12-R3
3558,307,0.2524,898.04,Amenia,07-01,100Ft,"Amenia, 307",32.85292166,2.0,REA R0216
7431,308,0.3084,2291.72,Amenia,07-01,100Ft,"Amenia, 308",53.65293618,1.0,Thunder 3503R2Y
9188,309,0.2992,2749.05,Amenia,07-01,100Ft,"Amenia, 309",72.92756637,1.0,Integra 20915N
8346,310,0.3089,2578.08,Amenia,07-01,100Ft,"Amenia, 310",68.45186735,1.0,Dyna S04XT77
10065,311,0.3537,3559.99,Amenia,07-01,100Ft,"Amenia, 311",55.135825399999995,1.0,Dahlman 67009X
8899,312,0.3169,2820.09,Amenia,07-01,100Ft,"Amenia, 312",71.60296919,1.0,Legend 11R760N
6754,313,0.2977,2010.67,Amenia,07-01,100Ft,"Amenia, 313",46.331333,1.0,Dahlman 6703XN
7576,314,0.2946,2231.89,Amenia,07-01,100Ft,"Amenia, 314",64.20259752,1.0,PB-0987R2
5885,315,0.2736,1610.14,Amenia,07-01,100Ft,"Amenia, 315",32.15288487,1.5,PFS 17X03
4611,316,0.2695,1242.66,Amenia,07-01,100Ft,"Amenia, 316",55.75056993,1.5,Legacy 0635N
8404,317,0.3134,2633.81,Amenia,07-01,100Ft,"Amenia, 317",67.36010232,1.5,Dyna S06RY47
8325,318,0.3284,2733.93,Amenia,07-01,100Ft,"Amenia, 318",66.23149007,1.0,PB-0397R2
7481,319,0.2765,2068.5,Amenia,07-01,100Ft,"Amenia, 319",78.09442259999999,1.0,REA R0815
8624,320,0.281,2423.34,Amenia,07-01,100Ft,"Amenia, 320",79.2007453,1.0,Integra 20775N
6110,321,0.2839,1734.63,Amenia,07-01,100Ft,"Amenia, 321",65.48062223,1.5,Thunder 3606R2Yn
6749,322,0.3107,2096.91,Amenia,07-01,100Ft,"Amenia, 322",69.36145006,1.5,PB-X16061R2
11222,323,0.3145,3529.32,Amenia,07-01,100Ft,"Amenia, 323",66.81083711,1.0,W1037RX
7411,324,0.285,2112.13,Amenia,07-01,100Ft,"Amenia, 324",77.04264587,1.0,NKS08-M2
6563,325,0.2957,1940.68,Amenia,07-01,100Ft,"Amenia, 325",63.69827384,1.0,Dyna S06XT87
8579,326,0.3147,2699.81,Amenia,07-01,100Ft,"Amenia, 326",63.53747498,1.5,Legacy 0935N
4058,327,0.2443,991.37,Amenia,07-01,100Ft,"Amenia, 327",23.91967541,2.0,PFS 17X09N
5358,328,0.2499,1338.96,Amenia,07-01,100Ft,"Amenia, 328",42.0469073,2.0,PFS 16R09N
6003,329,0.2879,1728.26,Amenia,07-01,100Ft,"Amenia, 329",24.71675328,1.5,Legend 004R752
5737,330,0.273,1566.2,Amenia,07-01,100Ft,"Amenia, 330",53.36540705,2.0,Channel 0807R2
7056,331,0.299,2109.74,Amenia,07-01,100Ft,"Amenia, 331",70.26254582,1.5,PFS 15R07N
7137,332,0.2895,2066.16,Amenia,07-01,100Ft,"Amenia, 332",68.41260392,1.5,Legacy 0837N
9844,333,0.3095,3046.72,Amenia,07-01,100Ft,"Amenia, 333",71.33972298,1.5,Legacy 0334
10597,334,0.3033,3214.07,Amenia,07-01,100Ft,"Amenia, 334",68.67572932,1.5,Dahlman 6707XN
8658,335,0.3251,2814.72,Amenia,07-01,100Ft,"Amenia, 335",72.16845321,1.5,NKS06-Q9
6353,336,0.2922,1856.35,Amenia,07-01,100Ft,"Amenia, 336",68.32622437,1.5,Channel 0507R2
8817,337,0.3296,2906.08,Amenia,07-01,100Ft,"Amenia, 337",71.20876433,1.0,Thunder 3601R2Y
9354,338,0.3446,3223.39,Amenia,07-01,100Ft,"Amenia, 338",76.3326422,1.0,W1048NRX
218,339,0.217,47.31,Amenia,07-01,100Ft,"Amenia, 339",0.0,,Integra 30607N
4619,340,0.2574,1188.93,Amenia,07-01,100Ft,"Amenia, 340",62.63103335,1.5,Legend 08R765N
3594,401,0.2422,870.47,Amenia,07-01,100Ft,"Amenia, 401",53.10862420000001,2.0,PB-X16061R2
7895,402,0.2796,2207.44,Amenia,07-01,100Ft,"Amenia, 402",52.93677118,1.5,W1048NRX
6765,403,0.256,1731.84,Amenia,07-01,100Ft,"Amenia, 403",64.18785863,1.5,Legacy 0837N
5847,404,0.27899999999999997,1631.31,Amenia,07-01,100Ft,"Amenia, 404",59.41855975,1.5,Channel 0507R2
7577,405,0.293,2220.06,Amenia,07-01,100Ft,"Amenia, 405",65.53326544,1.5,Dahlman 6703XN
8410,406,0.2954,2484.31,Amenia,07-01,100Ft,"Amenia, 406",77.65763202,1.5,Integra 20915N
5911,407,0.2855,1687.59,Amenia,07-01,100Ft,"Amenia, 407",69.68821242,2.0,Legend 08R765N
135,408,0.2049,27.66,Amenia,07-01,100Ft,"Amenia, 408",0.0,,Integra 30607N
8652,409,0.3153,2727.98,Amenia,07-01,100Ft,"Amenia, 409",67.24412418,1.0,Thunder 3601R2Y
5972,410,0.2652,1583.77,Amenia,07-01,100Ft,"Amenia, 410",67.92531452,1.0,Legacy 0635N
5738,411,0.2787,1599.18,Amenia,07-01,100Ft,"Amenia, 411",61.86285941,1.5,Dyna S06RY47
7387,412,0.2951,2179.9,Amenia,07-01,100Ft,"Amenia, 412",70.16577656,1.5,Legacy 0935N
8438,413,0.2945,2484.99,Amenia,07-01,100Ft,"Amenia, 413",58.38031379999999,1.0,Channel 0709R2
7001,414,0.2713,1899.37,Amenia,07-01,100Ft,"Amenia, 414",58.94008953,1.0,Dahlman 6707XN
8911,415,0.292,2602.01,Amenia,07-01,100Ft,"Amenia, 415",43.83097725,1.0,PB-0397R2
8621,416,0.29,2500.09,Amenia,07-01,100Ft,"Amenia, 416",42.11939364,1.0,PFS 17X03
7164,417,0.3121,2235.88,Amenia,07-01,100Ft,"Amenia, 417",56.44858315,1.0,W3031NR2
10010,418,0.3264,3267.26,Amenia,07-01,100Ft,"Amenia, 418",67.42195732,1.0,Legacy 0334
6437,419,0.2734,1759.88,Amenia,07-01,100Ft,"Amenia, 419",74.18432842,1.0,Channel 0807R2
8277,420,0.3037,2513.72,Amenia,07-01,100Ft,"Amenia, 420",74.64183801,1.0,PFS 15R07N
4938,421,0.2721,1343.63,Amenia,07-01,100Ft,"Amenia, 421",55.80819657,1.0,W1037RX
5145,422,0.2889,1486.39,Amenia,07-01,100Ft,"Amenia, 422",63.91011516,1.0,PB-0987R2
10230,423,0.34299999999999997,3508.89,Amenia,07-01,100Ft,"Amenia, 423",52.37397519,1.0,Thunder 3503R2Y
7733,424,0.3076,2378.67,Amenia,07-01,100Ft,"Amenia, 424",43.89150334,1.0,REA R0216
8082,425,0.3488,2819.0,Amenia,07-01,100Ft,"Amenia, 425",59.20321493,1.0,REA 64G94
5653,426,0.2663,1505.39,Amenia,07-01,100Ft,"Amenia, 426",56.62390947,1.5,PFS 17X09N
4844,427,0.2661,1288.99,Amenia,07-01,100Ft,"Amenia, 427",71.52903312,1.0,NKS12-R3
5653,428,0.2488,1406.47,Amenia,07-01,100Ft,"Amenia, 428",52.35594421,1.5,Dyna S06XT87
5363,429,0.2643,1417.44,Amenia,07-01,100Ft,"Amenia, 429",46.54112054,1.0,NKS08-M2
5557,430,0.2602,1445.93,Amenia,07-01,100Ft,"Amenia, 430",34.9836273,1.0,Dyna S04XT77
5082,431,0.2686,1365.03,Amenia,07-01,100Ft,"Amenia, 431",53.0720186,2.0,PFS 16R09N
9232,432,0.3109,2870.23,Amenia,07-01,100Ft,"Amenia, 432",38.91126922,1.0,Legend 004R752
8232,433,0.3096,2548.63,Amenia,07-01,100Ft,"Amenia, 433",64.9322933,1.0,REA R0815
8150,434,0.3013,2455.6,Amenia,07-01,100Ft,"Amenia, 434",52.009127299999996,1.0,Integra 20775N
5602,435,0.2896,1622.34,Amenia,07-01,100Ft,"Amenia, 435",57.57816188,1.0,Thunder 3606R2Yn
10352,436,0.3011,3116.99,Amenia,07-01,100Ft,"Amenia, 436",58.94685492,1.5,Dyna S03RY36
8373,437,0.2968,2485.11,Amenia,07-01,100Ft,"Amenia, 437",68.67572932,2.0,Legend 11R760N
10167,438,0.3452,3509.65,Amenia,07-01,100Ft,"Amenia, 438",67.1745373,1.0,NKS06-Q9
10249,439,0.3303,3385.24,Amenia,07-01,100Ft,"Amenia, 439",53.7515176,1.0,Legend 03R650
8488,440,0.2886,2449.64,Amenia,07-01,100Ft,"Amenia, 440",34.74052625,1.0,Dahlman 67009X
8412,101,0.3171,2667.45,Colfax,07-01,100Ft,"Colfax, 101",,,Integra 20915N
9952,102,0.3128,3112.99,Colfax,07-01,100Ft,"Colfax, 102",79.31793155,2.0,Legend 08R765N
12244,103,0.3655,4475.18,Colfax,07-01,100Ft,"Colfax, 103",84.84317231,2.0,W1048NRX
12465,104,0.3315,4132.15,Colfax,07-01,100Ft,"Colfax, 104",81.10043095,2.0,Legend 03R650
9595,105,0.3102,2976.37,Colfax,07-01,100Ft,"Colfax, 105",83.90809857,2.0,PB-X16061R2
12949,106,0.3679,4763.94,Colfax,07-01,100Ft,"Colfax, 106",80.61471209999999,1.5,NKS06-Q9
11516,107,0.35700000000000004,4111.21,Colfax,07-01,100Ft,"Colfax, 107",76.84795965,1.5,REA 64G94
11855,108,0.35700000000000004,4232.23,Colfax,07-01,100Ft,"Colfax, 108",76.5167575,1.5,Dahlman 6707XN
7768,109,0.266,2066.29,Colfax,07-01,100Ft,"Colfax, 109",78.33936601,2.5,PFS 16R09N
11453,110,0.3542,4056.65,Colfax,07-01,100Ft,"Colfax, 110",84.05515523,1.5,NKS08-M2
11428,111,0.3163,3614.68,Colfax,07-01,100Ft,"Colfax, 111",87.39774179999999,2.0,Integra 30607N
13733,112,0.365,5012.54,Colfax,07-01,100Ft,"Colfax, 112",67.75053185,1.5,W3031NR2
11292,113,0.3369,3804.27,Colfax,07-01,100Ft,"Colfax, 113",85.57211302,2.0,Dyna S06RY47
13022,114,0.3746,4878.04,Colfax,07-01,100Ft,"Colfax, 114",82.70860072,2.0,Legacy 0334
11978,115,0.3376,4043.77,Colfax,07-01,100Ft,"Colfax, 115",87.8233574,2.0,Legacy 0837N
13900,116,0.3707,5152.73,Colfax,07-01,100Ft,"Colfax, 116",78.86187168,1.5,PB-0397R2
13604,117,0.3532,4804.93,Colfax,07-01,100Ft,"Colfax, 117",84.42489594,1.5,Channel 0709R2
13725,118,0.3443,4725.52,Colfax,07-01,100Ft,"Colfax, 118",74.96881179,1.5,Dyna S03RY36
11703,119,0.3424,4007.11,Colfax,07-01,100Ft,"Colfax, 119",73.15919041,2.0,Dahlman 67009X
9275,120,0.3287,3048.69,Colfax,07-01,100Ft,"Colfax, 120",90.11283833,2.5,Legend 11R760N
10619,121,0.3242,3442.68,Colfax,07-01,100Ft,"Colfax, 121",82.15972815,2.0,REA R0815
8846,122,0.2642,2337.11,Colfax,07-01,100Ft,"Colfax, 122",75.36096287,2.5,Channel 0807R2
11363,123,0.3561,4046.36,Colfax,07-01,100Ft,"Colfax, 123",77.98678039,2.0,Dyna S04XT77
11674,124,0.3129,3652.79,Colfax,07-01,100Ft,"Colfax, 124",88.93330442,2.0,Legacy 0935N
11655,125,0.3331,3882.28,Colfax,07-01,100Ft,"Colfax, 125",85.31943774,1.5,Thunder 3606R2Yn
12968,126,0.3561,4617.9,Colfax,07-01,100Ft,"Colfax, 126",75.35229471,2.0,W1037RX
11254,127,0.3199,3600.15,Colfax,07-01,100Ft,"Colfax, 127",79.58613099,2.0,Channel 0507R2
11401,128,0.3511,4002.89,Colfax,07-01,100Ft,"Colfax, 128",81.85954411,2.0,PB-0987R2
11896,129,0.3617,4302.78,Colfax,07-01,100Ft,"Colfax, 129",72.79621509,2.0,REA R0216
11748,130,0.3333,3915.61,Colfax,07-01,100Ft,"Colfax, 130",67.39543941,2.0,Legend 004R752
12448,131,0.3307,4116.55,Colfax,07-01,100Ft,"Colfax, 131",72.65148404,2.0,PFS 17X03
11647,132,0.3453,4021.71,Colfax,07-01,100Ft,"Colfax, 132",91.58832790000001,1.5,NKS12-R3
10383,133,0.3175,3296.6,Colfax,07-01,100Ft,"Colfax, 133",91.14730895,2.0,Integra 20775N
11150,134,0.3231,3602.56,Colfax,07-01,100Ft,"Colfax, 134",77.81634689,2.0,Thunder 3601R2Y
4284,135,0.2181,934.34,Colfax,07-01,100Ft,"Colfax, 135",61.94791004,3.0,PFS 17X09N
10975,136,0.3143,3449.44,Colfax,07-01,100Ft,"Colfax, 136",84.30813254,2.5,PFS 15R07N
14119,137,0.3723,5256.5,Colfax,07-01,100Ft,"Colfax, 137",84.77488414,1.5,Thunder 3503R2Y
10851,138,0.3219,3492.94,Colfax,07-01,100Ft,"Colfax, 138",77.16351683,2.0,Dyna S06XT87
11482,139,0.3422,3929.14,Colfax,07-01,100Ft,"Colfax, 139",82.12191444,2.0,Dahlman 6703XN
11628,140,0.3384,3934.92,Colfax,07-01,100Ft,"Colfax, 140",87.65186681,2.0,Legacy 0635N
9167,201,0.2866,2627.26,Colfax,07-01,100Ft,"Colfax, 201",82.12339437,2.5,Integra 30607N
10328,202,0.3147,3250.22,Colfax,07-01,100Ft,"Colfax, 202",81.61595982,2.0,Dahlman 6707XN
10137,203,0.2922,2962.03,Colfax,07-01,100Ft,"Colfax, 203",86.63204447,2.5,PFS 16R09N
11583,204,0.3309,3832.81,Colfax,07-01,100Ft,"Colfax, 204",86.04756298,2.0,PFS 15R07N
11416,205,0.3494,3988.75,Colfax,07-01,100Ft,"Colfax, 205",82.57395735,2.0,NKS08-M2
13600,206,0.3696,5026.56,Colfax,07-01,100Ft,"Colfax, 206",68.52737395,2.0,Legend 004R752
14585,207,0.3768,5495.63,Colfax,07-01,100Ft,"Colfax, 207",90.90626168,2.0,NKS06-Q9
11355,208,0.3327,3777.81,Colfax,07-01,100Ft,"Colfax, 208",75.63224298,2.5,W1037RX
9095,209,0.2886,2624.82,Colfax,07-01,100Ft,"Colfax, 209",79.12801735,2.0,Legacy 0635N
12562,210,0.3467,4355.25,Colfax,07-01,100Ft,"Colfax, 210",79.7361475,2.0,Thunder 3606R2Yn
10037,211,0.3259,3271.06,Colfax,07-01,100Ft,"Colfax, 211",82.59908595,2.0,PB-X16061R2
12959,212,0.3492,4525.28,Colfax,07-01,100Ft,"Colfax, 212",92.64140335,2.0,Legacy 0334
12210,213,0.3441,4201.46,Colfax,07-01,100Ft,"Colfax, 213",80.43319423,2.5,PFS 17X03
10685,214,0.3262,3485.45,Colfax,07-01,100Ft,"Colfax, 214",71.58587449,2.0,Dahlman 67009X
12140,215,0.3541,4298.77,Colfax,07-01,100Ft,"Colfax, 215",76.42007885,2.5,Legend 03R650
10877,216,0.3153,3429.52,Colfax,07-01,100Ft,"Colfax, 216",81.69934931,2.0,Channel 0507R2
12062,217,0.3399,4099.87,Colfax,07-01,100Ft,"Colfax, 217",93.75246786,2.5,REA R0815
12056,218,0.3315,3996.56,Colfax,07-01,100Ft,"Colfax, 218",70.25263935,2.0,Thunder 3601R2Y
14400,219,0.3581,5156.64,Colfax,07-01,100Ft,"Colfax, 219",76.05094218,2.0,PB-0397R2
9561,220,0.2726,2606.33,Colfax,07-01,100Ft,"Colfax, 220",76.84143588,2.5,Legend 08R765N
13633,221,0.3844,5240.53,Colfax,07-01,100Ft,"Colfax, 221",79.02801641,2.0,W1048NRX
11873,222,0.3752,4454.75,Colfax,07-01,100Ft,"Colfax, 222",90.84283613,2.0,PB-0987R2
9741,223,0.3331,3244.73,Colfax,07-01,100Ft,"Colfax, 223",87.5704707,2.5,Legend 11R760N
9614,224,0.2887,2775.56,Colfax,07-01,100Ft,"Colfax, 224",83.47218387,2.5,Channel 0807R2
12676,225,0.3424,4340.26,Colfax,07-01,100Ft,"Colfax, 225",76.58247844,2.5,REA R0216
11249,226,0.3002,3376.95,Colfax,07-01,100Ft,"Colfax, 226",82.44686465,2.0,Legacy 0935N
10406,227,0.3509,3651.47,Colfax,07-01,100Ft,"Colfax, 227",83.94884193,2.0,Dahlman 6703XN
10414,228,0.3645,3795.9,Colfax,07-01,100Ft,"Colfax, 228",91.32589716,1.5,NKS12-R3
6480,229,0.2629,1703.59,Colfax,07-01,100Ft,"Colfax, 229",81.82260628,3.0,PFS 17X09N
11456,230,0.3394,3888.17,Colfax,07-01,100Ft,"Colfax, 230",73.19307778,2.5,W3031NR2
12991,231,0.3594,4668.97,Colfax,07-01,100Ft,"Colfax, 231",91.27334456,2.5,Channel 0709R2
9651,232,0.2995,2890.47,Colfax,07-01,100Ft,"Colfax, 232",75.49306922,2.5,Dyna S06XT87
9161,233,0.3235,2963.58,Colfax,07-01,100Ft,"Colfax, 233",77.9239891,2.5,Dyna S04XT77
13248,234,0.3662,4851.42,Colfax,07-01,100Ft,"Colfax, 234",82.09355416,2.5,Dyna S03RY36
10442,235,0.3203,3344.57,Colfax,07-01,100Ft,"Colfax, 235",86.53237576,3.0,Integra 20775N
12059,236,0.3201,3860.09,Colfax,07-01,100Ft,"Colfax, 236",78.72016090000001,2.5,Dyna S06RY47
11948,237,0.332,3966.74,Colfax,07-01,100Ft,"Colfax, 237",91.3469182,2.5,Integra 20915N
14623,238,0.3617,5289.14,Colfax,07-01,100Ft,"Colfax, 238",75.0638293,2.0,Thunder 3503R2Y
13297,239,0.3631,4828.14,Colfax,07-01,100Ft,"Colfax, 239",78.90747767,1.5,REA 64G94
12619,240,0.3462,4368.7,Colfax,07-01,100Ft,"Colfax, 240",91.52508357,2.5,Legacy 0837N
12980,301,0.3509,4554.68,Colfax,07-01,100Ft,"Colfax, 301",85.64695516,1.5,Thunder 3503R2Y
10105,302,0.3418,3453.89,Colfax,07-01,100Ft,"Colfax, 302",86.79151441,1.5,Dyna S06RY47
12251,303,0.3551,4350.33,Colfax,07-01,100Ft,"Colfax, 303",90.24165258,1.0,Legacy 0334
11301,304,0.3737,4223.18,Colfax,07-01,100Ft,"Colfax, 304",95.24994496,1.0,Legend 11R760N
10874,305,0.3593,3907.03,Colfax,07-01,100Ft,"Colfax, 305",81.38161753,1.0,Dyna S06XT87
10218,306,0.3472,3547.69,Colfax,07-01,100Ft,"Colfax, 306",80.69604781,1.0,Dahlman 67009X
8480,307,0.3428,2906.94,Colfax,07-01,100Ft,"Colfax, 307",96.07447703,1.0,NKS08-M2
12430,308,0.3703,4602.83,Colfax,07-01,100Ft,"Colfax, 308",67.68375381,1.0,REA 64G94
12284,309,0.3934,4832.53,Colfax,07-01,100Ft,"Colfax, 309",85.60165119999999,1.0,PB-X16061R2
13249,310,0.3896,5161.81,Colfax,07-01,100Ft,"Colfax, 310",91.07273863,1.0,Integra 20915N
14797,311,0.4178,6182.19,Colfax,07-01,100Ft,"Colfax, 311",78.01369094,1.0,W1048NRX
10061,312,0.3305,3325.16,Colfax,07-01,100Ft,"Colfax, 312",70.48825015,1.0,Channel 0507R2
11216,313,0.3665,4110.66,Colfax,07-01,100Ft,"Colfax, 313",90.60112441,1.5,NKS12-R3
10686,314,0.3338,3566.99,Colfax,07-01,100Ft,"Colfax, 314",73.37912604,1.5,Dyna S04XT77
9956,315,0.2888,2875.29,Colfax,07-01,100Ft,"Colfax, 315",82.42442408,2.5,Legend 08R765N
10230,316,0.3075,3145.72,Colfax,07-01,100Ft,"Colfax, 316",79.30074624,2.0,Thunder 3606R2Yn
8499,317,0.2957,2513.15,Colfax,07-01,100Ft,"Colfax, 317",82.11397115,2.0,Legacy 0635N
13353,318,0.3811,5088.83,Colfax,07-01,100Ft,"Colfax, 318",70.02868678,1.5,REA R0216
10635,319,0.3495,3716.93,Colfax,07-01,100Ft,"Colfax, 319",77.33222878,2.0,PFS 17X09N
14685,320,0.3955,5807.92,Colfax,07-01,100Ft,"Colfax, 320",78.64767456,1.0,Legacy 0935N
13810,321,0.3734,5156.65,Colfax,07-01,100Ft,"Colfax, 321",77.91501892,1.0,Dyna S03RY36
13483,322,0.3914,5277.25,Colfax,07-01,100Ft,"Colfax, 322",85.43426817,1.0,PFS 15R07N
13115,323,0.3911,5129.28,Colfax,07-01,100Ft,"Colfax, 323",80.26683809,1.0,Channel 0807R2
13347,324,0.3719,4963.75,Colfax,07-01,100Ft,"Colfax, 324",71.01939378,1.0,PFS 17X03
11931,325,0.381,4545.71,Colfax,07-01,100Ft,"Colfax, 325",81.02401828,1.5,Dahlman 6703XN
6616,326,0.2401,1588.5,Colfax,07-01,100Ft,"Colfax, 326",72.16845321,2.5,PFS 16R09N
10461,327,0.3125,3269.06,Colfax,07-01,100Ft,"Colfax, 327",69.79050876,,W3031NR2
12421,328,0.3511,4361.01,Colfax,07-01,100Ft,"Colfax, 328",74.01398553,2.0,Channel 0709R2
10543,329,0.3041,3206.13,Colfax,07-01,100Ft,"Colfax, 329",86.26550523,2.5,Integra 20775N
12132,330,0.3262,3957.46,Colfax,07-01,100Ft,"Colfax, 330",79.97689275,2.0,NKS06-Q9
10501,331,0.3069,3222.76,Colfax,07-01,100Ft,"Colfax, 331",65.98793598,2.5,Thunder 3601R2Y
12373,332,0.3564,4409.74,Colfax,07-01,100Ft,"Colfax, 332",83.73150374,2.0,PB-0987R2
11920,333,0.3531,4208.95,Colfax,07-01,100Ft,"Colfax, 333",76.54312440000001,2.0,Integra 30607N
13780,334,0.3874,5338.37,Colfax,07-01,100Ft,"Colfax, 334",67.05659599,1.5,Legend 004R752
12919,335,0.3924,5069.42,Colfax,07-01,100Ft,"Colfax, 335",85.95840479,1.5,REA R0815
12538,336,0.3677,4610.22,Colfax,07-01,100Ft,"Colfax, 336",75.0638293,2.0,W1037RX
12908,337,0.3712,4791.45,Colfax,07-01,100Ft,"Colfax, 337",86.38939646,2.0,Legacy 0837N
13090,338,0.3674,4809.27,Colfax,07-01,100Ft,"Colfax, 338",73.87034178,1.5,Legend 03R650
12871,339,0.3684,4741.68,Colfax,07-01,100Ft,"Colfax, 339",70.88891837,2.0,Dahlman 6707XN
14229,340,0.3596,5116.75,Colfax,07-01,100Ft,"Colfax, 340",74.02002606,2.0,PB-0397R2
10685,401,0.2949,3151.01,Colfax,07-01,100Ft,"Colfax, 401",85.34888531,2.5,PFS 15R07N
5171,402,0.2113,1092.63,Colfax,07-01,100Ft,"Colfax, 402",74.42262725,3.0,Legend 11R760N
12342,403,0.341,4208.62,Colfax,07-01,100Ft,"Colfax, 403",68.03214126,2.0,Channel 0709R2
11282,404,0.3449,3891.16,Colfax,07-01,100Ft,"Colfax, 404",68.89137617,2.0,Dahlman 6703XN
11829,405,0.3436,4064.44,Colfax,07-01,100Ft,"Colfax, 405",87.17714172,2.5,Dyna S06RY47
13353,406,0.3566,4761.68,Colfax,07-01,100Ft,"Colfax, 406",77.62199291,2.0,Dyna S03RY36
11494,407,0.3263,3750.49,Colfax,07-01,100Ft,"Colfax, 407",53.68685375,2.5,Legend 004R752
9111,408,0.2953,2690.48,Colfax,07-01,100Ft,"Colfax, 408",73.81093318,3.0,Integra 30607N
9950,409,0.2897,2882.52,Colfax,07-01,100Ft,"Colfax, 409",57.69489509,2.5,W3031NR2
11437,410,0.3468,3966.35,Colfax,07-01,100Ft,"Colfax, 410",89.55505597,2.5,Integra 20915N
12625,411,0.3576,4514.7,Colfax,07-01,100Ft,"Colfax, 411",79.14619934,2.5,Thunder 3606R2Yn
9710,412,0.3158,3066.42,Colfax,07-01,100Ft,"Colfax, 412",71.07647676,2.5,PFS 17X03
9000,413,0.3362,3025.8,Colfax,07-01,100Ft,"Colfax, 413",88.59183337,2.0,NKS12-R3
10135,414,0.3099,3140.84,Colfax,07-01,100Ft,"Colfax, 414",82.79887641,2.5,Legacy 0635N
11353,415,0.3394,3853.21,Colfax,07-01,100Ft,"Colfax, 415",90.70698466,2.0,Integra 20775N
7488,416,0.2771,2074.92,Colfax,07-01,100Ft,"Colfax, 416",80.37774218,2.5,REA R0815
8728,417,0.2894,2525.88,Colfax,07-01,100Ft,"Colfax, 417",70.91338251,2.5,Dyna S06XT87
14444,418,0.3663,5290.84,Colfax,07-01,100Ft,"Colfax, 418",73.74995405,2.0,PB-0397R2
10152,419,0.3063,3109.56,Colfax,07-01,100Ft,"Colfax, 419",58.40082139,3.0,Thunder 3601R2Y
5425,420,0.2198,1192.42,Colfax,07-01,100Ft,"Colfax, 420",69.60017172,3.0,Legacy 0837N
12009,421,0.3467,4163.52,Colfax,07-01,100Ft,"Colfax, 421",72.33085281,2.0,W1048NRX
7882,422,0.2728,2150.21,Colfax,07-01,100Ft,"Colfax, 422",62.18892711,3.0,W1037RX
7503,423,0.2792,2094.84,Colfax,07-01,100Ft,"Colfax, 423",76.18289751,2.5,NKS08-M2
6783,424,0.2315,1570.26,Colfax,07-01,100Ft,"Colfax, 424",53.9918098,3.0,Legacy 0935N
8853,425,0.2473,2189.35,Colfax,07-01,100Ft,"Colfax, 425",61.720907,2.5,REA R0216
9610,426,0.2959,2843.6,Colfax,07-01,100Ft,"Colfax, 426",72.16845321,2.5,PB-0987R2
11757,427,0.3366,3957.41,Colfax,07-01,100Ft,"Colfax, 427",76.0523617,2.0,Dahlman 67009X
13592,428,0.3741,5084.77,Colfax,07-01,100Ft,"Colfax, 428",80.2760801,1.5,Thunder 3503R2Y
9787,429,0.3086,3020.27,Colfax,07-01,100Ft,"Colfax, 429",78.7111001,2.5,Dyna S04XT77
11147,430,0.336,3745.39,Colfax,07-01,100Ft,"Colfax, 430",73.8351255,2.5,NKS06-Q9
9872,431,0.3143,3102.77,Colfax,07-01,100Ft,"Colfax, 431",72.4725636,2.5,Legend 03R650
11572,432,0.3508,4059.46,Colfax,07-01,100Ft,"Colfax, 432",72.01064442,2.0,REA 64G94
7232,433,0.2504,1810.89,Colfax,07-01,100Ft,"Colfax, 433",63.49362075,3.0,Channel 0807R2
3789,434,0.2093,793.04,Colfax,07-01,100Ft,"Colfax, 434",42.96192648,3.0,Legend 08R765N
2372,435,0.2081,493.61,Colfax,07-01,100Ft,"Colfax, 435",33.77854197,3.5,PFS 17X09N
10629,436,0.3041,3232.28,Colfax,07-01,100Ft,"Colfax, 436",65.98793598,2.5,Channel 0507R2
10024,437,0.2827,2833.78,Colfax,07-01,100Ft,"Colfax, 437",68.1927287,2.5,Dahlman 6707XN
7382,438,0.22899999999999998,1690.48,Colfax,07-01,100Ft,"Colfax, 438",67.75835433,3.0,PFS 16R09N
10675,439,0.3228,3445.89,Colfax,07-01,100Ft,"Colfax, 439",75.28430857,2.5,PB-X16061R2
12247,440,0.3426,4195.82,Colfax,07-01,100Ft,"Colfax, 440",82.62762745,2.0,Legacy 0334
1429,101,0.1375,196.49,Leonard,07-01,100Ft,"Leonard, 101",42.62359651,3.0,Channel 0507R2
1714,102,0.141,241.67,Leonard,07-01,100Ft,"Leonard, 102",49.11408344,3.0,Channel 0807R2
4611,103,0.1613,743.75,Leonard,07-01,100Ft,"Leonard, 103",58.56246592,2.5,NKS08-M2
5931,104,0.1877,1113.25,Leonard,07-01,100Ft,"Leonard, 104",0.0,2.5,Dahlman 6703XN
4930,105,0.1578,777.95,Leonard,07-01,100Ft,"Leonard, 105",60.35254619,3.0,PB-0987R2
7008,106,0.1961,1374.27,Leonard,07-01,100Ft,"Leonard, 106",57.06544187,2.0,Legacy 0334
174,107,0.0982,17.09,Leonard,07-01,100Ft,"Leonard, 107",0.0,,Integra 30607N
2750,108,0.1304,358.6,Leonard,07-01,100Ft,"Leonard, 108",45.54328572,2.5,Dyna S06RY47
1440,109,0.1318,189.79,Leonard,07-01,100Ft,"Leonard, 109",0.0,2.5,W1037RX
2085,110,0.1232,256.87,Leonard,07-01,100Ft,"Leonard, 110",60.75502657,3.0,Legend 11R760N
6104,111,0.172,1049.89,Leonard,07-01,100Ft,"Leonard, 111",55.8062334,2.5,Legend 03R650
3800,112,0.1388,527.44,Leonard,07-01,100Ft,"Leonard, 112",60.19917718,2.5,Integra 20915N
5045,113,0.2006,1012.03,Leonard,07-01,100Ft,"Leonard, 113",0.0,2.0,Dahlman 67009X
2528,114,0.1361,344.06,Leonard,07-01,100Ft,"Leonard, 114",59.55507568,2.5,REA R0815
71,115,0.113,8.02,Leonard,07-01,100Ft,"Leonard, 115",0.0,3.5,PFS 17X09N
4727,116,0.1714,810.21,Leonard,07-01,100Ft,"Leonard, 116",54.79121328,2.0,NKS06-Q9
4525,117,0.1753,793.23,Leonard,07-01,100Ft,"Leonard, 117",50.84732234,2.0,Dyna S03RY36
3098,118,0.1723,533.79,Leonard,07-01,100Ft,"Leonard, 118",59.83230572,2.5,NKS12-R3
3766,119,0.1522,573.19,Leonard,07-01,100Ft,"Leonard, 119",53.647439299999995,2.0,Legacy 0635N
7224,120,0.1917,1384.84,Leonard,07-01,100Ft,"Leonard, 120",60.8800655,2.0,Thunder 3503R2Y
3865,121,0.1534,592.89,Leonard,07-01,100Ft,"Leonard, 121",0.0,,Dahlman 6707XN
3344,122,0.141,471.5,Leonard,07-01,100Ft,"Leonard, 122",47.10485282,2.0,Integra 20775N
2511,123,0.1348,338.48,Leonard,07-01,100Ft,"Leonard, 123",48.04693356,2.5,W3031NR2
1190,124,0.1141,135.78,Leonard,07-01,100Ft,"Leonard, 124",32.30870029,2.5,Legend 004R752
1257,125,0.1028,129.22,Leonard,07-01,100Ft,"Leonard, 125",35.34062251,3.0,Legacy 0935N
2215,126,0.1257,278.43,Leonard,07-01,100Ft,"Leonard, 126",49.22139342,2.5,Legacy 0837N
2684,127,0.1687,452.79,Leonard,07-01,100Ft,"Leonard, 127",0.0,,Dyna S06XT87
1246,128,0.1074,133.82,Leonard,07-01,100Ft,"Leonard, 128",37.62261318,3.0,REA R0216
2974,129,0.1517,451.16,Leonard,07-01,100Ft,"Leonard, 129",43.10671794,2.5,REA 64G94
4597,130,0.1891,869.29,Leonard,07-01,100Ft,"Leonard, 130",0.0,,W1048NRX
1497,131,0.1241,185.78,Leonard,07-01,100Ft,"Leonard, 131",36.58282689,2.5,Thunder 3601R2Y
2334,132,0.13699999999999998,319.76,Leonard,07-01,100Ft,"Leonard, 132",42.98910886,2.0,Legend 08R765N
8608,133,0.1959,1686.31,Leonard,07-01,100Ft,"Leonard, 133",51.80000422,2.0,PB-0397R2
2404,134,0.1191,286.32,Leonard,07-01,100Ft,"Leonard, 134",47.53653915,2.5,Thunder 3606R2Yn
1886,135,0.1314,247.82,Leonard,07-01,100Ft,"Leonard, 135",,,PFS 15R07N
1167,136,0.1123,131.05,Leonard,07-01,100Ft,"Leonard, 136",0.0,,PFS 17X03
2183,137,0.1293,282.26,Leonard,07-01,100Ft,"Leonard, 137",43.15156886,2.5,PFS 16R09N
910,138,0.1169,106.38,Leonard,07-01,100Ft,"Leonard, 138",0.0,,Dyna S04XT77
4392,139,0.149,654.41,Leonard,07-01,100Ft,"Leonard, 139",50.09711897,2.5,Channel 0709R2
1059,140,0.1214,128.56,Leonard,07-01,100Ft,"Leonard, 140",33.41692576,2.5,PB-X16061R2
7243,201,0.2199,1592.74,Leonard,07-01,100Ft,"Leonard, 201",49.32305551,1.5,Thunder 3503R2Y
2092,202,0.1279,267.57,Leonard,07-01,100Ft,"Leonard, 202",45.09652827,2.0,Legacy 0837N
2843,203,0.1539,437.54,Leonard,07-01,100Ft,"Leonard, 203",48.25143564,2.5,Legend 11R760N
4722,204,0.1822,860.35,Leonard,07-01,100Ft,"Leonard, 204",47.68036412,2.0,Legacy 0334
1534,205,0.1208,185.31,Leonard,07-01,100Ft,"Leonard, 205",42.54310647,2.5,Integra 20915N
6193,206,0.1915,1185.96,Leonard,07-01,100Ft,"Leonard, 206",0.0,,W1048NRX
939,207,0.1135,106.58,Leonard,07-01,100Ft,"Leonard, 207",37.06661278,3.0,Channel 0807R2
3790,208,0.1825,691.68,Leonard,07-01,100Ft,"Leonard, 208",50.55487018,1.5,NKS12-R3
3046,209,0.1483,451.72,Leonard,07-01,100Ft,"Leonard, 209",0.0,,Dahlman 6703XN
5303,210,0.1567,830.98,Leonard,07-01,100Ft,"Leonard, 210",49.82740939,2.0,NKS06-Q9
3769,211,0.1647,620.75,Leonard,07-01,100Ft,"Leonard, 211",40.46151032,2.0,Legend 03R650
2244,212,0.1337,300.02,Leonard,07-01,100Ft,"Leonard, 212",49.91907441,2.5,Integra 20775N
1793,213,0.1141,204.58,Leonard,07-01,100Ft,"Leonard, 213",41.94258738,2.5,Thunder 3606R2Yn
2267,214,0.1311,297.2,Leonard,07-01,100Ft,"Leonard, 214",0.0,,W1037RX
4455,215,0.19699999999999998,877.64,Leonard,07-01,100Ft,"Leonard, 215",79.4638707,1.5,NKS08-M2
4916,216,0.198,973.37,Leonard,07-01,100Ft,"Leonard, 216",45.3633988,2.0,Legend 004R752
5910,217,0.2009,1187.32,Leonard,07-01,100Ft,"Leonard, 217",0.0,,PFS 17X03
4744,218,0.1882,892.82,Leonard,07-01,100Ft,"Leonard, 218",0.0,,Dahlman 6707XN
2932,219,0.1439,421.91,Leonard,07-01,100Ft,"Leonard, 219",51.73833043,2.0,Legacy 0635N
5853,220,0.1849,1082.22,Leonard,07-01,100Ft,"Leonard, 220",0.0,,Dyna S04XT77
7262,221,0.2106,1529.38,Leonard,07-01,100Ft,"Leonard, 221",63.3477118,1.5,REA R0815
5019,222,0.1702,854.23,Leonard,07-01,100Ft,"Leonard, 222",52.07490865,2.0,PB-0987R2
3699,223,0.1721,636.6,Leonard,07-01,100Ft,"Leonard, 223",0.0,,Dahlman 67009X
4311,224,0.1843,794.52,Leonard,07-01,100Ft,"Leonard, 224",50.322913899999996,1.5,W3031NR2
3180,225,0.1606,510.71,Leonard,07-01,100Ft,"Leonard, 225",52.08686889,1.5,PFS 15R07N
2693,226,0.1493,402.06,Leonard,07-01,100Ft,"Leonard, 226",46.41106797,2.0,Legend 08R765N
4274,227,0.17300000000000001,739.4,Leonard,07-01,100Ft,"Leonard, 227",55.86582321,2.0,Dyna S06RY47
3214,228,0.1652,530.95,Leonard,07-01,100Ft,"Leonard, 228",53.54203209,2.5,REA R0216
1201,229,0.1138,136.67,Leonard,07-01,100Ft,"Leonard, 229",0.0,,PFS 17X09N
3254,230,0.19,618.26,Leonard,07-01,100Ft,"Leonard, 230",0.0,,Dyna S06XT87
7099,231,0.2184,1550.42,Leonard,07-01,100Ft,"Leonard, 231",64.87309613,2.0,PB-0397R2
2385,232,0.1477,352.26,Leonard,07-01,100Ft,"Leonard, 232",54.85433679,2.5,PB-X16061R2
4942,233,0.1962,969.62,Leonard,07-01,100Ft,"Leonard, 233",54.20383233,2.0,Dyna S03RY36
2578,234,0.1517,391.08,Leonard,07-01,100Ft,"Leonard, 234",52.83963949,2.0,Legacy 0935N
1207,235,0.1197,144.48,Leonard,07-01,100Ft,"Leonard, 235",,,Integra 30607N
7760,236,0.215,1668.4,Leonard,07-01,100Ft,"Leonard, 236",60.99604364,1.0,Channel 0709R2
3027,237,0.1607,486.44,Leonard,07-01,100Ft,"Leonard, 237",35.2283593,1.5,Channel 0507R2
5070,238,0.1979,1003.35,Leonard,07-01,100Ft,"Leonard, 238",54.93286366,1.0,REA 64G94
4657,239,0.1783,830.34,Leonard,07-01,100Ft,"Leonard, 239",57.97801463,2.0,Thunder 3601R2Y
1573,240,0.1409,221.64,Leonard,07-01,100Ft,"Leonard, 240",56.77051309,2.0,PFS 16R09N
3240,301,0.1363,441.61,Leonard,07-01,100Ft,"Leonard, 301",46.17908149,2.5,Thunder 3606R2Yn
230,302,0.0892,20.52,Leonard,07-01,100Ft,"Leonard, 302",0.0,,PFS 17X09N
2472,303,0.1427,352.75,Leonard,07-01,100Ft,"Leonard, 303",50.58966362,3.0,PFS 15R07N
5538,304,0.1686,933.71,Leonard,07-01,100Ft,"Leonard, 304",0.0,,PFS 17X03
5374,305,0.1719,923.79,Leonard,07-01,100Ft,"Leonard, 305",56.88075272,2.5,Legend 11R760N
4756,306,0.1665,791.87,Leonard,07-01,100Ft,"Leonard, 306",0.0,,Dahlman 6707XN
4821,307,0.1842,888.03,Leonard,07-01,100Ft,"Leonard, 307",53.79830149,2.5,PB-X16061R2
5183,308,0.184,953.67,Leonard,07-01,100Ft,"Leonard, 308",64.52199044,2.5,NKS08-M2
4623,309,0.142,656.47,Leonard,07-01,100Ft,"Leonard, 309",56.338192500000005,2.5,Legacy 0837N
4294,310,0.1358,583.13,Leonard,07-01,100Ft,"Leonard, 310",52.23244562,3.0,REA R0216
6631,311,0.1818,1205.52,Leonard,07-01,100Ft,"Leonard, 311",54.06695397,2.5,Legacy 0334
3575,312,0.1508,539.11,Leonard,07-01,100Ft,"Leonard, 312",0.0,,Dyna S06XT87
2865,313,0.1386,397.09,Leonard,07-01,100Ft,"Leonard, 313",58.40042876,3.0,Integra 20915N
5119,314,0.163,834.4,Leonard,07-01,100Ft,"Leonard, 314",51.8238039,2.5,Legend 03R650
5915,315,0.1716,1015.01,Leonard,07-01,100Ft,"Leonard, 315",0.0,,W1048NRX
4076,316,0.1588,647.27,Leonard,07-01,100Ft,"Leonard, 316",46.88860191,2.5,NKS06-Q9
2181,317,0.1507,328.68,Leonard,07-01,100Ft,"Leonard, 317",0.0,,Dahlman 6703XN
2483,318,0.1325,329.0,Leonard,07-01,100Ft,"Leonard, 318",44.03777472,2.5,Dyna S06RY47
6279,319,0.2065,1296.61,Leonard,07-01,100Ft,"Leonard, 319",0.0,,Dahlman 67009X
267,320,0.1046,27.93,Leonard,07-01,100Ft,"Leonard, 320",,,Integra 30607N
2100,321,0.1391,292.11,Leonard,07-01,100Ft,"Leonard, 321",37.12363536,3.0,Legend 004R752
1800,322,0.1445,260.1,Leonard,07-01,100Ft,"Leonard, 322",0.0,,W1037RX
2116,323,0.1427,301.95,Leonard,07-01,100Ft,"Leonard, 323",55.4939683,2.5,NKS12-R3
8612,324,0.2161,1861.05,Leonard,07-01,100Ft,"Leonard, 324",51.98445174,2.0,Thunder 3503R2Y
4094,325,0.1596,653.4,Leonard,07-01,100Ft,"Leonard, 325",66.36848924,2.5,W3031NR2
3921,326,0.1629,638.73,Leonard,07-01,100Ft,"Leonard, 326",49.78723988,2.5,REA 64G94
3286,327,0.1423,467.6,Leonard,07-01,100Ft,"Leonard, 327",39.25518668,2.5,Legacy 0635N
5933,328,0.1884,1117.78,Leonard,07-01,100Ft,"Leonard, 328",50.52007674,2.0,Channel 0709R2
833,329,0.1168,97.29,Leonard,07-01,100Ft,"Leonard, 329",34.88993871,2.0,Legend 08R765N
1759,330,0.1346,236.76,Leonard,07-01,100Ft,"Leonard, 330",43.8007142,2.5,Channel 0807R2
8264,331,0.2016,1666.02,Leonard,07-01,100Ft,"Leonard, 331",57.16145606,1.5,PB-0397R2
3194,332,0.1563,499.22,Leonard,07-01,100Ft,"Leonard, 332",0.0,,Dyna S04XT77
4577,333,0.1585,725.45,Leonard,07-01,100Ft,"Leonard, 333",53.76115224,2.0,PB-0987R2
3126,334,0.1336,417.63,Leonard,07-01,100Ft,"Leonard, 334",54.54161866,2.5,Integra 20775N
2059,335,0.1145,235.76,Leonard,07-01,100Ft,"Leonard, 335",49.3824037,2.5,Legacy 0935N
3572,336,0.1585,566.16,Leonard,07-01,100Ft,"Leonard, 336",60.97746901,2.0,Thunder 3601R2Y
6125,337,0.1681,1029.61,Leonard,07-01,100Ft,"Leonard, 337",54.25647554,2.0,Dyna S03RY36
1188,338,0.1077,127.95,Leonard,07-01,100Ft,"Leonard, 338",35.96953208,2.5,PFS 16R09N
4869,339,0.1553,756.16,Leonard,07-01,100Ft,"Leonard, 339",56.98679419,2.0,REA R0815
3095,340,0.1607,497.37,Leonard,07-01,100Ft,"Leonard, 340",43.54347832,2.5,Channel 0507R2
1188,401,0.1294,153.73,Leonard,07-01,100Ft,"Leonard, 401",,,Integra 30607N
4621,402,0.1783,823.92,Leonard,07-01,100Ft,"Leonard, 402",49.27787236,2.0,Dyna S03RY36
2620,403,0.14,366.8,Leonard,07-01,100Ft,"Leonard, 403",49.3767256,3.0,Channel 0709R2
3000,404,0.1369,410.7,Leonard,07-01,100Ft,"Leonard, 404",41.55472508,2.5,Thunder 3601R2Y
7825,405,0.2193,1716.02,Leonard,07-01,100Ft,"Leonard, 405",47.87782898,2.0,Thunder 3503R2Y
1511,406,0.1295,195.67,Leonard,07-01,100Ft,"Leonard, 406",0.0,,W1037RX
3080,407,0.163,502.04,Leonard,07-01,100Ft,"Leonard, 407",54.48507932,2.0,PB-0987R2
4127,408,0.1787,737.49,Leonard,07-01,100Ft,"Leonard, 408",59.88914709,2.0,NKS08-M2
1887,409,0.1347,254.18,Leonard,07-01,100Ft,"Leonard, 409",40.88265594,2.5,Channel 0507R2
3962,410,0.1487,589.15,Leonard,07-01,100Ft,"Leonard, 410",49.08176662,2.0,Integra 20915N
1704,411,0.1139,194.09,Leonard,07-01,100Ft,"Leonard, 411",36.44468001,2.5,Dyna S06RY47
1740,412,0.1374,239.08,Leonard,07-01,100Ft,"Leonard, 412",0.0,,Dyna S06XT87
2379,413,0.1415,336.63,Leonard,07-01,100Ft,"Leonard, 413",49.45860496,2.5,Legend 11R760N
5040,414,0.1845,929.88,Leonard,07-01,100Ft,"Leonard, 414",0.0,,Dahlman 67009X
6399,415,0.2052,1313.07,Leonard,07-01,100Ft,"Leonard, 415",60.94941076,1.5,Thunder 3606R2Yn
5090,416,0.1852,942.67,Leonard,07-01,100Ft,"Leonard, 416",0.0,,PFS 17X03
4281,417,0.1841,788.13,Leonard,07-01,100Ft,"Leonard, 417",57.98384374,2.0,W3031NR2
7053,418,0.2127,1500.17,Leonard,07-01,100Ft,"Leonard, 418",68.66189651,1.5,Integra 20775N
7140,419,0.2524,1802.14,Leonard,07-01,100Ft,"Leonard, 419",0.0,,W1048NRX
3763,420,0.155,583.26,Leonard,07-01,100Ft,"Leonard, 420",63.80060038,2.0,Legend 08R765N
4395,421,0.1911,839.88,Leonard,07-01,100Ft,"Leonard, 421",66.37969442,1.5,Legacy 0334
1689,422,0.1364,230.38,Leonard,07-01,100Ft,"Leonard, 422",65.69575564,2.0,PFS 16R09N
3099,423,0.1636,507.0,Leonard,07-01,100Ft,"Leonard, 423",54.97427148,1.0,REA 64G94
4148,424,0.1729,717.19,Leonard,07-01,100Ft,"Leonard, 424",59.67461773,1.5,Legacy 0935N
6999,425,0.195,1364.8,Leonard,07-01,100Ft,"Leonard, 425",50.99730865,1.5,PB-0397R2
3222,426,0.1778,572.87,Leonard,07-01,100Ft,"Leonard, 426",0.0,,Dahlman 6703XN
4297,427,0.1932,830.18,Leonard,07-01,100Ft,"Leonard, 427",0.0,,Dahlman 6707XN
4995,428,0.1888,943.06,Leonard,07-01,100Ft,"Leonard, 428",0.0,,Dyna S04XT77
3861,429,0.1764,681.08,Leonard,07-01,100Ft,"Leonard, 429",49.76283615,1.5,Legacy 0635N
3687,430,0.19399999999999998,715.28,Leonard,07-01,100Ft,"Leonard, 430",52.663588299999994,1.5,PB-X16061R2
7116,431,0.1985,1412.53,Leonard,07-01,100Ft,"Leonard, 431",54.69021565,1.5,NKS06-Q9
4822,432,0.1877,905.09,Leonard,07-01,100Ft,"Leonard, 432",39.45829943,1.0,Legend 004R752
4750,433,0.17600000000000002,836.0,Leonard,07-01,100Ft,"Leonard, 433",59.96522754,1.5,Legacy 0837N
1584,434,0.1337,211.78,Leonard,07-01,100Ft,"Leonard, 434",0.0,,PFS 17X09N
3353,435,0.1689,566.32,Leonard,07-01,100Ft,"Leonard, 435",65.89660319,1.5,PFS 15R07N
3293,436,0.1654,544.66,Leonard,07-01,100Ft,"Leonard, 436",64.9105474,1.5,REA R0815
3593,437,0.1743,626.26,Leonard,07-01,100Ft,"Leonard, 437",63.05655835,1.5,Channel 0807R2
5116,438,0.1852,947.48,Leonard,07-01,100Ft,"Leonard, 438",52.31387193,1.0,Legend 03R650
5455,439,0.2043,1114.46,Leonard,07-01,100Ft,"Leonard, 439",54.60444015,1.0,NKS12-R3
4300,440,0.185,795.5,Leonard,07-01,100Ft,"Leonard, 440",52.10559453,1.5,REA R0216
