Canopy,PlotNumber,DGCI,pixel_DGCI,Location,date,alt,Plot_Loc,YLD3,IDC1,Cultivar
14861,101,0.32799999999999996,4874.41,Amenia,07-29,100Ft,"Amenia, 101",38.95596912,1.0,Thunder 3601R2Y
14955,102,0.3312,4953.1,Amenia,07-29,100Ft,"Amenia, 102",55.82100249,1.0,NKS08-M2
13527,103,0.3504,4739.86,Amenia,07-29,100Ft,"Amenia, 103",40.82656963,1.0,REA 64G94
13661,104,0.32299999999999995,4412.5,Amenia,07-29,100Ft,"Amenia, 104",42.93374742,1.0,PFS 15R07N
14743,105,0.3114,4590.97,Amenia,07-29,100Ft,"Amenia, 105",38.20573555,1.0,Thunder 3606R2Yn
15855,106,0.3394,5381.19,Amenia,07-29,100Ft,"Amenia, 106",44.75185574,1.0,NKS06-Q9
14744,107,0.3333,4914.18,Amenia,07-29,100Ft,"Amenia, 107",46.84169721,1.0,NKS12-R3
16379,108,0.3607,5907.91,Amenia,07-29,100Ft,"Amenia, 108",42.69970716,1.0,Legacy 0334
16434,109,0.3336,5482.38,Amenia,07-29,100Ft,"Amenia, 109",51.54297975,1.5,Legacy 0935N
18552,110,0.3619,6713.97,Amenia,07-29,100Ft,"Amenia, 110",54.77405818,1.0,Integra 20775N
16894,111,0.332,5608.81,Amenia,07-29,100Ft,"Amenia, 111",57.32183208,1.5,PFS 16R09N
15888,112,0.3336,5300.24,Amenia,07-29,100Ft,"Amenia, 112",60.80987457,1.0,PB-0987R2
14230,113,0.3326,4732.9,Amenia,07-29,100Ft,"Amenia, 113",36.37382462,1.0,PFS 17X03
13167,114,0.3772,4966.59,Amenia,07-29,100Ft,"Amenia, 114",48.53177654,1.0,W1037RX
14695,115,0.3846,5651.7,Amenia,07-29,100Ft,"Amenia, 115",48.94694203,1.0,Dahlman 6703XN
14747,116,0.3321,4897.48,Amenia,07-29,100Ft,"Amenia, 116",44.25580758,1.5,Dyna S04XT77
17699,117,0.3398,6014.12,Amenia,07-29,100Ft,"Amenia, 117",57.89423251,1.0,Legacy 0837N
15770,118,0.3105,4896.58,Amenia,07-29,100Ft,"Amenia, 118",31.0915641,1.5,Dyna S03RY36
14941,119,0.3081,4603.32,Amenia,07-29,100Ft,"Amenia, 119",36.09369513,1.0,Legend 03R650
16433,120,0.2923,4803.37,Amenia,07-29,100Ft,"Amenia, 120",31.57867228,1.5,PB-0397R2
14684,121,0.3306,4854.53,Amenia,07-29,100Ft,"Amenia, 121",45.50501897,2.0,PB-X16061R2
17250,122,0.3561,6142.72,Amenia,07-29,100Ft,"Amenia, 122",53.72071089999999,1.0,Integra 20915N
17142,123,0.313,5365.45,Amenia,07-29,100Ft,"Amenia, 123",41.52132096,1.5,Channel 0807R2
16456,124,0.3358,5525.92,Amenia,07-29,100Ft,"Amenia, 124",42.11939364,1.0,Dahlman 6707XN
17274,125,0.3175,5484.5,Amenia,07-29,100Ft,"Amenia, 125",39.4144452,1.0,Channel 0507R2
15590,126,0.34299999999999997,5347.37,Amenia,07-29,100Ft,"Amenia, 126",45.01510195,1.0,Dyna S06XT87
15761,127,0.3782,5960.81,Amenia,07-29,100Ft,"Amenia, 127",49.49596562,1.0,W1048NRX
7566,128,0.2825,2137.4,Amenia,07-29,100Ft,"Amenia, 128",0.0,,Integra 30607N
16182,129,0.3174,5136.17,Amenia,07-29,100Ft,"Amenia, 129",52.81535657,1.5,Legend 08R765N
9351,130,0.2456,2296.61,Amenia,07-29,100Ft,"Amenia, 130",12.39386474,2.0,PFS 17X09N
17325,131,0.3396,5883.57,Amenia,07-29,100Ft,"Amenia, 131",19.72307899,1.5,Legend 004R752
18498,132,0.3407,6302.27,Amenia,07-29,100Ft,"Amenia, 132",33.111939500000005,1.0,REA R0216
18440,133,0.3914,7217.42,Amenia,07-29,100Ft,"Amenia, 133",38.96490911,1.0,Thunder 3503R2Y
16429,134,0.3275,5380.5,Amenia,07-29,100Ft,"Amenia, 134",42.90913227,2.0,Legend 11R760N
15355,135,0.3278,5033.37,Amenia,07-29,100Ft,"Amenia, 135",38.42953711,1.5,Legacy 0635N
16644,136,0.3612,6011.81,Amenia,07-29,100Ft,"Amenia, 136",53.92213231,1.0,Channel 0709R2
17542,137,0.365,6402.83,Amenia,07-29,100Ft,"Amenia, 137",47.83935082,1.0,W3031NR2
19878,138,0.3975,7901.5,Amenia,07-29,100Ft,"Amenia, 138",65.51822452,1.5,REA R0815
17555,139,0.3662,6428.64,Amenia,07-29,100Ft,"Amenia, 139",52.68548522,1.0,Dyna S06RY47
17436,140,0.3734,6510.6,Amenia,07-29,100Ft,"Amenia, 140",29.99629556,1.0,Dahlman 67009X
15680,201,0.3965,6217.12,Amenia,07-29,100Ft,"Amenia, 201",62.66697449,1.5,Legend 11R760N
17071,202,0.3784,6459.67,Amenia,07-29,100Ft,"Amenia, 202",48.42063083,1.0,Dahlman 6703XN
18607,203,0.3576,6653.86,Amenia,07-29,100Ft,"Amenia, 203",41.32017138,1.0,Thunder 3601R2Y
15841,204,0.371,5877.01,Amenia,07-29,100Ft,"Amenia, 204",57.44034724,1.5,Dahlman 6707XN
16975,205,0.3721,6316.4,Amenia,07-29,100Ft,"Amenia, 205",58.21746116,1.5,NKS08-M2
18402,206,0.3326,6120.51,Amenia,07-29,100Ft,"Amenia, 206",32.06445154,1.0,PB-0397R2
16709,207,0.3453,5769.62,Amenia,07-29,100Ft,"Amenia, 207",43.15256555,1.5,Dyna S04XT77
18937,208,0.3512,6650.67,Amenia,07-29,100Ft,"Amenia, 208",51.77620454,1.5,Legacy 0935N
18738,209,0.3539,6631.38,Amenia,07-29,100Ft,"Amenia, 209",59.14885018,1.5,PFS 16R09N
18019,210,0.3809,6863.44,Amenia,07-29,100Ft,"Amenia, 210",52.41003714,1.0,Dyna S06RY47
20640,211,0.3773,7787.47,Amenia,07-29,100Ft,"Amenia, 211",63.12110139,1.0,REA R0815
17216,212,0.3796,6535.19,Amenia,07-29,100Ft,"Amenia, 212",38.94702914,1.0,PFS 17X03
16993,213,0.3354,5699.45,Amenia,07-29,100Ft,"Amenia, 213",52.34993389,1.5,PFS 17X09N
17512,214,0.4123,7220.2,Amenia,07-29,100Ft,"Amenia, 214",66.83385152,1.0,PFS 15R07N
18072,215,0.4271,7718.55,Amenia,07-29,100Ft,"Amenia, 215",66.23910113,1.0,NKS06-Q9
15710,216,0.3839,6031.07,Amenia,07-29,100Ft,"Amenia, 216",41.60244525,1.0,W1037RX
17679,217,0.402,7106.96,Amenia,07-29,100Ft,"Amenia, 217",46.63200028,1.0,Thunder 3503R2Y
17903,218,0.3662,6556.08,Amenia,07-29,100Ft,"Amenia, 218",54.23494105,1.5,Legacy 0635N
6474,219,0.2467,1597.14,Amenia,07-29,100Ft,"Amenia, 219",0.0,,Integra 30607N
20757,220,0.3746,7775.57,Amenia,07-29,100Ft,"Amenia, 220",56.83508633,1.0,Legacy 0837N
18973,221,0.4094,7767.55,Amenia,07-29,100Ft,"Amenia, 221",72.68096181,1.0,Integra 20915N
20108,222,0.3812,7665.17,Amenia,07-29,100Ft,"Amenia, 222",69.65619762,1.0,NKS12-R3
16957,223,0.3433,5821.34,Amenia,07-29,100Ft,"Amenia, 223",43.72393909,1.5,Legacy 0334
17005,224,0.3361,5715.38,Amenia,07-29,100Ft,"Amenia, 224",46.27817636,1.0,W3031NR2
18265,225,0.3022,5519.68,Amenia,07-29,100Ft,"Amenia, 225",27.36190049,1.5,REA R0216
15686,226,0.3581,5617.16,Amenia,07-29,100Ft,"Amenia, 226",41.54040903,1.0,W1048NRX
16644,227,0.309,5143.0,Amenia,07-29,100Ft,"Amenia, 227",22.64436893,1.5,Dahlman 67009X
17852,228,0.3596,6419.58,Amenia,07-29,100Ft,"Amenia, 228",31.56417501,1.0,Legend 004R752
15281,229,0.4122,6298.83,Amenia,07-29,100Ft,"Amenia, 229",52.10480926,1.0,Dyna S06XT87
17882,230,0.3746,6698.6,Amenia,07-29,100Ft,"Amenia, 230",48.38172983,1.5,Channel 0507R2
16473,231,0.3719,6126.31,Amenia,07-29,100Ft,"Amenia, 231",26.35784393,1.0,Dyna S03RY36
16879,232,0.3905,6591.25,Amenia,07-29,100Ft,"Amenia, 232",51.28589488,1.0,REA 64G94
16855,233,0.3303,5567.21,Amenia,07-29,100Ft,"Amenia, 233",38.68831333,1.5,Channel 0807R2
16357,234,0.3701,6053.73,Amenia,07-29,100Ft,"Amenia, 234",38.21011493,1.5,Integra 20775N
18657,235,0.363,6772.49,Amenia,07-29,100Ft,"Amenia, 235",56.32822563,1.0,PB-0987R2
19677,236,0.3813,7502.84,Amenia,07-29,100Ft,"Amenia, 236",48.4317454,1.0,Thunder 3606R2Yn
21134,237,0.3244,6855.87,Amenia,07-29,100Ft,"Amenia, 237",41.09467847,1.5,Legend 08R765N
19999,238,0.3622,7243.64,Amenia,07-29,100Ft,"Amenia, 238",44.24058545,1.0,Channel 0709R2
18673,239,0.3824,7140.56,Amenia,07-29,100Ft,"Amenia, 239",38.97384909,1.0,PB-X16061R2
19501,240,0.3285,6406.08,Amenia,07-29,100Ft,"Amenia, 240",20.05491539,1.0,Legend 03R650
15974,301,0.3503,5595.69,Amenia,07-29,100Ft,"Amenia, 301",47.85034458,1.0,REA 64G94
11497,302,0.2713,3119.14,Amenia,07-29,100Ft,"Amenia, 302",14.69282929,1.5,Legend 03R650
10663,303,0.2751,2933.39,Amenia,07-29,100Ft,"Amenia, 303",26.34878314,1.5,Channel 0709R2
15056,304,0.3088,4649.29,Amenia,07-29,100Ft,"Amenia, 304",20.03884759,2.0,Dyna S03RY36
14860,305,0.3433,5101.44,Amenia,07-29,100Ft,"Amenia, 305",45.76279851,1.0,W3031NR2
19236,306,0.3593,6911.49,Amenia,07-29,100Ft,"Amenia, 306",71.50438777,1.0,NKS12-R3
15965,307,0.2792,4457.43,Amenia,07-29,100Ft,"Amenia, 307",32.85292166,2.0,REA R0216
19117,308,0.3663,7002.56,Amenia,07-29,100Ft,"Amenia, 308",53.65293618,1.0,Thunder 3503R2Y
21082,309,0.4076,8593.02,Amenia,07-29,100Ft,"Amenia, 309",72.92756637,1.0,Integra 20915N
17187,310,0.414,7115.42,Amenia,07-29,100Ft,"Amenia, 310",68.45186735,1.0,Dyna S04XT77
15075,311,0.4043,6094.82,Amenia,07-29,100Ft,"Amenia, 311",55.135825399999995,1.0,Dahlman 67009X
16842,312,0.4211,7092.17,Amenia,07-29,100Ft,"Amenia, 312",71.60296919,1.0,Legend 11R760N
15619,313,0.3832,5985.2,Amenia,07-29,100Ft,"Amenia, 313",46.331333,1.0,Dahlman 6703XN
18544,314,0.3466,6427.35,Amenia,07-29,100Ft,"Amenia, 314",64.20259752,1.0,PB-0987R2
14554,315,0.3085,4489.91,Amenia,07-29,100Ft,"Amenia, 315",32.15288487,1.5,PFS 17X03
16955,316,0.3678,6236.05,Amenia,07-29,100Ft,"Amenia, 316",55.75056993,1.5,Legacy 0635N
19498,317,0.4114,8021.48,Amenia,07-29,100Ft,"Amenia, 317",67.36010232,1.5,Dyna S06RY47
19715,318,0.4431,8735.72,Amenia,07-29,100Ft,"Amenia, 318",66.23149007,1.0,PB-0397R2
19827,319,0.4305,8535.52,Amenia,07-29,100Ft,"Amenia, 319",78.09442259999999,1.0,REA R0815
22410,320,0.4078,9138.8,Amenia,07-29,100Ft,"Amenia, 320",79.2007453,1.0,Integra 20775N
20975,321,0.3665,7687.34,Amenia,07-29,100Ft,"Amenia, 321",65.48062223,1.5,Thunder 3606R2Yn
19863,322,0.3955,7855.82,Amenia,07-29,100Ft,"Amenia, 322",69.36145006,1.5,PB-X16061R2
17269,323,0.4232,7308.24,Amenia,07-29,100Ft,"Amenia, 323",66.81083711,1.0,W1037RX
16929,324,0.4241,7179.59,Amenia,07-29,100Ft,"Amenia, 324",77.04264587,1.0,NKS08-M2
17124,325,0.4073,6974.61,Amenia,07-29,100Ft,"Amenia, 325",63.69827384,1.0,Dyna S06XT87
21893,326,0.4059,8886.37,Amenia,07-29,100Ft,"Amenia, 326",63.53747498,1.5,Legacy 0935N
10638,327,0.2742,2916.94,Amenia,07-29,100Ft,"Amenia, 327",23.91967541,2.0,PFS 17X09N
14928,328,0.2884,4305.24,Amenia,07-29,100Ft,"Amenia, 328",42.0469073,2.0,PFS 16R09N
18044,329,0.3396,6127.74,Amenia,07-29,100Ft,"Amenia, 329",24.71675328,1.5,Legend 004R752
19840,330,0.3444,6832.9,Amenia,07-29,100Ft,"Amenia, 330",53.36540705,2.0,Channel 0807R2
21455,331,0.4211,9034.7,Amenia,07-29,100Ft,"Amenia, 331",70.26254582,1.5,PFS 15R07N
19923,332,0.39399999999999996,7849.66,Amenia,07-29,100Ft,"Amenia, 332",68.41260392,1.5,Legacy 0837N
17998,333,0.4333,7798.53,Amenia,07-29,100Ft,"Amenia, 333",71.33972298,1.5,Legacy 0334
17078,334,0.4042,6902.93,Amenia,07-29,100Ft,"Amenia, 334",68.67572932,1.5,Dahlman 6707XN
20827,335,0.42700000000000005,8893.13,Amenia,07-29,100Ft,"Amenia, 335",72.16845321,1.5,NKS06-Q9
21187,336,0.3922,8309.54,Amenia,07-29,100Ft,"Amenia, 336",68.32622437,1.5,Channel 0507R2
19710,337,0.4237,8351.13,Amenia,07-29,100Ft,"Amenia, 337",71.20876433,1.0,Thunder 3601R2Y
16950,338,0.4508,7641.06,Amenia,07-29,100Ft,"Amenia, 338",76.3326422,1.0,W1048NRX
1888,339,0.2225,420.08,Amenia,07-29,100Ft,"Amenia, 339",0.0,,Integra 30607N
20025,340,0.3725,7459.31,Amenia,07-29,100Ft,"Amenia, 340",62.63103335,1.5,Legend 08R765N
15293,401,0.3556,5438.19,Amenia,07-29,100Ft,"Amenia, 401",53.10862420000001,2.0,PB-X16061R2
17437,402,0.3838,6692.32,Amenia,07-29,100Ft,"Amenia, 402",52.93677118,1.5,W1048NRX
19357,403,0.3779,7315.01,Amenia,07-29,100Ft,"Amenia, 403",64.18785863,1.5,Legacy 0837N
18669,404,0.4251,7936.19,Amenia,07-29,100Ft,"Amenia, 404",59.41855975,1.5,Channel 0507R2
19266,405,0.4219,8128.33,Amenia,07-29,100Ft,"Amenia, 405",65.53326544,1.5,Dahlman 6703XN
21412,406,0.4167,8922.38,Amenia,07-29,100Ft,"Amenia, 406",77.65763202,1.5,Integra 20915N
22392,407,0.3735,8363.41,Amenia,07-29,100Ft,"Amenia, 407",69.68821242,2.0,Legend 08R765N
3085,408,0.1984,612.06,Amenia,07-29,100Ft,"Amenia, 408",0.0,,Integra 30607N
17879,409,0.431,7705.85,Amenia,07-29,100Ft,"Amenia, 409",67.24412418,1.0,Thunder 3601R2Y
17855,410,0.4013,7165.21,Amenia,07-29,100Ft,"Amenia, 410",67.92531452,1.0,Legacy 0635N
18204,411,0.4085,7436.33,Amenia,07-29,100Ft,"Amenia, 411",61.86285941,1.5,Dyna S06RY47
21031,412,0.397,8349.31,Amenia,07-29,100Ft,"Amenia, 412",70.16577656,1.5,Legacy 0935N
19850,413,0.4168,8273.48,Amenia,07-29,100Ft,"Amenia, 413",58.38031379999999,1.0,Channel 0709R2
14850,414,0.3767,5594.0,Amenia,07-29,100Ft,"Amenia, 414",58.94008953,1.0,Dahlman 6707XN
18769,415,0.3909,7336.8,Amenia,07-29,100Ft,"Amenia, 415",43.83097725,1.0,PB-0397R2
14710,416,0.3968,5836.93,Amenia,07-29,100Ft,"Amenia, 416",42.11939364,1.0,PFS 17X03
17094,417,0.4299,7348.71,Amenia,07-29,100Ft,"Amenia, 417",56.44858315,1.0,W3031NR2
18204,418,0.4442,8086.22,Amenia,07-29,100Ft,"Amenia, 418",67.42195732,1.0,Legacy 0334
19288,419,0.4357,8403.78,Amenia,07-29,100Ft,"Amenia, 419",74.18432842,1.0,Channel 0807R2
19531,420,0.4364,8523.33,Amenia,07-29,100Ft,"Amenia, 420",74.64183801,1.0,PFS 15R07N
19450,421,0.3952,7686.64,Amenia,07-29,100Ft,"Amenia, 421",55.80819657,1.0,W1037RX
22190,422,0.3753,8327.91,Amenia,07-29,100Ft,"Amenia, 422",63.91011516,1.0,PB-0987R2
18077,423,0.4078,7371.8,Amenia,07-29,100Ft,"Amenia, 423",52.37397519,1.0,Thunder 3503R2Y
18141,424,0.4198,7615.59,Amenia,07-29,100Ft,"Amenia, 424",43.89150334,1.0,REA R0216
15637,425,0.433,6770.82,Amenia,07-29,100Ft,"Amenia, 425",59.20321493,1.0,REA 64G94
19278,426,0.3585,6911.16,Amenia,07-29,100Ft,"Amenia, 426",56.62390947,1.5,PFS 17X09N
19098,427,0.3873,7396.66,Amenia,07-29,100Ft,"Amenia, 427",71.52903312,1.0,NKS12-R3
17424,428,0.3477,6058.32,Amenia,07-29,100Ft,"Amenia, 428",52.35594421,1.5,Dyna S06XT87
17503,429,0.3672,6427.1,Amenia,07-29,100Ft,"Amenia, 429",46.54112054,1.0,NKS08-M2
16471,430,0.3678,6058.03,Amenia,07-29,100Ft,"Amenia, 430",34.9836273,1.0,Dyna S04XT77
21529,431,0.39799999999999996,8568.54,Amenia,07-29,100Ft,"Amenia, 431",53.0720186,2.0,PFS 16R09N
17013,432,0.4004,6812.01,Amenia,07-29,100Ft,"Amenia, 432",38.91126922,1.0,Legend 004R752
18270,433,0.4301,7857.93,Amenia,07-29,100Ft,"Amenia, 433",64.9322933,1.0,REA R0815
19682,434,0.4175,8217.23,Amenia,07-29,100Ft,"Amenia, 434",52.009127299999996,1.0,Integra 20775N
21269,435,0.3917,8331.07,Amenia,07-29,100Ft,"Amenia, 435",57.57816188,1.0,Thunder 3606R2Yn
23359,436,0.3959,9247.83,Amenia,07-29,100Ft,"Amenia, 436",58.94685492,1.5,Dyna S03RY36
19580,437,0.4286,8391.99,Amenia,07-29,100Ft,"Amenia, 437",68.67572932,2.0,Legend 11R760N
17518,438,0.4785,8382.36,Amenia,07-29,100Ft,"Amenia, 438",67.1745373,1.0,NKS06-Q9
20627,439,0.4231,8727.28,Amenia,07-29,100Ft,"Amenia, 439",53.7515176,1.0,Legend 03R650
20227,440,0.3715,7514.33,Amenia,07-29,100Ft,"Amenia, 440",34.74052625,1.0,Dahlman 67009X
31632,101,0.4165,13174.73,Colfax,07-29,100Ft,"Colfax, 101",,,Integra 20915N
31429,102,0.4323,13586.76,Colfax,07-29,100Ft,"Colfax, 102",79.31793155,2.0,Legend 08R765N
31023,103,0.4318,13395.73,Colfax,07-29,100Ft,"Colfax, 103",84.84317231,2.0,W1048NRX
31919,104,0.4234,13514.5,Colfax,07-29,100Ft,"Colfax, 104",81.10043095,2.0,Legend 03R650
30632,105,0.4329,13260.59,Colfax,07-29,100Ft,"Colfax, 105",83.90809857,2.0,PB-X16061R2
31706,106,0.4337,13750.89,Colfax,07-29,100Ft,"Colfax, 106",80.61471209999999,1.5,NKS06-Q9
30791,107,0.4009,12344.11,Colfax,07-29,100Ft,"Colfax, 107",76.84795965,1.5,REA 64G94
29864,108,0.4137,12354.74,Colfax,07-29,100Ft,"Colfax, 108",76.5167575,1.5,Dahlman 6707XN
31975,109,0.3767,12044.98,Colfax,07-29,100Ft,"Colfax, 109",78.33936601,2.5,PFS 16R09N
31267,110,0.4277,13372.9,Colfax,07-29,100Ft,"Colfax, 110",84.05515523,1.5,NKS08-M2
31506,111,0.4358,13730.31,Colfax,07-29,100Ft,"Colfax, 111",87.39774179999999,2.0,Integra 30607N
31058,112,0.4279,13289.72,Colfax,07-29,100Ft,"Colfax, 112",67.75053185,1.5,W3031NR2
32136,113,0.4139,13301.09,Colfax,07-29,100Ft,"Colfax, 113",85.57211302,2.0,Dyna S06RY47
31242,114,0.4221,13187.25,Colfax,07-29,100Ft,"Colfax, 114",82.70860072,2.0,Legacy 0334
32383,115,0.4073,13189.6,Colfax,07-29,100Ft,"Colfax, 115",87.8233574,2.0,Legacy 0837N
32533,116,0.4087,13296.24,Colfax,07-29,100Ft,"Colfax, 116",78.86187168,1.5,PB-0397R2
32517,117,0.423,13754.69,Colfax,07-29,100Ft,"Colfax, 117",84.42489594,1.5,Channel 0709R2
31557,118,0.424,13380.17,Colfax,07-29,100Ft,"Colfax, 118",74.96881179,1.5,Dyna S03RY36
30786,119,0.4122,12689.99,Colfax,07-29,100Ft,"Colfax, 119",73.15919041,2.0,Dahlman 67009X
31856,120,0.4184,13328.55,Colfax,07-29,100Ft,"Colfax, 120",90.11283833,2.5,Legend 11R760N
32692,121,0.4066,13292.57,Colfax,07-29,100Ft,"Colfax, 121",82.15972815,2.0,REA R0815
32889,122,0.3743,12310.35,Colfax,07-29,100Ft,"Colfax, 122",75.36096287,2.5,Channel 0807R2
31374,123,0.4134,12970.01,Colfax,07-29,100Ft,"Colfax, 123",77.98678039,2.0,Dyna S04XT77
32277,124,0.4088,13194.84,Colfax,07-29,100Ft,"Colfax, 124",88.93330442,2.0,Legacy 0935N
31099,125,0.4211,13095.79,Colfax,07-29,100Ft,"Colfax, 125",85.31943774,1.5,Thunder 3606R2Yn
30805,126,0.4182,12882.65,Colfax,07-29,100Ft,"Colfax, 126",75.35229471,2.0,W1037RX
31616,127,0.4111,12997.34,Colfax,07-29,100Ft,"Colfax, 127",79.58613099,2.0,Channel 0507R2
32234,128,0.4021,12961.29,Colfax,07-29,100Ft,"Colfax, 128",81.85954411,2.0,PB-0987R2
31763,129,0.3954,12559.09,Colfax,07-29,100Ft,"Colfax, 129",72.79621509,2.0,REA R0216
30243,130,0.4167,12602.26,Colfax,07-29,100Ft,"Colfax, 130",67.39543941,2.0,Legend 004R752
30671,131,0.4223,12952.36,Colfax,07-29,100Ft,"Colfax, 131",72.65148404,2.0,PFS 17X03
31979,132,0.4145,13255.3,Colfax,07-29,100Ft,"Colfax, 132",91.58832790000001,1.5,NKS12-R3
32314,133,0.4133,13355.38,Colfax,07-29,100Ft,"Colfax, 133",91.14730895,2.0,Integra 20775N
31528,134,0.3918,12352.67,Colfax,07-29,100Ft,"Colfax, 134",77.81634689,2.0,Thunder 3601R2Y
24895,135,0.3039,7565.59,Colfax,07-29,100Ft,"Colfax, 135",61.94791004,3.0,PFS 17X09N
32397,136,0.4013,13000.92,Colfax,07-29,100Ft,"Colfax, 136",84.30813254,2.5,PFS 15R07N
31891,137,0.3959,12625.65,Colfax,07-29,100Ft,"Colfax, 137",84.77488414,1.5,Thunder 3503R2Y
30506,138,0.4236,12922.34,Colfax,07-29,100Ft,"Colfax, 138",77.16351683,2.0,Dyna S06XT87
31420,139,0.4103,12891.63,Colfax,07-29,100Ft,"Colfax, 139",82.12191444,2.0,Dahlman 6703XN
31606,140,0.4148,13110.17,Colfax,07-29,100Ft,"Colfax, 140",87.65186681,2.0,Legacy 0635N
31807,201,0.4222,13428.92,Colfax,07-29,100Ft,"Colfax, 201",82.12339437,2.5,Integra 30607N
30945,202,0.4345,13445.6,Colfax,07-29,100Ft,"Colfax, 202",81.61595982,2.0,Dahlman 6707XN
32786,203,0.3891,12757.03,Colfax,07-29,100Ft,"Colfax, 203",86.63204447,2.5,PFS 16R09N
31955,204,0.4252,13587.27,Colfax,07-29,100Ft,"Colfax, 204",86.04756298,2.0,PFS 15R07N
31543,205,0.4102,12938.94,Colfax,07-29,100Ft,"Colfax, 205",82.57395735,2.0,NKS08-M2
30225,206,0.4009,12117.2,Colfax,07-29,100Ft,"Colfax, 206",68.52737395,2.0,Legend 004R752
31738,207,0.4405,13980.59,Colfax,07-29,100Ft,"Colfax, 207",90.90626168,2.0,NKS06-Q9
30204,208,0.4142,12510.5,Colfax,07-29,100Ft,"Colfax, 208",75.63224298,2.5,W1037RX
31179,209,0.4053,12636.85,Colfax,07-29,100Ft,"Colfax, 209",79.12801735,2.0,Legacy 0635N
30791,210,0.4205,12947.62,Colfax,07-29,100Ft,"Colfax, 210",79.7361475,2.0,Thunder 3606R2Yn
30353,211,0.4249,12896.99,Colfax,07-29,100Ft,"Colfax, 211",82.59908595,2.0,PB-X16061R2
30894,212,0.4337,13398.73,Colfax,07-29,100Ft,"Colfax, 212",92.64140335,2.0,Legacy 0334
30080,213,0.4235,12738.88,Colfax,07-29,100Ft,"Colfax, 213",80.43319423,2.5,PFS 17X03
31115,214,0.4147,12903.39,Colfax,07-29,100Ft,"Colfax, 214",71.58587449,2.0,Dahlman 67009X
29466,215,0.4232,12470.01,Colfax,07-29,100Ft,"Colfax, 215",76.42007885,2.5,Legend 03R650
30616,216,0.4395,13455.73,Colfax,07-29,100Ft,"Colfax, 216",81.69934931,2.0,Channel 0507R2
31781,217,0.4317,13719.86,Colfax,07-29,100Ft,"Colfax, 217",93.75246786,2.5,REA R0815
30548,218,0.4217,12882.09,Colfax,07-29,100Ft,"Colfax, 218",70.25263935,2.0,Thunder 3601R2Y
31244,219,0.4297,13425.55,Colfax,07-29,100Ft,"Colfax, 219",76.05094218,2.0,PB-0397R2
30153,220,0.4124,12435.1,Colfax,07-29,100Ft,"Colfax, 220",76.84143588,2.5,Legend 08R765N
30555,221,0.4254,12998.1,Colfax,07-29,100Ft,"Colfax, 221",79.02801641,2.0,W1048NRX
30665,222,0.4552,13958.71,Colfax,07-29,100Ft,"Colfax, 222",90.84283613,2.0,PB-0987R2
29295,223,0.4684,13721.78,Colfax,07-29,100Ft,"Colfax, 223",87.5704707,2.5,Legend 11R760N
29516,224,0.4576,13506.52,Colfax,07-29,100Ft,"Colfax, 224",83.47218387,2.5,Channel 0807R2
29212,225,0.4508,13168.77,Colfax,07-29,100Ft,"Colfax, 225",76.58247844,2.5,REA R0216
30734,226,0.4397,13513.74,Colfax,07-29,100Ft,"Colfax, 226",82.44686465,2.0,Legacy 0935N
26881,227,0.4475,12029.25,Colfax,07-29,100Ft,"Colfax, 227",83.94884193,2.0,Dahlman 6703XN
29613,228,0.4386,12988.26,Colfax,07-29,100Ft,"Colfax, 228",91.32589716,1.5,NKS12-R3
31195,229,0.4709,14689.73,Colfax,07-29,100Ft,"Colfax, 229",81.82260628,3.0,PFS 17X09N
29328,230,0.5179,15188.97,Colfax,07-29,100Ft,"Colfax, 230",73.19307778,2.5,W3031NR2
31528,231,0.4958,15631.58,Colfax,07-29,100Ft,"Colfax, 231",91.27334456,2.5,Channel 0709R2
30375,232,0.5273,16016.74,Colfax,07-29,100Ft,"Colfax, 232",75.49306922,2.5,Dyna S06XT87
31490,233,0.5011,15779.64,Colfax,07-29,100Ft,"Colfax, 233",77.9239891,2.5,Dyna S04XT77
31570,234,0.5073,16015.46,Colfax,07-29,100Ft,"Colfax, 234",82.09355416,2.5,Dyna S03RY36
30821,235,0.4965,15302.63,Colfax,07-29,100Ft,"Colfax, 235",86.53237576,3.0,Integra 20775N
31457,236,0.4786,15055.32,Colfax,07-29,100Ft,"Colfax, 236",78.72016090000001,2.5,Dyna S06RY47
31707,237,0.4897,15526.92,Colfax,07-29,100Ft,"Colfax, 237",91.3469182,2.5,Integra 20915N
29145,238,0.4986,14531.7,Colfax,07-29,100Ft,"Colfax, 238",75.0638293,2.0,Thunder 3503R2Y
24997,239,0.4831,12076.05,Colfax,07-29,100Ft,"Colfax, 239",78.90747767,1.5,REA 64G94
29084,240,0.484,14076.66,Colfax,07-29,100Ft,"Colfax, 240",91.52508357,2.5,Legacy 0837N
32021,301,0.4223,13522.47,Colfax,07-29,100Ft,"Colfax, 301",85.64695516,1.5,Thunder 3503R2Y
30714,302,0.4401,13517.23,Colfax,07-29,100Ft,"Colfax, 302",86.79151441,1.5,Dyna S06RY47
31339,303,0.4649,14569.5,Colfax,07-29,100Ft,"Colfax, 303",90.24165258,1.0,Legacy 0334
31353,304,0.4706,14754.72,Colfax,07-29,100Ft,"Colfax, 304",95.24994496,1.0,Legend 11R760N
28973,305,0.4621,13388.42,Colfax,07-29,100Ft,"Colfax, 305",81.38161753,1.0,Dyna S06XT87
30297,306,0.4547,13776.05,Colfax,07-29,100Ft,"Colfax, 306",80.69604781,1.0,Dahlman 67009X
31666,307,0.4699,14879.85,Colfax,07-29,100Ft,"Colfax, 307",96.07447703,1.0,NKS08-M2
32076,308,0.4458,14299.48,Colfax,07-29,100Ft,"Colfax, 308",67.68375381,1.0,REA 64G94
30122,309,0.4862,14645.32,Colfax,07-29,100Ft,"Colfax, 309",85.60165119999999,1.0,PB-X16061R2
32004,310,0.4675,14961.87,Colfax,07-29,100Ft,"Colfax, 310",91.07273863,1.0,Integra 20915N
31729,311,0.469,14880.9,Colfax,07-29,100Ft,"Colfax, 311",78.01369094,1.0,W1048NRX
30748,312,0.4616,14193.28,Colfax,07-29,100Ft,"Colfax, 312",70.48825015,1.0,Channel 0507R2
32056,313,0.4709,15095.17,Colfax,07-29,100Ft,"Colfax, 313",90.60112441,1.5,NKS12-R3
32499,314,0.4356,14156.56,Colfax,07-29,100Ft,"Colfax, 314",73.37912604,1.5,Dyna S04XT77
32243,315,0.4203,13551.73,Colfax,07-29,100Ft,"Colfax, 315",82.42442408,2.5,Legend 08R765N
31474,316,0.4334,13640.83,Colfax,07-29,100Ft,"Colfax, 316",79.30074624,2.0,Thunder 3606R2Yn
31591,317,0.4386,13855.81,Colfax,07-29,100Ft,"Colfax, 317",82.11397115,2.0,Legacy 0635N
30505,318,0.4561,13913.33,Colfax,07-29,100Ft,"Colfax, 318",70.02868678,1.5,REA R0216
29887,319,0.44,13150.28,Colfax,07-29,100Ft,"Colfax, 319",77.33222878,2.0,PFS 17X09N
31378,320,0.4525,14198.54,Colfax,07-29,100Ft,"Colfax, 320",78.64767456,1.0,Legacy 0935N
32483,321,0.4591,14912.95,Colfax,07-29,100Ft,"Colfax, 321",77.91501892,1.0,Dyna S03RY36
32917,322,0.4562,15016.74,Colfax,07-29,100Ft,"Colfax, 322",85.43426817,1.0,PFS 15R07N
32000,323,0.4311,13795.2,Colfax,07-29,100Ft,"Colfax, 323",80.26683809,1.0,Channel 0807R2
29592,324,0.4277,12656.5,Colfax,07-29,100Ft,"Colfax, 324",71.01939378,1.0,PFS 17X03
29607,325,0.4342,12855.36,Colfax,07-29,100Ft,"Colfax, 325",81.02401828,1.5,Dahlman 6703XN
30960,326,0.3816,11814.34,Colfax,07-29,100Ft,"Colfax, 326",72.16845321,2.5,PFS 16R09N
31092,327,0.4255,13229.65,Colfax,07-29,100Ft,"Colfax, 327",69.79050876,,W3031NR2
32282,328,0.4072,13145.23,Colfax,07-29,100Ft,"Colfax, 328",74.01398553,2.0,Channel 0709R2
32824,329,0.4188,13746.69,Colfax,07-29,100Ft,"Colfax, 329",86.26550523,2.5,Integra 20775N
32682,330,0.4243,13866.97,Colfax,07-29,100Ft,"Colfax, 330",79.97689275,2.0,NKS06-Q9
32332,331,0.3881,12548.05,Colfax,07-29,100Ft,"Colfax, 331",65.98793598,2.5,Thunder 3601R2Y
32027,332,0.4167,13345.65,Colfax,07-29,100Ft,"Colfax, 332",83.73150374,2.0,PB-0987R2
30654,333,0.4333,13282.38,Colfax,07-29,100Ft,"Colfax, 333",76.54312440000001,2.0,Integra 30607N
30955,334,0.4101,12694.65,Colfax,07-29,100Ft,"Colfax, 334",67.05659599,1.5,Legend 004R752
32762,335,0.4576,14991.89,Colfax,07-29,100Ft,"Colfax, 335",85.95840479,1.5,REA R0815
32132,336,0.4573,14693.96,Colfax,07-29,100Ft,"Colfax, 336",75.0638293,2.0,W1037RX
32087,337,0.4296,13784.58,Colfax,07-29,100Ft,"Colfax, 337",86.38939646,2.0,Legacy 0837N
31399,338,0.395,12402.61,Colfax,07-29,100Ft,"Colfax, 338",73.87034178,1.5,Legend 03R650
30738,339,0.4188,12873.07,Colfax,07-29,100Ft,"Colfax, 339",70.88891837,2.0,Dahlman 6707XN
32762,340,0.4092,13406.21,Colfax,07-29,100Ft,"Colfax, 340",74.02002606,2.0,PB-0397R2
32595,401,0.4026,13122.75,Colfax,07-29,100Ft,"Colfax, 401",85.34888531,2.5,PFS 15R07N
31337,402,0.3949,12374.98,Colfax,07-29,100Ft,"Colfax, 402",74.42262725,3.0,Legend 11R760N
30411,403,0.40700000000000003,12377.28,Colfax,07-29,100Ft,"Colfax, 403",68.03214126,2.0,Channel 0709R2
30477,404,0.4226,12879.58,Colfax,07-29,100Ft,"Colfax, 404",68.89137617,2.0,Dahlman 6703XN
30833,405,0.4166,12845.03,Colfax,07-29,100Ft,"Colfax, 405",87.17714172,2.5,Dyna S06RY47
31673,406,0.4414,13980.46,Colfax,07-29,100Ft,"Colfax, 406",77.62199291,2.0,Dyna S03RY36
31505,407,0.4469,14079.58,Colfax,07-29,100Ft,"Colfax, 407",53.68685375,2.5,Legend 004R752
30227,408,0.4729,14294.35,Colfax,07-29,100Ft,"Colfax, 408",73.81093318,3.0,Integra 30607N
32410,409,0.4618,14966.94,Colfax,07-29,100Ft,"Colfax, 409",57.69489509,2.5,W3031NR2
30552,410,0.4208,12856.28,Colfax,07-29,100Ft,"Colfax, 410",89.55505597,2.5,Integra 20915N
29691,411,0.4265,12663.21,Colfax,07-29,100Ft,"Colfax, 411",79.14619934,2.5,Thunder 3606R2Yn
30124,412,0.4294,12935.25,Colfax,07-29,100Ft,"Colfax, 412",71.07647676,2.5,PFS 17X03
32266,413,0.4371,14103.47,Colfax,07-29,100Ft,"Colfax, 413",88.59183337,2.0,NKS12-R3
32469,414,0.4144,13455.15,Colfax,07-29,100Ft,"Colfax, 414",82.79887641,2.5,Legacy 0635N
32033,415,0.4496,14402.04,Colfax,07-29,100Ft,"Colfax, 415",90.70698466,2.0,Integra 20775N
32275,416,0.4206,13574.86,Colfax,07-29,100Ft,"Colfax, 416",80.37774218,2.5,REA R0815
30735,417,0.4403,13532.62,Colfax,07-29,100Ft,"Colfax, 417",70.91338251,2.5,Dyna S06XT87
31131,418,0.4388,13660.28,Colfax,07-29,100Ft,"Colfax, 418",73.74995405,2.0,PB-0397R2
25992,419,0.3918,10183.67,Colfax,07-29,100Ft,"Colfax, 419",58.40082139,3.0,Thunder 3601R2Y
28824,420,0.4192,12083.02,Colfax,07-29,100Ft,"Colfax, 420",69.60017172,3.0,Legacy 0837N
29466,421,0.4804,14155.47,Colfax,07-29,100Ft,"Colfax, 421",72.33085281,2.0,W1048NRX
28003,422,0.4664,13060.6,Colfax,07-29,100Ft,"Colfax, 422",62.18892711,3.0,W1037RX
28751,423,0.479,13771.73,Colfax,07-29,100Ft,"Colfax, 423",76.18289751,2.5,NKS08-M2
22264,424,0.3581,7972.74,Colfax,07-29,100Ft,"Colfax, 424",53.9918098,3.0,Legacy 0935N
28065,425,0.4172,11708.72,Colfax,07-29,100Ft,"Colfax, 425",61.720907,2.5,REA R0216
30738,426,0.4544,13967.35,Colfax,07-29,100Ft,"Colfax, 426",72.16845321,2.5,PB-0987R2
27777,427,0.4596,12766.31,Colfax,07-29,100Ft,"Colfax, 427",76.0523617,2.0,Dahlman 67009X
28829,428,0.4509,12999.0,Colfax,07-29,100Ft,"Colfax, 428",80.2760801,1.5,Thunder 3503R2Y
28148,429,0.4516,12711.64,Colfax,07-29,100Ft,"Colfax, 429",78.7111001,2.5,Dyna S04XT77
27068,430,0.4627,12524.36,Colfax,07-29,100Ft,"Colfax, 430",73.8351255,2.5,NKS06-Q9
30917,431,0.4822,14908.18,Colfax,07-29,100Ft,"Colfax, 431",72.4725636,2.5,Legend 03R650
26987,432,0.4754,12829.62,Colfax,07-29,100Ft,"Colfax, 432",72.01064442,2.0,REA 64G94
30516,433,0.4392,13402.63,Colfax,07-29,100Ft,"Colfax, 433",63.49362075,3.0,Channel 0807R2
21444,434,0.3755,8052.22,Colfax,07-29,100Ft,"Colfax, 434",42.96192648,3.0,Legend 08R765N
17017,435,0.3591,6110.8,Colfax,07-29,100Ft,"Colfax, 435",33.77854197,3.5,PFS 17X09N
32889,436,0.4618,15188.14,Colfax,07-29,100Ft,"Colfax, 436",65.98793598,2.5,Channel 0507R2
28967,437,0.4624,13394.34,Colfax,07-29,100Ft,"Colfax, 437",68.1927287,2.5,Dahlman 6707XN
29911,438,0.4108,12287.44,Colfax,07-29,100Ft,"Colfax, 438",67.75835433,3.0,PFS 16R09N
27820,439,0.4947,13762.55,Colfax,07-29,100Ft,"Colfax, 439",75.28430857,2.5,PB-X16061R2
32662,440,0.5174,16899.32,Colfax,07-29,100Ft,"Colfax, 440",82.62762745,2.0,Legacy 0334
25177,101,0.3223,8114.55,Leonard,07-29,100Ft,"Leonard, 101",42.62359651,3.0,Channel 0507R2
27897,102,0.3536,9864.38,Leonard,07-29,100Ft,"Leonard, 102",49.11408344,3.0,Channel 0807R2
30607,103,0.3915,11982.64,Leonard,07-29,100Ft,"Leonard, 103",58.56246592,2.5,NKS08-M2
89,104,0.4507,40.11,Leonard,07-29,100Ft,"Leonard, 104",0.0,2.5,Dahlman 6703XN
29654,105,0.402,11920.91,Leonard,07-29,100Ft,"Leonard, 105",60.35254619,3.0,PB-0987R2
29911,106,0.4128,12347.26,Leonard,07-29,100Ft,"Leonard, 106",57.06544187,2.0,Legacy 0334
7234,107,0.3048,2204.92,Leonard,07-29,100Ft,"Leonard, 107",0.0,,Integra 30607N
26326,108,0.3447,9074.57,Leonard,07-29,100Ft,"Leonard, 108",45.54328572,2.5,Dyna S06RY47
1732,109,0.38799999999999996,672.02,Leonard,07-29,100Ft,"Leonard, 109",0.0,2.5,W1037RX
28565,110,0.3793,10834.7,Leonard,07-29,100Ft,"Leonard, 110",60.75502657,3.0,Legend 11R760N
30588,111,0.4236,12957.08,Leonard,07-29,100Ft,"Leonard, 111",55.8062334,2.5,Legend 03R650
30333,112,0.3749,11371.84,Leonard,07-29,100Ft,"Leonard, 112",60.19917718,2.5,Integra 20915N
29104,114,0.3534,10285.35,Leonard,07-29,100Ft,"Leonard, 114",59.55507568,2.5,REA R0815
30834,116,0.4333,13360.37,Leonard,07-29,100Ft,"Leonard, 116",54.79121328,2.0,NKS06-Q9
30682,117,0.4042,12401.66,Leonard,07-29,100Ft,"Leonard, 117",50.84732234,2.0,Dyna S03RY36
29527,118,0.4028,11893.48,Leonard,07-29,100Ft,"Leonard, 118",59.83230572,2.5,NKS12-R3
29641,119,0.3995,11841.58,Leonard,07-29,100Ft,"Leonard, 119",53.647439299999995,2.0,Legacy 0635N
29909,120,0.4293,12839.93,Leonard,07-29,100Ft,"Leonard, 120",60.8800655,2.0,Thunder 3503R2Y
28990,122,0.3743,10850.96,Leonard,07-29,100Ft,"Leonard, 122",47.10485282,2.0,Integra 20775N
29389,123,0.3785,11123.74,Leonard,07-29,100Ft,"Leonard, 123",48.04693356,2.5,W3031NR2
27536,124,0.3569,9827.6,Leonard,07-29,100Ft,"Leonard, 124",32.30870029,2.5,Legend 004R752
20170,125,0.2884,5817.03,Leonard,07-29,100Ft,"Leonard, 125",35.34062251,3.0,Legacy 0935N
28428,126,0.3654,10387.59,Leonard,07-29,100Ft,"Leonard, 126",49.22139342,2.5,Legacy 0837N
24784,128,0.3177,7873.88,Leonard,07-29,100Ft,"Leonard, 128",37.62261318,3.0,REA R0216
29696,129,0.3742,11112.24,Leonard,07-29,100Ft,"Leonard, 129",43.10671794,2.5,REA 64G94
27082,131,0.3364,9110.38,Leonard,07-29,100Ft,"Leonard, 131",36.58282689,2.5,Thunder 3601R2Y
26336,132,0.3278,8632.94,Leonard,07-29,100Ft,"Leonard, 132",42.98910886,2.0,Legend 08R765N
28787,133,0.3925,11298.9,Leonard,07-29,100Ft,"Leonard, 133",51.80000422,2.0,PB-0397R2
28505,134,0.361,10290.3,Leonard,07-29,100Ft,"Leonard, 134",47.53653915,2.5,Thunder 3606R2Yn
24729,135,0.3383,8365.82,Leonard,07-29,100Ft,"Leonard, 135",,,PFS 15R07N
26401,137,0.3337,8810.01,Leonard,07-29,100Ft,"Leonard, 137",43.15156886,2.5,PFS 16R09N
81,138,0.2516,20.38,Leonard,07-29,100Ft,"Leonard, 138",0.0,,Dyna S04XT77
29681,139,0.39,11575.59,Leonard,07-29,100Ft,"Leonard, 139",50.09711897,2.5,Channel 0709R2
20389,140,0.3182,6487.78,Leonard,07-29,100Ft,"Leonard, 140",33.41692576,2.5,PB-X16061R2
30673,201,0.3932,12060.62,Leonard,07-29,100Ft,"Leonard, 201",49.32305551,1.5,Thunder 3503R2Y
26475,202,0.3625,9597.19,Leonard,07-29,100Ft,"Leonard, 202",45.09652827,2.0,Legacy 0837N
29378,203,0.3733,10966.81,Leonard,07-29,100Ft,"Leonard, 203",48.25143564,2.5,Legend 11R760N
30317,204,0.4022,12193.5,Leonard,07-29,100Ft,"Leonard, 204",47.68036412,2.0,Legacy 0334
25909,205,0.3395,8796.11,Leonard,07-29,100Ft,"Leonard, 205",42.54310647,2.5,Integra 20915N
20826,207,0.3059,6370.67,Leonard,07-29,100Ft,"Leonard, 207",37.06661278,3.0,Channel 0807R2
30223,208,0.4091,12364.23,Leonard,07-29,100Ft,"Leonard, 208",50.55487018,1.5,NKS12-R3
29267,210,0.4053,11861.92,Leonard,07-29,100Ft,"Leonard, 210",49.82740939,2.0,NKS06-Q9
30508,211,0.382,11654.06,Leonard,07-29,100Ft,"Leonard, 211",40.46151032,2.0,Legend 03R650
28448,212,0.3628,10320.93,Leonard,07-29,100Ft,"Leonard, 212",49.91907441,2.5,Integra 20775N
27667,213,0.3458,9567.25,Leonard,07-29,100Ft,"Leonard, 213",41.94258738,2.5,Thunder 3606R2Yn
27521,215,0.3968,10920.33,Leonard,07-29,100Ft,"Leonard, 215",79.4638707,1.5,NKS08-M2
30382,216,0.392,11909.74,Leonard,07-29,100Ft,"Leonard, 216",45.3633988,2.0,Legend 004R752
29515,219,0.3604,10637.21,Leonard,07-29,100Ft,"Leonard, 219",51.73833043,2.0,Legacy 0635N
30285,221,0.4615,13976.53,Leonard,07-29,100Ft,"Leonard, 221",63.3477118,1.5,REA R0815
30367,222,0.3966,12043.55,Leonard,07-29,100Ft,"Leonard, 222",52.07490865,2.0,PB-0987R2
27998,224,0.3738,10465.65,Leonard,07-29,100Ft,"Leonard, 224",50.322913899999996,1.5,W3031NR2
29644,225,0.3985,11813.13,Leonard,07-29,100Ft,"Leonard, 225",52.08686889,1.5,PFS 15R07N
29893,226,0.3675,10985.68,Leonard,07-29,100Ft,"Leonard, 226",46.41106797,2.0,Legend 08R765N
30488,227,0.4107,12521.42,Leonard,07-29,100Ft,"Leonard, 227",55.86582321,2.0,Dyna S06RY47
28847,228,0.3879,11189.75,Leonard,07-29,100Ft,"Leonard, 228",53.54203209,2.5,REA R0216
30193,231,0.42200000000000004,12741.45,Leonard,07-29,100Ft,"Leonard, 231",64.87309613,2.0,PB-0397R2
29689,232,0.3787,11243.22,Leonard,07-29,100Ft,"Leonard, 232",54.85433679,2.5,PB-X16061R2
30530,233,0.414,12639.42,Leonard,07-29,100Ft,"Leonard, 233",54.20383233,2.0,Dyna S03RY36
29845,234,0.3709,11069.51,Leonard,07-29,100Ft,"Leonard, 234",52.83963949,2.0,Legacy 0935N
10659,235,0.2997,3194.5,Leonard,07-29,100Ft,"Leonard, 235",,,Integra 30607N
32958,236,0.4301,14175.24,Leonard,07-29,100Ft,"Leonard, 236",60.99604364,1.0,Channel 0709R2
31971,237,0.3676,11752.54,Leonard,07-29,100Ft,"Leonard, 237",35.2283593,1.5,Channel 0507R2
32566,238,0.3932,12804.95,Leonard,07-29,100Ft,"Leonard, 238",54.93286366,1.0,REA 64G94
31473,239,0.40299999999999997,12683.62,Leonard,07-29,100Ft,"Leonard, 239",57.97801463,2.0,Thunder 3601R2Y
32491,240,0.35700000000000004,11599.29,Leonard,07-29,100Ft,"Leonard, 240",56.77051309,2.0,PFS 16R09N
29590,301,0.3816,11291.54,Leonard,07-29,100Ft,"Leonard, 301",46.17908149,2.5,Thunder 3606R2Yn
29891,303,0.4332,12948.78,Leonard,07-29,100Ft,"Leonard, 303",50.58966362,3.0,PFS 15R07N
144,304,0.4618,66.5,Leonard,07-29,100Ft,"Leonard, 304",0.0,,PFS 17X03
29265,305,0.4212,12326.42,Leonard,07-29,100Ft,"Leonard, 305",56.88075272,2.5,Legend 11R760N
1546,306,0.4001,618.55,Leonard,07-29,100Ft,"Leonard, 306",0.0,,Dahlman 6707XN
29170,307,0.4329,12627.69,Leonard,07-29,100Ft,"Leonard, 307",53.79830149,2.5,PB-X16061R2
29943,308,0.4488,13438.42,Leonard,07-29,100Ft,"Leonard, 308",64.52199044,2.5,NKS08-M2
27494,309,0.42200000000000004,11602.47,Leonard,07-29,100Ft,"Leonard, 309",56.338192500000005,2.5,Legacy 0837N
29956,310,0.4331,12973.94,Leonard,07-29,100Ft,"Leonard, 310",52.23244562,3.0,REA R0216
28960,311,0.4478,12968.29,Leonard,07-29,100Ft,"Leonard, 311",54.06695397,2.5,Legacy 0334
29800,313,0.4073,12137.54,Leonard,07-29,100Ft,"Leonard, 313",58.40042876,3.0,Integra 20915N
29285,314,0.425,12446.12,Leonard,07-29,100Ft,"Leonard, 314",51.8238039,2.5,Legend 03R650
29769,316,0.4009,11934.39,Leonard,07-29,100Ft,"Leonard, 316",46.88860191,2.5,NKS06-Q9
28114,318,0.4,11245.6,Leonard,07-29,100Ft,"Leonard, 318",44.03777472,2.5,Dyna S06RY47
8957,320,0.2986,2674.56,Leonard,07-29,100Ft,"Leonard, 320",,,Integra 30607N
28885,321,0.3957,11429.79,Leonard,07-29,100Ft,"Leonard, 321",37.12363536,3.0,Legend 004R752
28100,323,0.4142,11639.02,Leonard,07-29,100Ft,"Leonard, 323",55.4939683,2.5,NKS12-R3
30260,324,0.4437,13426.36,Leonard,07-29,100Ft,"Leonard, 324",51.98445174,2.0,Thunder 3503R2Y
29900,325,0.4147,12399.53,Leonard,07-29,100Ft,"Leonard, 325",66.36848924,2.5,W3031NR2
28883,326,0.401,11582.08,Leonard,07-29,100Ft,"Leonard, 326",49.78723988,2.5,REA 64G94
29193,327,0.3807,11113.78,Leonard,07-29,100Ft,"Leonard, 327",39.25518668,2.5,Legacy 0635N
27900,328,0.3921,10939.59,Leonard,07-29,100Ft,"Leonard, 328",50.52007674,2.0,Channel 0709R2
19664,329,0.2659,5228.66,Leonard,07-29,100Ft,"Leonard, 329",34.88993871,2.0,Legend 08R765N
26218,330,0.3614,9475.19,Leonard,07-29,100Ft,"Leonard, 330",43.8007142,2.5,Channel 0807R2
29138,331,0.4611,13435.53,Leonard,07-29,100Ft,"Leonard, 331",57.16145606,1.5,PB-0397R2
29275,333,0.4228,12377.47,Leonard,07-29,100Ft,"Leonard, 333",53.76115224,2.0,PB-0987R2
28565,334,0.4251,12142.98,Leonard,07-29,100Ft,"Leonard, 334",54.54161866,2.5,Integra 20775N
27754,335,0.3724,10335.59,Leonard,07-29,100Ft,"Leonard, 335",49.3824037,2.5,Legacy 0935N
30552,336,0.4261,13018.21,Leonard,07-29,100Ft,"Leonard, 336",60.97746901,2.0,Thunder 3601R2Y
29254,337,0.4327,12658.21,Leonard,07-29,100Ft,"Leonard, 337",54.25647554,2.0,Dyna S03RY36
23862,338,0.3365,8029.56,Leonard,07-29,100Ft,"Leonard, 338",35.96953208,2.5,PFS 16R09N
30710,339,0.4443,13644.45,Leonard,07-29,100Ft,"Leonard, 339",56.98679419,2.0,REA R0815
28812,340,0.377,10862.12,Leonard,07-29,100Ft,"Leonard, 340",43.54347832,2.5,Channel 0507R2
9041,401,0.2988,2701.45,Leonard,07-29,100Ft,"Leonard, 401",,,Integra 30607N
30111,402,0.4181,12589.41,Leonard,07-29,100Ft,"Leonard, 402",49.27787236,2.0,Dyna S03RY36
25843,403,0.3935,10169.22,Leonard,07-29,100Ft,"Leonard, 403",49.3767256,3.0,Channel 0709R2
28651,404,0.3858,11053.56,Leonard,07-29,100Ft,"Leonard, 404",41.55472508,2.5,Thunder 3601R2Y
29361,405,0.4369,12827.82,Leonard,07-29,100Ft,"Leonard, 405",47.87782898,2.0,Thunder 3503R2Y
29541,407,0.4261,12587.42,Leonard,07-29,100Ft,"Leonard, 407",54.48507932,2.0,PB-0987R2
30010,408,0.4426,13282.43,Leonard,07-29,100Ft,"Leonard, 408",59.88914709,2.0,NKS08-M2
26948,409,0.3794,10224.07,Leonard,07-29,100Ft,"Leonard, 409",40.88265594,2.5,Channel 0507R2
28096,410,0.4078,11457.55,Leonard,07-29,100Ft,"Leonard, 410",49.08176662,2.0,Integra 20915N
22808,411,0.3651,8327.2,Leonard,07-29,100Ft,"Leonard, 411",36.44468001,2.5,Dyna S06RY47
26997,413,0.3779,10202.17,Leonard,07-29,100Ft,"Leonard, 413",49.45860496,2.5,Legend 11R760N
29190,415,0.4258,12429.1,Leonard,07-29,100Ft,"Leonard, 415",60.94941076,1.5,Thunder 3606R2Yn
28459,417,0.4406,12539.04,Leonard,07-29,100Ft,"Leonard, 417",57.98384374,2.0,W3031NR2
30576,418,0.4753,14532.77,Leonard,07-29,100Ft,"Leonard, 418",68.66189651,1.5,Integra 20775N
28974,420,0.4539,13151.3,Leonard,07-29,100Ft,"Leonard, 420",63.80060038,2.0,Legend 08R765N
30011,421,0.4606,13823.07,Leonard,07-29,100Ft,"Leonard, 421",66.37969442,1.5,Legacy 0334
30332,422,0.397,12041.8,Leonard,07-29,100Ft,"Leonard, 422",65.69575564,2.0,PFS 16R09N
27238,423,0.4079,11110.38,Leonard,07-29,100Ft,"Leonard, 423",54.97427148,1.0,REA 64G94
29738,424,0.4189,12457.25,Leonard,07-29,100Ft,"Leonard, 424",59.67461773,1.5,Legacy 0935N
30695,425,0.425,13045.38,Leonard,07-29,100Ft,"Leonard, 425",50.99730865,1.5,PB-0397R2
27344,429,0.3864,10565.72,Leonard,07-29,100Ft,"Leonard, 429",49.76283615,1.5,Legacy 0635N
29802,430,0.41,12218.82,Leonard,07-29,100Ft,"Leonard, 430",52.663588299999994,1.5,PB-X16061R2
29354,431,0.4368,12821.83,Leonard,07-29,100Ft,"Leonard, 431",54.69021565,1.5,NKS06-Q9
30094,432,0.3998,12031.58,Leonard,07-29,100Ft,"Leonard, 432",39.45829943,1.0,Legend 004R752
29823,433,0.4285,12779.16,Leonard,07-29,100Ft,"Leonard, 433",59.96522754,1.5,Legacy 0837N
29110,435,0.4227,12304.8,Leonard,07-29,100Ft,"Leonard, 435",65.89660319,1.5,PFS 15R07N
35163,436,0.4441,15615.89,Leonard,07-29,100Ft,"Leonard, 436",64.9105474,1.5,REA R0815
33000,437,0.4254,14038.2,Leonard,07-29,100Ft,"Leonard, 437",63.05655835,1.5,Channel 0807R2
31344,438,0.4279,13412.1,Leonard,07-29,100Ft,"Leonard, 438",52.31387193,1.0,Legend 03R650
33064,439,0.4539,15007.75,Leonard,07-29,100Ft,"Leonard, 439",54.60444015,1.0,NKS12-R3
31332,440,0.39299999999999996,12313.48,Leonard,07-29,100Ft,"Leonard, 440",52.10559453,1.5,REA R0216
