Canopy,PlotNumber,DGCI,pixel_DGCI,Location,date,alt,Plot_Loc,YLD3,IDC1,Cultivar
10023,101,0.3097,3104.12,Amenia,07-22,100Ft,"Amenia, 101",38.95596912,1.0,Thunder 3601R2Y
9220,102,0.3541,3264.8,Amenia,07-22,100Ft,"Amenia, 102",55.82100249,1.0,NKS08-M2
10076,103,0.3502,3528.62,Amenia,07-22,100Ft,"Amenia, 103",40.82656963,1.0,REA 64G94
8590,104,0.318,2731.62,Amenia,07-22,100Ft,"Amenia, 104",42.93374742,1.0,PFS 15R07N
8521,105,0.3124,2661.96,Amenia,07-22,100Ft,"Amenia, 105",38.20573555,1.0,Thunder 3606R2Yn
10354,106,0.3157,3268.76,Amenia,07-22,100Ft,"Amenia, 106",44.75185574,1.0,NKS06-Q9
9236,107,0.3305,3052.5,Amenia,07-22,100Ft,"Amenia, 107",46.84169721,1.0,NKS12-R3
11659,108,0.3253,3792.67,Amenia,07-22,100Ft,"Amenia, 108",42.69970716,1.0,Legacy 0334
11946,109,0.2802,3347.27,Amenia,07-22,100Ft,"Amenia, 109",51.54297975,1.5,Legacy 0935N
11942,110,0.3215,3839.35,Amenia,07-22,100Ft,"Amenia, 110",54.77405818,1.0,Integra 20775N
10310,111,0.2926,3016.71,Amenia,07-22,100Ft,"Amenia, 111",57.32183208,1.5,PFS 16R09N
11712,112,0.2987,3498.37,Amenia,07-22,100Ft,"Amenia, 112",60.80987457,1.0,PB-0987R2
9182,113,0.3312,3041.08,Amenia,07-22,100Ft,"Amenia, 113",36.37382462,1.0,PFS 17X03
10977,114,0.3501,3843.05,Amenia,07-22,100Ft,"Amenia, 114",48.53177654,1.0,W1037RX
11275,115,0.3408,3842.52,Amenia,07-22,100Ft,"Amenia, 115",48.94694203,1.0,Dahlman 6703XN
9405,116,0.3042,2861.0,Amenia,07-22,100Ft,"Amenia, 116",44.25580758,1.5,Dyna S04XT77
11850,117,0.305,3614.25,Amenia,07-22,100Ft,"Amenia, 117",57.89423251,1.0,Legacy 0837N
10580,118,0.3173,3357.03,Amenia,07-22,100Ft,"Amenia, 118",31.0915641,1.5,Dyna S03RY36
11117,119,0.3306,3675.28,Amenia,07-22,100Ft,"Amenia, 119",36.09369513,1.0,Legend 03R650
11118,120,0.3036,3375.42,Amenia,07-22,100Ft,"Amenia, 120",31.57867228,1.5,PB-0397R2
10456,121,0.3073,3213.13,Amenia,07-22,100Ft,"Amenia, 121",45.50501897,2.0,PB-X16061R2
12135,122,0.3324,4033.67,Amenia,07-22,100Ft,"Amenia, 122",53.72071089999999,1.0,Integra 20915N
10334,123,0.2765,2857.35,Amenia,07-22,100Ft,"Amenia, 123",41.52132096,1.5,Channel 0807R2
11400,124,0.3221,3671.94,Amenia,07-22,100Ft,"Amenia, 124",42.11939364,1.0,Dahlman 6707XN
10847,125,0.312,3384.26,Amenia,07-22,100Ft,"Amenia, 125",39.4144452,1.0,Channel 0507R2
9600,126,0.2969,2850.24,Amenia,07-22,100Ft,"Amenia, 126",45.01510195,1.0,Dyna S06XT87
11752,127,0.355,4171.96,Amenia,07-22,100Ft,"Amenia, 127",49.49596562,1.0,W1048NRX
3741,128,0.2829,1058.33,Amenia,07-22,100Ft,"Amenia, 128",0.0,,Integra 30607N
10589,129,0.2484,2630.31,Amenia,07-22,100Ft,"Amenia, 129",52.81535657,1.5,Legend 08R765N
3662,130,0.1982,725.81,Amenia,07-22,100Ft,"Amenia, 130",12.39386474,2.0,PFS 17X09N
10491,131,0.34600000000000003,3629.89,Amenia,07-22,100Ft,"Amenia, 131",19.72307899,1.5,Legend 004R752
11812,132,0.319,3768.03,Amenia,07-22,100Ft,"Amenia, 132",33.111939500000005,1.0,REA R0216
12032,133,0.3729,4486.73,Amenia,07-22,100Ft,"Amenia, 133",38.96490911,1.0,Thunder 3503R2Y
9445,134,0.272,2569.04,Amenia,07-22,100Ft,"Amenia, 134",42.90913227,2.0,Legend 11R760N
10078,135,0.2896,2918.59,Amenia,07-22,100Ft,"Amenia, 135",38.42953711,1.5,Legacy 0635N
11732,136,0.3647,4278.66,Amenia,07-22,100Ft,"Amenia, 136",53.92213231,1.0,Channel 0709R2
10440,137,0.3437,3588.23,Amenia,07-22,100Ft,"Amenia, 137",47.83935082,1.0,W3031NR2
11072,138,0.3756,4158.64,Amenia,07-22,100Ft,"Amenia, 138",65.51822452,1.5,REA R0815
11203,139,0.3305,3702.59,Amenia,07-22,100Ft,"Amenia, 139",52.68548522,1.0,Dyna S06RY47
11803,140,0.3458,4081.48,Amenia,07-22,100Ft,"Amenia, 140",29.99629556,1.0,Dahlman 67009X
11231,201,0.336,3773.62,Amenia,07-22,100Ft,"Amenia, 201",62.66697449,1.5,Legend 11R760N
10128,202,0.358,3625.82,Amenia,07-22,100Ft,"Amenia, 202",48.42063083,1.0,Dahlman 6703XN
12046,203,0.3306,3982.41,Amenia,07-22,100Ft,"Amenia, 203",41.32017138,1.0,Thunder 3601R2Y
10721,204,0.3456,3705.18,Amenia,07-22,100Ft,"Amenia, 204",57.44034724,1.5,Dahlman 6707XN
11267,205,0.3492,3934.44,Amenia,07-22,100Ft,"Amenia, 205",58.21746116,1.5,NKS08-M2
13483,206,0.3202,4317.26,Amenia,07-22,100Ft,"Amenia, 206",32.06445154,1.0,PB-0397R2
10334,207,0.3375,3487.73,Amenia,07-22,100Ft,"Amenia, 207",43.15256555,1.5,Dyna S04XT77
12255,208,0.3162,3875.03,Amenia,07-22,100Ft,"Amenia, 208",51.77620454,1.5,Legacy 0935N
12181,209,0.3091,3765.15,Amenia,07-22,100Ft,"Amenia, 209",59.14885018,1.5,PFS 16R09N
11409,210,0.3458,3945.23,Amenia,07-22,100Ft,"Amenia, 210",52.41003714,1.0,Dyna S06RY47
13326,211,0.3541,4718.74,Amenia,07-22,100Ft,"Amenia, 211",63.12110139,1.0,REA R0815
11985,212,0.369,4422.46,Amenia,07-22,100Ft,"Amenia, 212",38.94702914,1.0,PFS 17X03
11490,213,0.2935,3372.31,Amenia,07-22,100Ft,"Amenia, 213",52.34993389,1.5,PFS 17X09N
12402,214,0.3729,4624.71,Amenia,07-22,100Ft,"Amenia, 214",66.83385152,1.0,PFS 15R07N
12932,215,0.369,4771.91,Amenia,07-22,100Ft,"Amenia, 215",66.23910113,1.0,NKS06-Q9
10582,216,0.3756,3974.6,Amenia,07-22,100Ft,"Amenia, 216",41.60244525,1.0,W1037RX
13109,217,0.3824,5012.88,Amenia,07-22,100Ft,"Amenia, 217",46.63200028,1.0,Thunder 3503R2Y
10965,218,0.3395,3722.62,Amenia,07-22,100Ft,"Amenia, 218",54.23494105,1.5,Legacy 0635N
2424,219,0.2285,553.88,Amenia,07-22,100Ft,"Amenia, 219",0.0,,Integra 30607N
12564,220,0.3448,4332.07,Amenia,07-22,100Ft,"Amenia, 220",56.83508633,1.0,Legacy 0837N
10033,221,0.4087,4100.49,Amenia,07-22,100Ft,"Amenia, 221",72.68096181,1.0,Integra 20915N
10851,222,0.3586,3891.17,Amenia,07-22,100Ft,"Amenia, 222",69.65619762,1.0,NKS12-R3
9074,223,0.3194,2898.24,Amenia,07-22,100Ft,"Amenia, 223",43.72393909,1.5,Legacy 0334
11141,224,0.366,4077.61,Amenia,07-22,100Ft,"Amenia, 224",46.27817636,1.0,W3031NR2
11956,225,0.3036,3629.84,Amenia,07-22,100Ft,"Amenia, 225",27.36190049,1.5,REA R0216
11806,226,0.3614,4266.69,Amenia,07-22,100Ft,"Amenia, 226",41.54040903,1.0,W1048NRX
10986,227,0.3159,3470.48,Amenia,07-22,100Ft,"Amenia, 227",22.64436893,1.5,Dahlman 67009X
10384,228,0.3546,3682.17,Amenia,07-22,100Ft,"Amenia, 228",31.56417501,1.0,Legend 004R752
11928,229,0.3469,4137.82,Amenia,07-22,100Ft,"Amenia, 229",52.10480926,1.0,Dyna S06XT87
11770,230,0.345,4060.65,Amenia,07-22,100Ft,"Amenia, 230",48.38172983,1.5,Channel 0507R2
10919,231,0.3508,3830.39,Amenia,07-22,100Ft,"Amenia, 231",26.35784393,1.0,Dyna S03RY36
9972,232,0.37,3689.64,Amenia,07-22,100Ft,"Amenia, 232",51.28589488,1.0,REA 64G94
10494,233,0.3269,3430.49,Amenia,07-22,100Ft,"Amenia, 233",38.68831333,1.5,Channel 0807R2
11072,234,0.32299999999999995,3576.26,Amenia,07-22,100Ft,"Amenia, 234",38.21011493,1.5,Integra 20775N
11202,235,0.3428,3840.05,Amenia,07-22,100Ft,"Amenia, 235",56.32822563,1.0,PB-0987R2
13031,236,0.3663,4773.26,Amenia,07-22,100Ft,"Amenia, 236",48.4317454,1.0,Thunder 3606R2Yn
12225,237,0.33399999999999996,4083.15,Amenia,07-22,100Ft,"Amenia, 237",41.09467847,1.5,Legend 08R765N
11937,238,0.3794,4528.9,Amenia,07-22,100Ft,"Amenia, 238",44.24058545,1.0,Channel 0709R2
9829,239,0.365,3587.58,Amenia,07-22,100Ft,"Amenia, 239",38.97384909,1.0,PB-X16061R2
10724,240,0.3487,3739.46,Amenia,07-22,100Ft,"Amenia, 240",20.05491539,1.0,Legend 03R650
10244,301,0.3424,3507.55,Amenia,07-22,100Ft,"Amenia, 301",47.85034458,1.0,REA 64G94
11106,302,0.28300000000000003,3143.0,Amenia,07-22,100Ft,"Amenia, 302",14.69282929,1.5,Legend 03R650
15284,303,0.3287,5023.85,Amenia,07-22,100Ft,"Amenia, 303",26.34878314,1.5,Channel 0709R2
14896,304,0.3021,4500.08,Amenia,07-22,100Ft,"Amenia, 304",20.03884759,2.0,Dyna S03RY36
9341,305,0.3263,3047.97,Amenia,07-22,100Ft,"Amenia, 305",45.76279851,1.0,W3031NR2
10172,306,0.3432,3491.03,Amenia,07-22,100Ft,"Amenia, 306",71.50438777,1.0,NKS12-R3
10630,307,0.293,3114.59,Amenia,07-22,100Ft,"Amenia, 307",32.85292166,2.0,REA R0216
12567,308,0.3661,4600.78,Amenia,07-22,100Ft,"Amenia, 308",53.65293618,1.0,Thunder 3503R2Y
12938,309,0.3899,5044.53,Amenia,07-22,100Ft,"Amenia, 309",72.92756637,1.0,Integra 20915N
11135,310,0.3682,4099.91,Amenia,07-22,100Ft,"Amenia, 310",68.45186735,1.0,Dyna S04XT77
12761,311,0.3803,4853.01,Amenia,07-22,100Ft,"Amenia, 311",55.135825399999995,1.0,Dahlman 67009X
9801,312,0.3705,3631.27,Amenia,07-22,100Ft,"Amenia, 312",71.60296919,1.0,Legend 11R760N
11868,313,0.3326,3947.3,Amenia,07-22,100Ft,"Amenia, 313",46.331333,1.0,Dahlman 6703XN
13124,314,0.2901,3807.27,Amenia,07-22,100Ft,"Amenia, 314",64.20259752,1.0,PB-0987R2
10906,315,0.3112,3393.95,Amenia,07-22,100Ft,"Amenia, 315",32.15288487,1.5,PFS 17X03
11711,316,0.3693,4324.87,Amenia,07-22,100Ft,"Amenia, 316",55.75056993,1.5,Legacy 0635N
11118,317,0.3822,4249.3,Amenia,07-22,100Ft,"Amenia, 317",67.36010232,1.5,Dyna S06RY47
14772,318,0.3799,5611.88,Amenia,07-22,100Ft,"Amenia, 318",66.23149007,1.0,PB-0397R2
11190,319,0.4014,4491.67,Amenia,07-22,100Ft,"Amenia, 319",78.09442259999999,1.0,REA R0815
11563,320,0.414,4787.08,Amenia,07-22,100Ft,"Amenia, 320",79.2007453,1.0,Integra 20775N
13145,321,0.3468,4558.69,Amenia,07-22,100Ft,"Amenia, 321",65.48062223,1.5,Thunder 3606R2Yn
11335,322,0.3622,4105.54,Amenia,07-22,100Ft,"Amenia, 322",69.36145006,1.5,PB-X16061R2
10770,323,0.4234,4560.02,Amenia,07-22,100Ft,"Amenia, 323",66.81083711,1.0,W1037RX
10510,324,0.40700000000000003,4277.57,Amenia,07-22,100Ft,"Amenia, 324",77.04264587,1.0,NKS08-M2
11632,325,0.3509,4081.67,Amenia,07-22,100Ft,"Amenia, 325",63.69827384,1.0,Dyna S06XT87
12736,326,0.3883,4945.39,Amenia,07-22,100Ft,"Amenia, 326",63.53747498,1.5,Legacy 0935N
5693,327,0.2562,1458.55,Amenia,07-22,100Ft,"Amenia, 327",23.91967541,2.0,PFS 17X09N
9253,328,0.2755,2549.2,Amenia,07-22,100Ft,"Amenia, 328",42.0469073,2.0,PFS 16R09N
10819,329,0.3419,3699.02,Amenia,07-22,100Ft,"Amenia, 329",24.71675328,1.5,Legend 004R752
12142,330,0.3209,3896.37,Amenia,07-22,100Ft,"Amenia, 330",53.36540705,2.0,Channel 0807R2
10903,331,0.39399999999999996,4295.78,Amenia,07-22,100Ft,"Amenia, 331",70.26254582,1.5,PFS 15R07N
11697,332,0.3252,3803.86,Amenia,07-22,100Ft,"Amenia, 332",68.41260392,1.5,Legacy 0837N
11770,333,0.3849,4530.27,Amenia,07-22,100Ft,"Amenia, 333",71.33972298,1.5,Legacy 0334
11439,334,0.3527,4034.54,Amenia,07-22,100Ft,"Amenia, 334",68.67572932,1.5,Dahlman 6707XN
11221,335,0.382,4286.42,Amenia,07-22,100Ft,"Amenia, 335",72.16845321,1.5,NKS06-Q9
12261,336,0.373,4573.35,Amenia,07-22,100Ft,"Amenia, 336",68.32622437,1.5,Channel 0507R2
10731,337,0.3995,4287.03,Amenia,07-22,100Ft,"Amenia, 337",71.20876433,1.0,Thunder 3601R2Y
10923,338,0.4055,4429.28,Amenia,07-22,100Ft,"Amenia, 338",76.3326422,1.0,W1048NRX
274,339,0.2087,57.18,Amenia,07-22,100Ft,"Amenia, 339",0.0,,Integra 30607N
10650,340,0.3104,3305.76,Amenia,07-22,100Ft,"Amenia, 340",62.63103335,1.5,Legend 08R765N
9322,401,0.3183,2967.19,Amenia,07-22,100Ft,"Amenia, 401",53.10862420000001,2.0,PB-X16061R2
12238,402,0.3438,4207.42,Amenia,07-22,100Ft,"Amenia, 402",52.93677118,1.5,W1048NRX
10747,403,0.3719,3996.81,Amenia,07-22,100Ft,"Amenia, 403",64.18785863,1.5,Legacy 0837N
12468,404,0.3688,4598.2,Amenia,07-22,100Ft,"Amenia, 404",59.41855975,1.5,Channel 0507R2
11674,405,0.3634,4242.33,Amenia,07-22,100Ft,"Amenia, 405",65.53326544,1.5,Dahlman 6703XN
10699,406,0.3901,4173.68,Amenia,07-22,100Ft,"Amenia, 406",77.65763202,1.5,Integra 20915N
14909,407,0.3033,4521.9,Amenia,07-22,100Ft,"Amenia, 407",69.68821242,2.0,Legend 08R765N
37,408,0.1775,6.57,Amenia,07-22,100Ft,"Amenia, 408",0.0,,Integra 30607N
10590,409,0.4041,4279.42,Amenia,07-22,100Ft,"Amenia, 409",67.24412418,1.0,Thunder 3601R2Y
12061,410,0.3541,4270.8,Amenia,07-22,100Ft,"Amenia, 410",67.92531452,1.0,Legacy 0635N
12569,411,0.3507,4407.95,Amenia,07-22,100Ft,"Amenia, 411",61.86285941,1.5,Dyna S06RY47
13856,412,0.3526,4885.63,Amenia,07-22,100Ft,"Amenia, 412",70.16577656,1.5,Legacy 0935N
14016,413,0.3759,5268.61,Amenia,07-22,100Ft,"Amenia, 413",58.38031379999999,1.0,Channel 0709R2
11170,414,0.3519,3930.72,Amenia,07-22,100Ft,"Amenia, 414",58.94008953,1.0,Dahlman 6707XN
12793,415,0.39799999999999996,5091.61,Amenia,07-22,100Ft,"Amenia, 415",43.83097725,1.0,PB-0397R2
10310,416,0.38799999999999996,4000.28,Amenia,07-22,100Ft,"Amenia, 416",42.11939364,1.0,PFS 17X03
10146,417,0.4059,4118.26,Amenia,07-22,100Ft,"Amenia, 417",56.44858315,1.0,W3031NR2
11877,418,0.4153,4932.52,Amenia,07-22,100Ft,"Amenia, 418",67.42195732,1.0,Legacy 0334
10477,419,0.3892,4077.65,Amenia,07-22,100Ft,"Amenia, 419",74.18432842,1.0,Channel 0807R2
11118,420,0.4266,4742.94,Amenia,07-22,100Ft,"Amenia, 420",74.64183801,1.0,PFS 15R07N
10746,421,0.3788,4070.58,Amenia,07-22,100Ft,"Amenia, 421",55.80819657,1.0,W1037RX
12379,422,0.3567,4415.59,Amenia,07-22,100Ft,"Amenia, 422",63.91011516,1.0,PB-0987R2
11275,423,0.3873,4366.81,Amenia,07-22,100Ft,"Amenia, 423",52.37397519,1.0,Thunder 3503R2Y
12174,424,0.3702,4506.81,Amenia,07-22,100Ft,"Amenia, 424",43.89150334,1.0,REA R0216
9970,425,0.3934,3922.2,Amenia,07-22,100Ft,"Amenia, 425",59.20321493,1.0,REA 64G94
11232,426,0.2969,3334.78,Amenia,07-22,100Ft,"Amenia, 426",56.62390947,1.5,PFS 17X09N
10622,427,0.3505,3723.01,Amenia,07-22,100Ft,"Amenia, 427",71.52903312,1.0,NKS12-R3
9809,428,0.3546,3478.27,Amenia,07-22,100Ft,"Amenia, 428",52.35594421,1.5,Dyna S06XT87
10809,429,0.3647,3942.04,Amenia,07-22,100Ft,"Amenia, 429",46.54112054,1.0,NKS08-M2
9637,430,0.344,3315.13,Amenia,07-22,100Ft,"Amenia, 430",34.9836273,1.0,Dyna S04XT77
11286,431,0.3601,4064.09,Amenia,07-22,100Ft,"Amenia, 431",53.0720186,2.0,PFS 16R09N
9232,432,0.3784,3493.39,Amenia,07-22,100Ft,"Amenia, 432",38.91126922,1.0,Legend 004R752
12059,433,0.3753,4525.74,Amenia,07-22,100Ft,"Amenia, 433",64.9322933,1.0,REA R0815
12119,434,0.3888,4711.87,Amenia,07-22,100Ft,"Amenia, 434",52.009127299999996,1.0,Integra 20775N
12527,435,0.3682,4612.44,Amenia,07-22,100Ft,"Amenia, 435",57.57816188,1.0,Thunder 3606R2Yn
9979,436,0.4062,4053.47,Amenia,07-22,100Ft,"Amenia, 436",58.94685492,1.5,Dyna S03RY36
13135,437,0.3914,5141.04,Amenia,07-22,100Ft,"Amenia, 437",68.67572932,2.0,Legend 11R760N
10912,438,0.4436,4840.56,Amenia,07-22,100Ft,"Amenia, 438",67.1745373,1.0,NKS06-Q9
9536,439,0.4172,3978.42,Amenia,07-22,100Ft,"Amenia, 439",53.7515176,1.0,Legend 03R650
10510,440,0.3785,3978.04,Amenia,07-22,100Ft,"Amenia, 440",34.74052625,1.0,Dahlman 67009X
15926,101,0.3878,6176.1,Colfax,07-22,100Ft,"Colfax, 101",,,Integra 20915N
14375,102,0.4098,5890.88,Colfax,07-22,100Ft,"Colfax, 102",79.31793155,2.0,Legend 08R765N
13907,103,0.4424,6152.46,Colfax,07-22,100Ft,"Colfax, 103",84.84317231,2.0,W1048NRX
14718,104,0.4254,6261.04,Colfax,07-22,100Ft,"Colfax, 104",81.10043095,2.0,Legend 03R650
14526,105,0.4298,6243.27,Colfax,07-22,100Ft,"Colfax, 105",83.90809857,2.0,PB-X16061R2
14522,106,0.4271,6202.35,Colfax,07-22,100Ft,"Colfax, 106",80.61471209999999,1.5,NKS06-Q9
16142,107,0.3721,6006.44,Colfax,07-22,100Ft,"Colfax, 107",76.84795965,1.5,REA 64G94
15075,108,0.4022,6063.16,Colfax,07-22,100Ft,"Colfax, 108",76.5167575,1.5,Dahlman 6707XN
19555,109,0.3873,7573.65,Colfax,07-22,100Ft,"Colfax, 109",78.33936601,2.5,PFS 16R09N
15406,110,0.4497,6928.08,Colfax,07-22,100Ft,"Colfax, 110",84.05515523,1.5,NKS08-M2
15538,111,0.4662,7243.82,Colfax,07-22,100Ft,"Colfax, 111",87.39774179999999,2.0,Integra 30607N
14193,112,0.4581,6501.81,Colfax,07-22,100Ft,"Colfax, 112",67.75053185,1.5,W3031NR2
14501,113,0.4564,6618.26,Colfax,07-22,100Ft,"Colfax, 113",85.57211302,2.0,Dyna S06RY47
15175,114,0.4288,6507.04,Colfax,07-22,100Ft,"Colfax, 114",82.70860072,2.0,Legacy 0334
17385,115,0.3818,6637.59,Colfax,07-22,100Ft,"Colfax, 115",87.8233574,2.0,Legacy 0837N
15516,116,0.4183,6490.34,Colfax,07-22,100Ft,"Colfax, 116",78.86187168,1.5,PB-0397R2
16788,117,0.4011,6733.67,Colfax,07-22,100Ft,"Colfax, 117",84.42489594,1.5,Channel 0709R2
15630,118,0.4333,6772.48,Colfax,07-22,100Ft,"Colfax, 118",74.96881179,1.5,Dyna S03RY36
12847,119,0.4665,5993.13,Colfax,07-22,100Ft,"Colfax, 119",73.15919041,2.0,Dahlman 67009X
15740,120,0.4342,6834.31,Colfax,07-22,100Ft,"Colfax, 120",90.11283833,2.5,Legend 11R760N
14662,121,0.4195,6150.71,Colfax,07-22,100Ft,"Colfax, 121",82.15972815,2.0,REA R0815
16186,122,0.3898,6309.3,Colfax,07-22,100Ft,"Colfax, 122",75.36096287,2.5,Channel 0807R2
14880,123,0.4459,6634.99,Colfax,07-22,100Ft,"Colfax, 123",77.98678039,2.0,Dyna S04XT77
16700,124,0.4448,7428.16,Colfax,07-22,100Ft,"Colfax, 124",88.93330442,2.0,Legacy 0935N
15364,125,0.4536,6969.11,Colfax,07-22,100Ft,"Colfax, 125",85.31943774,1.5,Thunder 3606R2Yn
13929,126,0.4389,6113.44,Colfax,07-22,100Ft,"Colfax, 126",75.35229471,2.0,W1037RX
17294,127,0.3912,6765.41,Colfax,07-22,100Ft,"Colfax, 127",79.58613099,2.0,Channel 0507R2
18980,128,0.3795,7202.91,Colfax,07-22,100Ft,"Colfax, 128",81.85954411,2.0,PB-0987R2
15988,129,0.3761,6013.09,Colfax,07-22,100Ft,"Colfax, 129",72.79621509,2.0,REA R0216
13808,130,0.4207,5809.03,Colfax,07-22,100Ft,"Colfax, 130",67.39543941,2.0,Legend 004R752
14365,131,0.4229,6074.96,Colfax,07-22,100Ft,"Colfax, 131",72.65148404,2.0,PFS 17X03
15263,132,0.4451,6793.56,Colfax,07-22,100Ft,"Colfax, 132",91.58832790000001,1.5,NKS12-R3
16461,133,0.4503,7412.39,Colfax,07-22,100Ft,"Colfax, 133",91.14730895,2.0,Integra 20775N
13135,134,0.4752,6241.75,Colfax,07-22,100Ft,"Colfax, 134",77.81634689,2.0,Thunder 3601R2Y
12463,135,0.3107,3872.25,Colfax,07-22,100Ft,"Colfax, 135",61.94791004,3.0,PFS 17X09N
13724,136,0.4567,6267.75,Colfax,07-22,100Ft,"Colfax, 136",84.30813254,2.5,PFS 15R07N
14672,137,0.4537,6656.69,Colfax,07-22,100Ft,"Colfax, 137",84.77488414,1.5,Thunder 3503R2Y
14697,138,0.4402,6469.62,Colfax,07-22,100Ft,"Colfax, 138",77.16351683,2.0,Dyna S06XT87
15703,139,0.4228,6639.23,Colfax,07-22,100Ft,"Colfax, 139",82.12191444,2.0,Dahlman 6703XN
16409,140,0.4278,7019.77,Colfax,07-22,100Ft,"Colfax, 140",87.65186681,2.0,Legacy 0635N
15832,201,0.4214,6671.6,Colfax,07-22,100Ft,"Colfax, 201",82.12339437,2.5,Integra 30607N
15906,202,0.4126,6562.82,Colfax,07-22,100Ft,"Colfax, 202",81.61595982,2.0,Dahlman 6707XN
17647,203,0.3874,6836.45,Colfax,07-22,100Ft,"Colfax, 203",86.63204447,2.5,PFS 16R09N
15581,204,0.4458,6946.01,Colfax,07-22,100Ft,"Colfax, 204",86.04756298,2.0,PFS 15R07N
15310,205,0.4325,6621.58,Colfax,07-22,100Ft,"Colfax, 205",82.57395735,2.0,NKS08-M2
9874,206,0.4929,4866.89,Colfax,07-22,100Ft,"Colfax, 206",68.52737395,2.0,Legend 004R752
11793,207,0.4704,5547.43,Colfax,07-22,100Ft,"Colfax, 207",90.90626168,2.0,NKS06-Q9
12769,208,0.4695,5995.05,Colfax,07-22,100Ft,"Colfax, 208",75.63224298,2.5,W1037RX
16635,209,0.4207,6998.34,Colfax,07-22,100Ft,"Colfax, 209",79.12801735,2.0,Legacy 0635N
13960,210,0.4263,5951.15,Colfax,07-22,100Ft,"Colfax, 210",79.7361475,2.0,Thunder 3606R2Yn
14935,211,0.3981,5945.62,Colfax,07-22,100Ft,"Colfax, 211",82.59908595,2.0,PB-X16061R2
16446,212,0.429,7055.33,Colfax,07-22,100Ft,"Colfax, 212",92.64140335,2.0,Legacy 0334
12583,213,0.4671,5877.52,Colfax,07-22,100Ft,"Colfax, 213",80.43319423,2.5,PFS 17X03
14933,214,0.4381,6542.15,Colfax,07-22,100Ft,"Colfax, 214",71.58587449,2.0,Dahlman 67009X
16239,215,0.4331,7033.11,Colfax,07-22,100Ft,"Colfax, 215",76.42007885,2.5,Legend 03R650
16623,216,0.4338,7211.06,Colfax,07-22,100Ft,"Colfax, 216",81.69934931,2.0,Channel 0507R2
15978,217,0.3983,6364.04,Colfax,07-22,100Ft,"Colfax, 217",93.75246786,2.5,REA R0815
15139,218,0.4148,6279.66,Colfax,07-22,100Ft,"Colfax, 218",70.25263935,2.0,Thunder 3601R2Y
15355,219,0.4201,6450.64,Colfax,07-22,100Ft,"Colfax, 219",76.05094218,2.0,PB-0397R2
17817,220,0.3933,7007.43,Colfax,07-22,100Ft,"Colfax, 220",76.84143588,2.5,Legend 08R765N
15755,221,0.4399,6930.62,Colfax,07-22,100Ft,"Colfax, 221",79.02801641,2.0,W1048NRX
16148,222,0.4447,7181.02,Colfax,07-22,100Ft,"Colfax, 222",90.84283613,2.0,PB-0987R2
17293,223,0.4144,7166.22,Colfax,07-22,100Ft,"Colfax, 223",87.5704707,2.5,Legend 11R760N
18032,224,0.4019,7247.06,Colfax,07-22,100Ft,"Colfax, 224",83.47218387,2.5,Channel 0807R2
14684,225,0.4044,5938.21,Colfax,07-22,100Ft,"Colfax, 225",76.58247844,2.5,REA R0216
20196,226,0.3935,7947.13,Colfax,07-22,100Ft,"Colfax, 226",82.44686465,2.0,Legacy 0935N
16966,227,0.4272,7247.88,Colfax,07-22,100Ft,"Colfax, 227",83.94884193,2.0,Dahlman 6703XN
14678,228,0.4405,6465.66,Colfax,07-22,100Ft,"Colfax, 228",91.32589716,1.5,NKS12-R3
16647,229,0.3629,6041.2,Colfax,07-22,100Ft,"Colfax, 229",81.82260628,3.0,PFS 17X09N
15707,230,0.4669,7333.6,Colfax,07-22,100Ft,"Colfax, 230",73.19307778,2.5,W3031NR2
17728,231,0.3622,6421.08,Colfax,07-22,100Ft,"Colfax, 231",91.27334456,2.5,Channel 0709R2
16180,232,0.3659,5920.26,Colfax,07-22,100Ft,"Colfax, 232",75.49306922,2.5,Dyna S06XT87
17472,233,0.3593,6277.69,Colfax,07-22,100Ft,"Colfax, 233",77.9239891,2.5,Dyna S04XT77
18772,234,0.3853,7232.85,Colfax,07-22,100Ft,"Colfax, 234",82.09355416,2.5,Dyna S03RY36
18108,235,0.3942,7138.17,Colfax,07-22,100Ft,"Colfax, 235",86.53237576,3.0,Integra 20775N
20764,236,0.3778,7844.64,Colfax,07-22,100Ft,"Colfax, 236",78.72016090000001,2.5,Dyna S06RY47
22329,237,0.3491,7795.05,Colfax,07-22,100Ft,"Colfax, 237",91.3469182,2.5,Integra 20915N
20111,238,0.3583,7205.77,Colfax,07-22,100Ft,"Colfax, 238",75.0638293,2.0,Thunder 3503R2Y
16521,239,0.3477,5744.35,Colfax,07-22,100Ft,"Colfax, 239",78.90747767,1.5,REA 64G94
19884,240,0.3712,7380.94,Colfax,07-22,100Ft,"Colfax, 240",91.52508357,2.5,Legacy 0837N
17359,301,0.3857,6695.37,Colfax,07-22,100Ft,"Colfax, 301",85.64695516,1.5,Thunder 3503R2Y
17048,302,0.3757,6404.93,Colfax,07-22,100Ft,"Colfax, 302",86.79151441,1.5,Dyna S06RY47
17585,303,0.3782,6650.65,Colfax,07-22,100Ft,"Colfax, 303",90.24165258,1.0,Legacy 0334
13934,304,0.4024,5607.04,Colfax,07-22,100Ft,"Colfax, 304",95.24994496,1.0,Legend 11R760N
15130,305,0.3887,5881.03,Colfax,07-22,100Ft,"Colfax, 305",81.38161753,1.0,Dyna S06XT87
14900,306,0.4438,6612.62,Colfax,07-22,100Ft,"Colfax, 306",80.69604781,1.0,Dahlman 67009X
11551,307,0.4717,5448.61,Colfax,07-22,100Ft,"Colfax, 307",96.07447703,1.0,NKS08-M2
12294,308,0.4561,5607.29,Colfax,07-22,100Ft,"Colfax, 308",67.68375381,1.0,REA 64G94
12371,309,0.4614,5707.98,Colfax,07-22,100Ft,"Colfax, 309",85.60165119999999,1.0,PB-X16061R2
16218,310,0.4332,7025.64,Colfax,07-22,100Ft,"Colfax, 310",91.07273863,1.0,Integra 20915N
18040,311,0.4157,7499.23,Colfax,07-22,100Ft,"Colfax, 311",78.01369094,1.0,W1048NRX
16284,312,0.387,6301.91,Colfax,07-22,100Ft,"Colfax, 312",70.48825015,1.0,Channel 0507R2
14095,313,0.4199,5918.49,Colfax,07-22,100Ft,"Colfax, 313",90.60112441,1.5,NKS12-R3
15733,314,0.4038,6352.99,Colfax,07-22,100Ft,"Colfax, 314",73.37912604,1.5,Dyna S04XT77
15713,315,0.3717,5840.52,Colfax,07-22,100Ft,"Colfax, 315",82.42442408,2.5,Legend 08R765N
15306,316,0.4323,6616.78,Colfax,07-22,100Ft,"Colfax, 316",79.30074624,2.0,Thunder 3606R2Yn
14975,317,0.3725,5578.19,Colfax,07-22,100Ft,"Colfax, 317",82.11397115,2.0,Legacy 0635N
11965,318,0.4341,5194.01,Colfax,07-22,100Ft,"Colfax, 318",70.02868678,1.5,REA R0216
15194,319,0.4048,6150.53,Colfax,07-22,100Ft,"Colfax, 319",77.33222878,2.0,PFS 17X09N
12781,320,0.4521,5778.29,Colfax,07-22,100Ft,"Colfax, 320",78.64767456,1.0,Legacy 0935N
11471,321,0.4736,5432.67,Colfax,07-22,100Ft,"Colfax, 321",77.91501892,1.0,Dyna S03RY36
8569,322,0.488,4181.67,Colfax,07-22,100Ft,"Colfax, 322",85.43426817,1.0,PFS 15R07N
12364,323,0.4461,5515.58,Colfax,07-22,100Ft,"Colfax, 323",80.26683809,1.0,Channel 0807R2
11736,324,0.44299999999999995,5199.05,Colfax,07-22,100Ft,"Colfax, 324",71.01939378,1.0,PFS 17X03
14386,325,0.42700000000000005,6142.82,Colfax,07-22,100Ft,"Colfax, 325",81.02401828,1.5,Dahlman 6703XN
17253,326,0.3457,5964.36,Colfax,07-22,100Ft,"Colfax, 326",72.16845321,2.5,PFS 16R09N
15279,327,0.4613,7048.2,Colfax,07-22,100Ft,"Colfax, 327",69.79050876,,W3031NR2
14508,328,0.4573,6634.51,Colfax,07-22,100Ft,"Colfax, 328",74.01398553,2.0,Channel 0709R2
14118,329,0.4574,6457.57,Colfax,07-22,100Ft,"Colfax, 329",86.26550523,2.5,Integra 20775N
14343,330,0.4499,6452.92,Colfax,07-22,100Ft,"Colfax, 330",79.97689275,2.0,NKS06-Q9
15918,331,0.3912,6227.12,Colfax,07-22,100Ft,"Colfax, 331",65.98793598,2.5,Thunder 3601R2Y
14581,332,0.4262,6214.42,Colfax,07-22,100Ft,"Colfax, 332",83.73150374,2.0,PB-0987R2
13615,333,0.4339,5907.55,Colfax,07-22,100Ft,"Colfax, 333",76.54312440000001,2.0,Integra 30607N
9014,334,0.4614,4159.06,Colfax,07-22,100Ft,"Colfax, 334",67.05659599,1.5,Legend 004R752
10271,335,0.509,5227.94,Colfax,07-22,100Ft,"Colfax, 335",85.95840479,1.5,REA R0815
10118,336,0.4738,4793.91,Colfax,07-22,100Ft,"Colfax, 336",75.0638293,2.0,W1037RX
15049,337,0.4444,6687.78,Colfax,07-22,100Ft,"Colfax, 337",86.38939646,2.0,Legacy 0837N
16902,338,0.4019,6792.91,Colfax,07-22,100Ft,"Colfax, 338",73.87034178,1.5,Legend 03R650
15218,339,0.4172,6348.95,Colfax,07-22,100Ft,"Colfax, 339",70.88891837,2.0,Dahlman 6707XN
17419,340,0.4622,8051.06,Colfax,07-22,100Ft,"Colfax, 340",74.02002606,2.0,PB-0397R2
16400,401,0.4419,7247.16,Colfax,07-22,100Ft,"Colfax, 401",85.34888531,2.5,PFS 15R07N
15889,402,0.3537,5619.94,Colfax,07-22,100Ft,"Colfax, 402",74.42262725,3.0,Legend 11R760N
14842,403,0.3936,5841.81,Colfax,07-22,100Ft,"Colfax, 403",68.03214126,2.0,Channel 0709R2
14692,404,0.4046,5944.38,Colfax,07-22,100Ft,"Colfax, 404",68.89137617,2.0,Dahlman 6703XN
15113,405,0.389,5878.96,Colfax,07-22,100Ft,"Colfax, 405",87.17714172,2.5,Dyna S06RY47
16351,406,0.4087,6682.65,Colfax,07-22,100Ft,"Colfax, 406",77.62199291,2.0,Dyna S03RY36
12614,407,0.4283,5402.58,Colfax,07-22,100Ft,"Colfax, 407",53.68685375,2.5,Legend 004R752
14549,408,0.4067,5917.08,Colfax,07-22,100Ft,"Colfax, 408",73.81093318,3.0,Integra 30607N
15271,409,0.401,6123.67,Colfax,07-22,100Ft,"Colfax, 409",57.69489509,2.5,W3031NR2
16407,410,0.4052,6648.12,Colfax,07-22,100Ft,"Colfax, 410",89.55505597,2.5,Integra 20915N
14805,411,0.4093,6059.69,Colfax,07-22,100Ft,"Colfax, 411",79.14619934,2.5,Thunder 3606R2Yn
15568,412,0.4394,6840.58,Colfax,07-22,100Ft,"Colfax, 412",71.07647676,2.5,PFS 17X03
16245,413,0.483,7846.34,Colfax,07-22,100Ft,"Colfax, 413",88.59183337,2.0,NKS12-R3
14983,414,0.4695,7034.52,Colfax,07-22,100Ft,"Colfax, 414",82.79887641,2.5,Legacy 0635N
14415,415,0.4973,7168.58,Colfax,07-22,100Ft,"Colfax, 415",90.70698466,2.0,Integra 20775N
17920,416,0.3871,6936.83,Colfax,07-22,100Ft,"Colfax, 416",80.37774218,2.5,REA R0815
15879,417,0.3417,5425.85,Colfax,07-22,100Ft,"Colfax, 417",70.91338251,2.5,Dyna S06XT87
14730,418,0.4471,6585.78,Colfax,07-22,100Ft,"Colfax, 418",73.74995405,2.0,PB-0397R2
14779,419,0.3393,5014.51,Colfax,07-22,100Ft,"Colfax, 419",58.40082139,3.0,Thunder 3601R2Y
14092,420,0.2855,4023.27,Colfax,07-22,100Ft,"Colfax, 420",69.60017172,3.0,Legacy 0837N
15225,421,0.4184,6370.14,Colfax,07-22,100Ft,"Colfax, 421",72.33085281,2.0,W1048NRX
15779,422,0.3749,5915.55,Colfax,07-22,100Ft,"Colfax, 422",62.18892711,3.0,W1037RX
16255,423,0.3306,5373.9,Colfax,07-22,100Ft,"Colfax, 423",76.18289751,2.5,NKS08-M2
10221,424,0.2072,2117.79,Colfax,07-22,100Ft,"Colfax, 424",53.9918098,3.0,Legacy 0935N
15986,425,0.2844,4546.42,Colfax,07-22,100Ft,"Colfax, 425",61.720907,2.5,REA R0216
19262,426,0.4195,8080.41,Colfax,07-22,100Ft,"Colfax, 426",72.16845321,2.5,PB-0987R2
16346,427,0.4781,7815.02,Colfax,07-22,100Ft,"Colfax, 427",76.0523617,2.0,Dahlman 67009X
15306,428,0.47600000000000003,7285.66,Colfax,07-22,100Ft,"Colfax, 428",80.2760801,1.5,Thunder 3503R2Y
17709,429,0.4225,7482.05,Colfax,07-22,100Ft,"Colfax, 429",78.7111001,2.5,Dyna S04XT77
17130,430,0.4466,7650.26,Colfax,07-22,100Ft,"Colfax, 430",73.8351255,2.5,NKS06-Q9
17511,431,0.386,6759.25,Colfax,07-22,100Ft,"Colfax, 431",72.4725636,2.5,Legend 03R650
16854,432,0.3954,6664.07,Colfax,07-22,100Ft,"Colfax, 432",72.01064442,2.0,REA 64G94
17053,433,0.2845,4851.58,Colfax,07-22,100Ft,"Colfax, 433",63.49362075,3.0,Channel 0807R2
9457,434,0.1969,1862.08,Colfax,07-22,100Ft,"Colfax, 434",42.96192648,3.0,Legend 08R765N
8191,435,0.1988,1628.37,Colfax,07-22,100Ft,"Colfax, 435",33.77854197,3.5,PFS 17X09N
18558,436,0.3683,6834.91,Colfax,07-22,100Ft,"Colfax, 436",65.98793598,2.5,Channel 0507R2
17855,437,0.3486,6224.25,Colfax,07-22,100Ft,"Colfax, 437",68.1927287,2.5,Dahlman 6707XN
17198,438,0.2586,4447.4,Colfax,07-22,100Ft,"Colfax, 438",67.75835433,3.0,PFS 16R09N
16349,439,0.3639,5949.4,Colfax,07-22,100Ft,"Colfax, 439",75.28430857,2.5,PB-X16061R2
19591,440,0.4268,8361.44,Colfax,07-22,100Ft,"Colfax, 440",82.62762745,2.0,Legacy 0334
10992,101,0.2446,2688.64,Leonard,07-22,100Ft,"Leonard, 101",42.62359651,3.0,Channel 0507R2
11432,102,0.2342,2677.37,Leonard,07-22,100Ft,"Leonard, 102",49.11408344,3.0,Channel 0807R2
12823,103,0.2931,3758.42,Leonard,07-22,100Ft,"Leonard, 103",58.56246592,2.5,NKS08-M2
12002,105,0.3416,4099.88,Leonard,07-22,100Ft,"Leonard, 105",60.35254619,3.0,PB-0987R2
11501,106,0.3156,3629.72,Leonard,07-22,100Ft,"Leonard, 106",57.06544187,2.0,Legacy 0334
1125,107,0.1784,200.7,Leonard,07-22,100Ft,"Leonard, 107",0.0,,Integra 30607N
8998,108,0.1997,1796.9,Leonard,07-22,100Ft,"Leonard, 108",45.54328572,2.5,Dyna S06RY47
11348,110,0.2932,3327.23,Leonard,07-22,100Ft,"Leonard, 110",60.75502657,3.0,Legend 11R760N
13305,111,0.2906,3866.43,Leonard,07-22,100Ft,"Leonard, 111",55.8062334,2.5,Legend 03R650
12376,112,0.2823,3493.74,Leonard,07-22,100Ft,"Leonard, 112",60.19917718,2.5,Integra 20915N
11761,114,0.2697,3171.94,Leonard,07-22,100Ft,"Leonard, 114",59.55507568,2.5,REA R0815
13585,116,0.3263,4432.79,Leonard,07-22,100Ft,"Leonard, 116",54.79121328,2.0,NKS06-Q9
14216,117,0.2925,4158.18,Leonard,07-22,100Ft,"Leonard, 117",50.84732234,2.0,Dyna S03RY36
11787,118,0.2918,3439.45,Leonard,07-22,100Ft,"Leonard, 118",59.83230572,2.5,NKS12-R3
12449,119,0.3037,3780.76,Leonard,07-22,100Ft,"Leonard, 119",53.647439299999995,2.0,Legacy 0635N
11598,120,0.3174,3681.21,Leonard,07-22,100Ft,"Leonard, 120",60.8800655,2.0,Thunder 3503R2Y
11194,122,0.2676,2995.51,Leonard,07-22,100Ft,"Leonard, 122",47.10485282,2.0,Integra 20775N
12737,123,0.2573,3277.23,Leonard,07-22,100Ft,"Leonard, 123",48.04693356,2.5,W3031NR2
10583,124,0.2642,2796.03,Leonard,07-22,100Ft,"Leonard, 124",32.30870029,2.5,Legend 004R752
7435,125,0.1617,1202.24,Leonard,07-22,100Ft,"Leonard, 125",35.34062251,3.0,Legacy 0935N
11354,126,0.2618,2972.48,Leonard,07-22,100Ft,"Leonard, 126",49.22139342,2.5,Legacy 0837N
9417,128,0.213,2005.82,Leonard,07-22,100Ft,"Leonard, 128",37.62261318,3.0,REA R0216
11043,129,0.3311,3656.34,Leonard,07-22,100Ft,"Leonard, 129",43.10671794,2.5,REA 64G94
10758,131,0.2247,2417.32,Leonard,07-22,100Ft,"Leonard, 131",36.58282689,2.5,Thunder 3601R2Y
9881,132,0.2078,2053.27,Leonard,07-22,100Ft,"Leonard, 132",42.98910886,2.0,Legend 08R765N
12318,133,0.369,4545.34,Leonard,07-22,100Ft,"Leonard, 133",51.80000422,2.0,PB-0397R2
11302,134,0.2645,2989.38,Leonard,07-22,100Ft,"Leonard, 134",47.53653915,2.5,Thunder 3606R2Yn
10286,135,0.2307,2372.98,Leonard,07-22,100Ft,"Leonard, 135",,,PFS 15R07N
9695,137,0.2157,2091.21,Leonard,07-22,100Ft,"Leonard, 137",43.15156886,2.5,PFS 16R09N
12096,139,0.2922,3534.45,Leonard,07-22,100Ft,"Leonard, 139",50.09711897,2.5,Channel 0709R2
7341,140,0.196,1438.84,Leonard,07-22,100Ft,"Leonard, 140",33.41692576,2.5,PB-X16061R2
7537,201,0.3678,2772.11,Leonard,07-22,100Ft,"Leonard, 201",49.32305551,1.5,Thunder 3503R2Y
10107,202,0.2539,2566.17,Leonard,07-22,100Ft,"Leonard, 202",45.09652827,2.0,Legacy 0837N
12253,203,0.2887,3537.44,Leonard,07-22,100Ft,"Leonard, 203",48.25143564,2.5,Legend 11R760N
12237,204,0.3173,3882.8,Leonard,07-22,100Ft,"Leonard, 204",47.68036412,2.0,Legacy 0334
9571,205,0.2208,2113.28,Leonard,07-22,100Ft,"Leonard, 205",42.54310647,2.5,Integra 20915N
6866,207,0.1711,1174.77,Leonard,07-22,100Ft,"Leonard, 207",37.06661278,3.0,Channel 0807R2
10858,208,0.3246,3524.51,Leonard,07-22,100Ft,"Leonard, 208",50.55487018,1.5,NKS12-R3
12143,210,0.3282,3985.33,Leonard,07-22,100Ft,"Leonard, 210",49.82740939,2.0,NKS06-Q9
12273,211,0.2786,3419.26,Leonard,07-22,100Ft,"Leonard, 211",40.46151032,2.0,Legend 03R650
10458,212,0.2481,2594.63,Leonard,07-22,100Ft,"Leonard, 212",49.91907441,2.5,Integra 20775N
11038,213,0.2101,2319.08,Leonard,07-22,100Ft,"Leonard, 213",41.94258738,2.5,Thunder 3606R2Yn
12547,215,0.2917,3659.96,Leonard,07-22,100Ft,"Leonard, 215",79.4638707,1.5,NKS08-M2
12373,216,0.2987,3695.82,Leonard,07-22,100Ft,"Leonard, 216",45.3633988,2.0,Legend 004R752
12580,219,0.2697,3392.83,Leonard,07-22,100Ft,"Leonard, 219",51.73833043,2.0,Legacy 0635N
10674,221,0.37,3949.38,Leonard,07-22,100Ft,"Leonard, 221",63.3477118,1.5,REA R0815
10255,222,0.3197,3278.52,Leonard,07-22,100Ft,"Leonard, 222",52.07490865,2.0,PB-0987R2
10218,224,0.3529,3605.93,Leonard,07-22,100Ft,"Leonard, 224",50.322913899999996,1.5,W3031NR2
11450,225,0.3198,3661.71,Leonard,07-22,100Ft,"Leonard, 225",52.08686889,1.5,PFS 15R07N
12597,226,0.2551,3213.49,Leonard,07-22,100Ft,"Leonard, 226",46.41106797,2.0,Legend 08R765N
13003,227,0.3043,3956.81,Leonard,07-22,100Ft,"Leonard, 227",55.86582321,2.0,Dyna S06RY47
10899,228,0.3299,3595.58,Leonard,07-22,100Ft,"Leonard, 228",53.54203209,2.5,REA R0216
11573,231,0.3506,4057.49,Leonard,07-22,100Ft,"Leonard, 231",64.87309613,2.0,PB-0397R2
11010,232,0.2965,3264.46,Leonard,07-22,100Ft,"Leonard, 232",54.85433679,2.5,PB-X16061R2
10358,233,0.3499,3624.26,Leonard,07-22,100Ft,"Leonard, 233",54.20383233,2.0,Dyna S03RY36
11818,234,0.2811,3322.04,Leonard,07-22,100Ft,"Leonard, 234",52.83963949,2.0,Legacy 0935N
2085,235,0.1737,362.16,Leonard,07-22,100Ft,"Leonard, 235",,,Integra 30607N
13183,236,0.3499,4612.73,Leonard,07-22,100Ft,"Leonard, 236",60.99604364,1.0,Channel 0709R2
11653,237,0.2888,3365.39,Leonard,07-22,100Ft,"Leonard, 237",35.2283593,1.5,Channel 0507R2
12363,238,0.3623,4479.11,Leonard,07-22,100Ft,"Leonard, 238",54.93286366,1.0,REA 64G94
11515,239,0.3464,3988.8,Leonard,07-22,100Ft,"Leonard, 239",57.97801463,2.0,Thunder 3601R2Y
12453,240,0.2752,3427.07,Leonard,07-22,100Ft,"Leonard, 240",56.77051309,2.0,PFS 16R09N
9267,301,0.3197,2962.66,Leonard,07-22,100Ft,"Leonard, 301",46.17908149,2.5,Thunder 3606R2Yn
12069,303,0.321,3874.15,Leonard,07-22,100Ft,"Leonard, 303",50.58966362,3.0,PFS 15R07N
10386,305,0.3434,3566.55,Leonard,07-22,100Ft,"Leonard, 305",56.88075272,2.5,Legend 11R760N
9172,307,0.2992,2744.26,Leonard,07-22,100Ft,"Leonard, 307",53.79830149,2.5,PB-X16061R2
10783,308,0.3228,3480.75,Leonard,07-22,100Ft,"Leonard, 308",64.52199044,2.5,NKS08-M2
11004,309,0.2884,3173.55,Leonard,07-22,100Ft,"Leonard, 309",56.338192500000005,2.5,Legacy 0837N
11095,310,0.2933,3254.16,Leonard,07-22,100Ft,"Leonard, 310",52.23244562,3.0,REA R0216
11010,311,0.33799999999999997,3721.38,Leonard,07-22,100Ft,"Leonard, 311",54.06695397,2.5,Legacy 0334
12063,313,0.2798,3375.23,Leonard,07-22,100Ft,"Leonard, 313",58.40042876,3.0,Integra 20915N
12233,314,0.3312,4051.57,Leonard,07-22,100Ft,"Leonard, 314",51.8238039,2.5,Legend 03R650
12568,316,0.2935,3688.71,Leonard,07-22,100Ft,"Leonard, 316",46.88860191,2.5,NKS06-Q9
864,317,0.1256,108.52,Leonard,07-22,100Ft,"Leonard, 317",0.0,,Dahlman 6703XN
12103,318,0.2996,3626.06,Leonard,07-22,100Ft,"Leonard, 318",44.03777472,2.5,Dyna S06RY47
2055,320,0.161,330.86,Leonard,07-22,100Ft,"Leonard, 320",,,Integra 30607N
10519,321,0.28600000000000003,3008.43,Leonard,07-22,100Ft,"Leonard, 321",37.12363536,3.0,Legend 004R752
10428,323,0.2763,2881.26,Leonard,07-22,100Ft,"Leonard, 323",55.4939683,2.5,NKS12-R3
10276,324,0.3494,3590.43,Leonard,07-22,100Ft,"Leonard, 324",51.98445174,2.0,Thunder 3503R2Y
9943,325,0.3054,3036.59,Leonard,07-22,100Ft,"Leonard, 325",66.36848924,2.5,W3031NR2
11117,326,0.2832,3148.33,Leonard,07-22,100Ft,"Leonard, 326",49.78723988,2.5,REA 64G94
13075,327,0.2545,3327.59,Leonard,07-22,100Ft,"Leonard, 327",39.25518668,2.5,Legacy 0635N
12348,328,0.3135,3871.1,Leonard,07-22,100Ft,"Leonard, 328",50.52007674,2.0,Channel 0709R2
6230,329,0.1758,1095.23,Leonard,07-22,100Ft,"Leonard, 329",34.88993871,2.0,Legend 08R765N
11581,330,0.2418,2800.29,Leonard,07-22,100Ft,"Leonard, 330",43.8007142,2.5,Channel 0807R2
11797,331,0.382,4506.45,Leonard,07-22,100Ft,"Leonard, 331",57.16145606,1.5,PB-0397R2
11010,333,0.3438,3785.24,Leonard,07-22,100Ft,"Leonard, 333",53.76115224,2.0,PB-0987R2
10253,334,0.2788,2858.54,Leonard,07-22,100Ft,"Leonard, 334",54.54161866,2.5,Integra 20775N
10993,335,0.2324,2554.77,Leonard,07-22,100Ft,"Leonard, 335",49.3824037,2.5,Legacy 0935N
11250,336,0.281,3161.25,Leonard,07-22,100Ft,"Leonard, 336",60.97746901,2.0,Thunder 3601R2Y
10915,337,0.3072,3353.09,Leonard,07-22,100Ft,"Leonard, 337",54.25647554,2.0,Dyna S03RY36
8972,338,0.1856,1665.2,Leonard,07-22,100Ft,"Leonard, 338",35.96953208,2.5,PFS 16R09N
10528,339,0.3317,3492.14,Leonard,07-22,100Ft,"Leonard, 339",56.98679419,2.0,REA R0815
11801,340,0.2694,3179.19,Leonard,07-22,100Ft,"Leonard, 340",43.54347832,2.5,Channel 0507R2
2056,401,0.171,351.58,Leonard,07-22,100Ft,"Leonard, 401",,,Integra 30607N
11904,402,0.3169,3772.38,Leonard,07-22,100Ft,"Leonard, 402",49.27787236,2.0,Dyna S03RY36
11607,403,0.2566,2978.36,Leonard,07-22,100Ft,"Leonard, 403",49.3767256,3.0,Channel 0709R2
11011,404,0.2689,2960.86,Leonard,07-22,100Ft,"Leonard, 404",41.55472508,2.5,Thunder 3601R2Y
10261,405,0.3524,3615.98,Leonard,07-22,100Ft,"Leonard, 405",47.87782898,2.0,Thunder 3503R2Y
11475,407,0.3076,3529.71,Leonard,07-22,100Ft,"Leonard, 407",54.48507932,2.0,PB-0987R2
10665,408,0.316,3370.14,Leonard,07-22,100Ft,"Leonard, 408",59.88914709,2.0,NKS08-M2
10289,409,0.2352,2419.97,Leonard,07-22,100Ft,"Leonard, 409",40.88265594,2.5,Channel 0507R2
11045,410,0.3056,3375.35,Leonard,07-22,100Ft,"Leonard, 410",49.08176662,2.0,Integra 20915N
9769,411,0.2247,2195.09,Leonard,07-22,100Ft,"Leonard, 411",36.44468001,2.5,Dyna S06RY47
11695,413,0.268,3134.26,Leonard,07-22,100Ft,"Leonard, 413",49.45860496,2.5,Legend 11R760N
10797,415,0.35200000000000004,3800.54,Leonard,07-22,100Ft,"Leonard, 415",60.94941076,1.5,Thunder 3606R2Yn
10273,417,0.3258,3346.94,Leonard,07-22,100Ft,"Leonard, 417",57.98384374,2.0,W3031NR2
9300,418,0.377,3506.1,Leonard,07-22,100Ft,"Leonard, 418",68.66189651,1.5,Integra 20775N
12194,420,0.3154,3845.99,Leonard,07-22,100Ft,"Leonard, 420",63.80060038,2.0,Legend 08R765N
10799,421,0.3394,3665.18,Leonard,07-22,100Ft,"Leonard, 421",66.37969442,1.5,Legacy 0334
10884,422,0.2935,3194.45,Leonard,07-22,100Ft,"Leonard, 422",65.69575564,2.0,PFS 16R09N
10669,423,0.2943,3139.89,Leonard,07-22,100Ft,"Leonard, 423",54.97427148,1.0,REA 64G94
10893,424,0.3492,3803.84,Leonard,07-22,100Ft,"Leonard, 424",59.67461773,1.5,Legacy 0935N
11823,425,0.3453,4082.48,Leonard,07-22,100Ft,"Leonard, 425",50.99730865,1.5,PB-0397R2
10207,429,0.3371,3440.78,Leonard,07-22,100Ft,"Leonard, 429",49.76283615,1.5,Legacy 0635N
10694,430,0.3073,3286.27,Leonard,07-22,100Ft,"Leonard, 430",52.663588299999994,1.5,PB-X16061R2
9728,431,0.3528,3432.04,Leonard,07-22,100Ft,"Leonard, 431",54.69021565,1.5,NKS06-Q9
8438,432,0.3413,2879.89,Leonard,07-22,100Ft,"Leonard, 432",39.45829943,1.0,Legend 004R752
10363,433,0.3422,3546.22,Leonard,07-22,100Ft,"Leonard, 433",59.96522754,1.5,Legacy 0837N
74,434,0.1985,14.69,Leonard,07-22,100Ft,"Leonard, 434",0.0,,PFS 17X09N
11333,435,0.3035,3439.57,Leonard,07-22,100Ft,"Leonard, 435",65.89660319,1.5,PFS 15R07N
12118,436,0.3337,4043.78,Leonard,07-22,100Ft,"Leonard, 436",64.9105474,1.5,REA R0815
12676,437,0.3087,3913.08,Leonard,07-22,100Ft,"Leonard, 437",63.05655835,1.5,Channel 0807R2
9482,438,0.3571,3386.02,Leonard,07-22,100Ft,"Leonard, 438",52.31387193,1.0,Legend 03R650
10663,439,0.3604,3842.95,Leonard,07-22,100Ft,"Leonard, 439",54.60444015,1.0,NKS12-R3
12286,440,0.3287,4038.41,Leonard,07-22,100Ft,"Leonard, 440",52.10559453,1.5,REA R0216
