PLOT,IDC1,YLD3,Canopy,DGCI,pixel_DGCI,Canopy_0703,DGCI_0703,pixel_DGCI_0703,Canopy_0708,DGCI_0708,pixel_DGCI_0708,Canopy_0714,DGCI_0714,pixel_DGCI_0714,Canopy_0724,DGCI_0724,pixel_DGCI_0724,AUC,AUC canopy x DGCI,AUC canopy x DGCI(adjusted_for_days_diff)
156.0,156.0,156.0,156.0,156.0,156.0,156.0,156.0,156.0,156.0,156.0,156.0,156.0,156.0,156.0,156.0,156.0,156.0,156.0,156.0,156.0
270.6602564102564,3.2564102564102564,625.8856004267311,0.4701044051160255,0.21729551282051288,0.1030377463755012,0.5720481011455126,0.2063653846153847,0.12067182281013139,0.6085179827134611,0.23480769230769233,0.14918780139633975,0.9890517232987182,0.24608333333333343,0.25630082428731804,1.6108423118076927,0.2195128205128206,0.36844874725115573,6.568230128205128,5.909701072002051,7.695284570033869
112.44608725646555,0.38724493993728387,454.52596109260145,0.22093055443640014,0.00898362914631633,0.050997806037145293,0.28225263769850695,0.013408753298215571,0.06703992013411882,0.46221801251108213,0.016078884323603167,0.12263899657117418,0.6504258841950904,0.023603706197047936,0.18983868951148244,0.8401753822160788,0.02567626924449819,0.22960548342775486,0.4756375309291419,3.8639472834632724,4.999807116594204
101.0,2.5,0.0,0.0280128472,0.196,0.0058406786411999995,0.033938641799999995,0.18,0.006991360210799998,0.0024241886999999997,0.201,0.0005696843444999999,0.029628972999999996,0.199,0.007140582492999999,0.0422886251,0.17,0.0094726520224,5.7114,0.47714880602306,0.6036590797762
185.75,3.0,206.381258125,0.319386861225,0.211775,0.06688667929089,0.37601860279999993,0.19775000000000004,0.07251192836295,0.2348769496,0.22375,0.053904663964650004,0.48524177144999997,0.229,0.11329829719327499,1.06650835085,0.20074999999999998,0.20502037221649996,6.1937999999999995,3.1213784207790596,4.108557364723675
270.5,3.5,605.06293385,0.4398555718999999,0.2168,0.09464671054491,0.527934428,0.2045,0.10587199712654999,0.50436592675,0.232,0.11882335993345,0.89789255905,0.242,0.20917179536525,1.4753881782499998,0.2155,0.3148738299285,6.43985,5.110433639515505,6.6003284053651745
355.25,3.5,922.0515370749999,0.6348680850999999,0.2222,0.140876244940495,0.76563959775,0.21325,0.160568764748925,0.9291376578499999,0.246,0.22610569617479997,1.4539745113999998,0.261,0.38629837498235,2.2717341662,0.235,0.5264001859072,6.895925,8.256796132866642,10.755019225805622
440.0,4.0,1802.111075,1.0698752796,0.2535,0.264931502394,1.6848111464999997,0.251,0.4228875977714999,2.3431130557,0.279,0.6513854294846001,3.1527920815,0.315,0.9931295056725,4.0570144666,0.283,1.1481350940478,8.0183,21.00438167131393,27.0272509953899
